DigLab/P2/alarme/simulation/qsim/alarme.msim.vcd
$comment
	File created using the following command:
		vcd file alarme.msim.vcd -direction
$end
$date
	Thu Jul 23 20:25:07 2020
$end
$version
	ModelSim Version 10.5b
$end
$timescale
	1ps
$end

$scope module alarme_vlg_vec_tst $end
$var reg 1 ! a0 $end
$var reg 1 " a1 $end
$var reg 1 # a2 $end
$var reg 1 $ a3 $end
$var reg 1 % ck $end
$var wire 1 & alarme $end

$scope module i1 $end
$var wire 1 ' gnd $end
$var wire 1 ( vcc $end
$var wire 1 ) unknown $end
$var tri1 1 * devclrn $end
$var tri1 1 + devpor $end
$var tri1 1 , devoe $end
$var wire 1 - alarme~output_o $end
$var wire 1 . a3~input_o $end
$var wire 1 / a2~input_o $end
$var wire 1 0 a1~input_o $end
$var wire 1 1 a0~input_o $end
$var wire 1 2 ck~input_o $end
$var wire 1 3 inst1|Add0~13_sumout $end
$var wire 1 4 inst1|cont20[0]~0_combout $end
$var wire 1 5 inst1|Add0~14 $end
$var wire 1 6 inst1|Add0~17_sumout $end
$var wire 1 7 inst1|Add0~2 $end
$var wire 1 8 inst1|Add0~33_sumout $end
$var wire 1 9 inst1|Add0~34 $end
$var wire 1 : inst1|Add0~29_sumout $end
$var wire 1 ; inst1|Add0~30 $end
$var wire 1 < inst1|Add0~25_sumout $end
$var wire 1 = inst1|Add0~26 $end
$var wire 1 > inst1|Add0~21_sumout $end
$var wire 1 ? inst1|Equal0~0_combout $end
$var wire 1 @ inst1|Add0~22 $end
$var wire 1 A inst1|Add0~37_sumout $end
$var wire 1 B inst1|Equal0~1_combout $end
$var wire 1 C inst1|Equal0~2_combout $end
$var wire 1 D inst1|Add0~18 $end
$var wire 1 E inst1|Add0~9_sumout $end
$var wire 1 F inst1|Add0~10 $end
$var wire 1 G inst1|Add0~5_sumout $end
$var wire 1 H inst1|Add0~6 $end
$var wire 1 I inst1|Add0~1_sumout $end
$var wire 1 J inst2|Z~0_combout $end
$var wire 1 K inst2|Z~1_combout $end
$var wire 1 L inst1|Add1~21_sumout $end
$var wire 1 M inst1|cont200[0]~3_combout $end
$var wire 1 N inst1|Add1~22 $end
$var wire 1 O inst1|Add1~17_sumout $end
$var wire 1 P inst1|Add1~18 $end
$var wire 1 Q inst1|Add1~14 $end
$var wire 1 R inst1|Add1~9_sumout $end
$var wire 1 S inst1|Add1~10 $end
$var wire 1 T inst1|Add1~5_sumout $end
$var wire 1 U inst1|Add1~6 $end
$var wire 1 V inst1|Add1~2 $end
$var wire 1 W inst1|Add1~25_sumout $end
$var wire 1 X inst1|cont200~2_combout $end
$var wire 1 Y inst1|Equal1~0_combout $end
$var wire 1 Z inst1|Add1~13_sumout $end
$var wire 1 [ inst1|cont200~1_combout $end
$var wire 1 \ inst1|Add1~1_sumout $end
$var wire 1 ] inst1|cont200~0_combout $end
$var wire 1 ^ inst2|Z~2_combout $end
$var wire 1 _ inst2|Z~3_combout $end
$var wire 1 ` inst2|Z~4_combout $end
$var wire 1 a inst1|cont20k[0]~2_combout $end
$var wire 1 b inst1|cont2k~0_combout $end
$var wire 1 c inst1|cont2k~2_combout $end
$var wire 1 d inst1|cont2k[2]~1_combout $end
$var wire 1 e inst1|cont20k~0_combout $end
$var wire 1 f inst2|Z~6_combout $end
$var wire 1 g inst2|Z~5_combout $end
$var wire 1 h inst1|cont20 [9] $end
$var wire 1 i inst1|cont20 [8] $end
$var wire 1 j inst1|cont20 [7] $end
$var wire 1 k inst1|cont20 [6] $end
$var wire 1 l inst1|cont20 [5] $end
$var wire 1 m inst1|cont20 [4] $end
$var wire 1 n inst1|cont20 [3] $end
$var wire 1 o inst1|cont20 [2] $end
$var wire 1 p inst1|cont20 [1] $end
$var wire 1 q inst1|cont20 [0] $end
$var wire 1 r inst1|cont200 [6] $end
$var wire 1 s inst1|cont200 [5] $end
$var wire 1 t inst1|cont200 [4] $end
$var wire 1 u inst1|cont200 [3] $end
$var wire 1 v inst1|cont200 [2] $end
$var wire 1 w inst1|cont200 [1] $end
$var wire 1 x inst1|cont200 [0] $end
$var wire 1 y inst1|cont20k [1] $end
$var wire 1 z inst1|cont20k [0] $end
$var wire 1 { inst1|cont2k [3] $end
$var wire 1 | inst1|cont2k [2] $end
$var wire 1 } inst1|cont2k [1] $end
$var wire 1 ~ inst1|cont2k [0] $end
$upscope $end
$upscope $end
$enddefinitions $end
#0
$dumpvars
0!
0"
0#
0$
0%
0&
0'
1(
x)
1*
1+
1,
0-
0.
0/
00
01
02
03
14
15
16
07
08
09
0:
0;
0<
0=
0>
0?
0@
0A
0B
0C
0D
0E
0F
0G
0H
0I
1J
0K
0L
1M
1N
1O
0P
0Q
0R
0S
0T
0U
0V
0W
0X
0Y
0Z
0[
0\
0]
1^
0_
0`
1a
0b
1c
0d
1e
0f
0g
0q
0p
0o
0n
0m
0l
0k
0j
0i
0h
0x
0w
0v
0u
0t
0s
0r
0z
0y
z~
0}
0|
0{
$end
#500
1%
12
1y
1}
1z
1w
1x
1p
1q
05
13
1D
0N
1L
1P
06
0O
0e
0a
0D
0P
1Z
16
1E
1O
0M
04
0Z
0E
1[
0[
#1000
0%
02
#1500
1%
12
0y
0z
0x
0q
15
03
0^
1N
0L
1e
1d
0c
1a
1D
1P
06
0O
1M
14
1Z
1E
1[
#2000
0%
02
#2500
1%
12
1y
1|
0}
1z
1v
0w
1x
1o
0p
1q
05
13
0D
1F
0N
1L
0P
1Q
0Z
16
0E
1O
0e
0a
0F
0Q
1Z
06
1E
1G
0O
1R
0[
0M
04
0G
0R
1[
#3000
0%
02
#3500
1%
12
0y
0z
0x
0q
0J
15
03
1N
0L
1e
1c
1a
16
1O
1M
14
#4000
0%
02
#4500
1%
12
1y
1}
1z
1w
1x
1p
1q
05
13
1D
0N
1L
1P
06
0O
0e
0a
0D
1F
0P
1Q
0Z
16
0E
1O
0M
04
0F
0Q
1Z
1E
1G
1R
0[
0G
0R
1[
#5000
0%
02
#5500
1%
12
0y
0z
0x
0q
15
03
1N
0L
1e
0d
0c
1b
1a
1D
1P
06
0O
1M
14
1F
1Q
0Z
0E
1G
1R
0[
#6000
0%
02
#6500
1%
12
1y
0|
0}
1{
1z
0v
1u
0w
1x
1n
0o
0p
1q
05
13
0D
0F
1H
0N
1L
0P
1S
0Q
1Z
16
1E
0G
1O
0R
0e
0a
0H
0Z
0S
06
0E
1G
1I
0O
1T
1R
1[
0M
04
0I
0T
0[
#7000
0%
02
#7500
1%
12
0y
0z
0x
0q
15
03
1N
0L
1e
1c
1a
16
1O
1M
14
#8000
0%
02
#8500
1%
12
1y
1}
1z
1w
1x
1p
1q
05
13
1D
0N
1L
1P
06
0O
0e
0c
0b
0a
0D
0P
1Z
16
1E
1O
0M
04
0Z
0E
1[
0[
#9000
0%
02
#9500
1%
12
0y
0}
0{
0z
0x
0q
15
03
1N
0L
1e
1c
1a
1D
1P
06
0O
1M
14
1Z
1E
1[
#10000
0%
02
#10500
1%
12
1y
1}
1z
1v
0w
1x
1o
0p
1q
05
13
0D
1F
0N
1L
0P
1Q
0Z
16
0E
1O
0e
0a
0F
1H
0Q
1Z
1S
06
1E
0G
0O
0R
0[
0M
04
0H
0S
1G
1I
1R
1T
1[
0I
0T
#11000
0%
02
#11500
1%
12
0y
0z
0x
0q
15
03
1N
0L
1e
1d
0c
1a
16
1O
1M
14
#12000
0%
02
#12500
1%
12
1y
1|
0}
1z
1w
1x
1p
1q
05
13
1D
0N
1L
1P
06
0O
0e
0a
0D
1F
0P
1Q
0Z
16
0E
1O
0M
04
0F
1H
0Q
1Z
1S
1E
0G
0R
0[
0H
0S
1G
1I
1R
1T
1[
0I
0T
#13000
0%
02
#13500
1%
12
0y
0z
0x
0q
15
03
1N
0L
1e
1c
1a
1D
1P
06
0O
1M
14
1F
1Q
0Z
0E
1H
1S
0G
0R
0[
1I
1T
#14000
0%
02
#14500
1%
12
1y
1}
1z
0v
1t
0u
0w
1x
1m
0n
0o
0p
1q
1J
05
13
0D
0F
0H
17
1^
0N
1L
0P
0S
1U
0Q
1Z
16
1E
1G
0I
1O
1R
0T
0e
0a
07
0Z
0U
1\
06
0E
0G
1I
18
0O
1T
0R
1[
0M
04
0\
08
1]
0[
0]
#15000
0%
02
#15500
1%
12
0y
0z
0x
0q
15
03
1N
0L
1e
0d
0c
1b
1a
16
1O
1M
14
#16000
0%
02
#16500
1%
12
1y
0|
0}
1{
1z
1w
1x
1p
1q
05
13
1D
0N
1L
1P
06
0O
0e
0a
0D
0P
1Z
16
1E
1O
0M
04
0Z
0E
1[
0[
#17000
0%
02
#17500
1%
12
0y
0z
0x
0q
15
03
0^
1N
0L
1e
1c
1a
1D
1P
06
0O
1M
14
1Z
1E
1[
#18000
0%
02
#18500
1%
12
1y
1}
1z
1v
0w
1x
1o
0p
1q
05
13
0D
1F
0N
1L
0P
1Q
0Z
16
0E
1O
0e
0c
0b
0a
0F
0Q
1Z
06
1E
1G
0O
1R
0[
0M
04
0G
0R
1[
#19000
0%
02
#19500
1%
12
0y
0}
0{
0z
0x
0q
0J
15
03
1N
0L
1e
1c
1a
16
1O
1M
14
#20000
0%
02
#20500
1%
12
1y
1}
1z
1w
1x
1p
1q
05
13
1D
0N
1L
1P
06
0O
0e
0a
0D
1F
0P
1Q
0Z
16
0E
1O
0M
04
0F
0Q
1Z
1E
1G
1R
0[
0G
0R
1[
#21000
0%
02
#21500
1%
12
0y
0z
0x
0q
15
03
1N
0L
1e
1d
0c
1a
1D
1P
06
0O
1M
14
1F
1Q
0Z
0E
1G
1R
0[
#22000
0%
02
#22500
1%
12
1y
1|
0}
1z
0v
1u
0w
1x
1n
0o
0p
1q
05
13
0D
0F
1H
0N
1L
0P
1S
0Q
1Z
16
1E
0G
1O
0R
0e
0a
0H
17
0Z
1U
0S
06
0E
1G
0I
0O
0T
1R
1[
0M
04
07
1\
0U
1I
18
1T
0[
0\
08
1]
0]
#23000
0%
02
#23500
1%
12
0y
0z
0x
0q
15
03
1N
0L
1e
1c
1a
16
1O
1M
14
#24000
0%
02
#24500
1%
12
1y
1}
1z
1w
1x
1p
1q
05
13
1D
0N
1L
1P
06
0O
0e
0a
0D
0P
1Z
16
1E
1O
0M
04
0Z
0E
1[
0[
#25000
0%
02
#25500
1%
12
0y
0z
0x
0q
15
03
1N
0L
1e
0d
0c
1b
1a
1D
1P
06
0O
1M
14
1Z
1E
1[
#26000
0%
02
#26500
1%
12
1y
0|
0}
1{
1z
1v
0w
1x
1o
0p
1q
05
13
0D
1F
0N
1L
0P
1Q
0Z
16
0E
1O
0e
0a
0F
1H
0Q
1Z
1S
06
1E
0G
0O
0R
0[
0M
04
0H
17
0S
1U
1G
0I
1R
0T
1[
07
0U
1\
1I
18
1T
0\
08
1]
0]
#27000
0%
02
#27500
1%
12
0y
0z
0x
0q
15
03
1N
0L
1e
1c
1a
16
1O
1M
14
#28000
0%
02
#28500
1%
12
1y
1}
1z
1w
1x
1p
1q
05
13
1D
0N
1L
1P
06
0O
0e
0c
0b
0a
0D
1F
0P
1Q
0Z
16
0E
1O
0M
04
0F
1H
0Q
1Z
1S
1E
0G
0R
0[
0H
17
0S
1U
1G
0I
1R
0T
1[
07
0U
1\
1I
18
1T
0\
08
1]
0]
#29000
0%
02
#29500
1%
12
0y
0}
0{
0z
0x
0q
15
03
1N
0L
1e
1c
1a
1D
1P
06
0O
1M
14
1F
1Q
0Z
0E
1H
1S
0G
0R
0[
17
1U
0I
0T
1\
18
1]
#30000
0%
02
#30500
1%
12
1y
1}
1z
1s
0v
0t
0u
0w
1x
0m
0n
0o
0p
1l
1q
1J
05
13
19
0D
0F
0H
07
1^
0N
1L
0P
0S
0U
0Q
1Z
1V
0\
08
16
1E
1G
1I
1O
1R
1T
0e
0a
09
0Z
0V
1\
1W
06
1:
0E
0G
0I
18
0O
0T
0R
0]
1[
0M
04
0W
0:
1X
1]
0[
0X
#31000
0%
02
#31500
1%
12
0y
0z
0x
0q
15
03
1N
0L
1e
1d
0c
1a
16
1O
1M
14
#32000
0%
02
#32500
1%
12
1y
1|
0}
1z
1w
1x
1p
1q
05
13
1D
0N
1L
1P
06
0O
0e
0a
0D
0P
1Z
16
1E
1O
0M
04
0Z
0E
1[
0[
#33000
0%
02
#33500
1%
12
0y
0z
0x
0q
15
03
0^
1N
0L
1e
1c
1a
1D
1P
06
0O
1M
14
1Z
1E
1[
#34000
0%
02
#34500
1%
12
1y
1}
1z
1v
0w
1x
1o
0p
1q
05
13
0D
1F
0N
1L
0P
1Q
0Z
16
0E
1O
0e
0a
0F
0Q
1Z
06
1E
1G
0O
1R
0[
0M
04
0G
0R
1[
#35000
0%
02
#35500
1%
12
0y
0z
0x
0q
0J
15
03
1N
0L
1e
0d
0c
1b
1a
16
1O
1M
14
#36000
0%
02
#36500
1%
12
1y
0|
0}
1{
1z
1w
1x
1p
1q
05
13
1D
0N
1L
1P
06
0O
0e
0a
0D
1F
0P
1Q
0Z
16
0E
1O
0M
04
0F
0Q
1Z
1E
1G
1R
0[
0G
0R
1[
#37000
0%
02
#37500
1%
12
0y
0z
0x
0q
15
03
1N
0L
1e
1c
1a
1D
1P
06
0O
1M
14
1F
1Q
0Z
0E
1G
1R
0[
#38000
0%
02
#38500
1%
12
1y
1}
1z
0v
1u
0w
1x
1n
0o
0p
1q
05
13
0D
0F
1H
0N
1L
0P
1S
0Q
1Z
16
1E
0G
1O
0R
0e
0c
0b
0a
0H
0Z
0S
06
0E
1G
1I
0O
1T
1R
1[
0M
04
0I
0T
0[
#39000
0%
02
#39500
1%
12
0y
0}
0{
0z
0x
0q
15
03
1N
0L
1e
1c
1a
16
1O
1M
14
#40000
0%
02
#40500
1%
12
1y
1}
1z
1w
1x
1p
1q
05
13
1D
0N
1L
1P
06
0O
0e
0a
0D
0P
1Z
16
1E
1O
0M
04
0Z
0E
1[
0[
#41000
0%
02
#41500
1%
12
0y
0z
0x
0q
15
03
1N
0L
1e
1d
0c
1a
1D
1P
06
0O
1M
14
1Z
1E
1[
#42000
0%
02
#42500
1%
12
1y
1|
0}
1z
1v
0w
1x
1o
0p
1q
05
13
0D
1F
0N
1L
0P
1Q
0Z
16
0E
1O
0e
0a
0F
1H
0Q
1Z
1S
06
1E
0G
0O
0R
0[
0M
04
0H
0S
1G
1I
1R
1T
1[
0I
0T
#43000
0%
02
#43500
1%
12
0y
0z
0x
0q
15
03
1N
0L
1e
1c
1a
16
1O
1M
14
#44000
0%
02
#44500
1%
12
1y
1}
1z
1w
1x
1p
1q
05
13
1D
0N
1L
1P
06
0O
0e
0a
0D
1F
0P
1Q
0Z
16
0E
1O
0M
04
0F
1H
0Q
1Z
1S
1E
0G
0R
0[
0H
0S
1G
1I
1R
1T
1[
0I
0T
#45000
0%
02
#45500
1%
12
0y
0z
0x
0q
15
03
1N
0L
1e
0d
0c
1b
1a
1D
1P
06
0O
1M
14
1F
1Q
0Z
0E
1H
1S
0G
0R
0[
1I
1T
#46000
0%
02
#46500
1%
12
1y
0|
0}
1{
1z
0v
1t
0u
0w
1x
1m
0n
0o
0p
1q
1J
05
13
0D
0F
0H
17
1^
0N
1L
0P
0S
1U
0Q
1Z
16
1E
1G
0I
1O
1R
0T
0e
0a
07
19
0Z
0U
1V
0\
06
0E
0G
1I
08
0O
1T
0R
1[
0M
04
09
0V
1\
1W
18
1:
0]
0[
0W
0:
1X
1]
0X
#47000
0%
02
#47500
1%
12
0y
0z
0x
0q
15
03
1N
0L
1e
1c
1a
16
1O
1M
14
#48000
0%
02
#48500
1%
12
1y
1}
1z
1w
1x
1p
1q
05
13
1D
0N
1L
1P
06
0O
0e
0c
0b
0a
0D
0P
1Z
16
1E
1O
0M
04
0Z
0E
1[
0[
#49000
0%
02
#49500
1%
12
0y
0}
0{
0z
0x
0q
15
03
0^
1N
0L
1e
1c
1a
1D
1P
06
0O
1M
14
1Z
1E
1[
#50000
0%
02
#50500
1%
12
1y
1}
1z
1v
0w
1x
1o
0p
1q
05
13
0D
1F
0N
1L
0P
1Q
0Z
16
0E
1O
0e
0a
0F
0Q
1Z
06
1E
1G
0O
1R
0[
0M
04
0G
0R
1[
#51000
0%
02
#51500
1%
12
0y
0z
0x
0q
0J
15
03
1N
0L
1e
1d
0c
1a
16
1O
1M
14
#52000
0%
02
#52500
1%
12
1y
1|
0}
1z
1w
1x
1p
1q
05
13
1D
0N
1L
1P
06
0O
0e
0a
0D
1F
0P
1Q
0Z
16
0E
1O
0M
04
0F
0Q
1Z
1E
1G
1R
0[
0G
0R
1[
#53000
0%
02
#53500
1%
12
0y
0z
0x
0q
15
03
1N
0L
1e
1c
1a
1D
1P
06
0O
1M
14
1F
1Q
0Z
0E
1G
1R
0[
#54000
0%
02
#54500
1%
12
1y
1}
1z
0v
1u
0w
1x
1n
0o
0p
1q
05
13
0D
0F
1H
0N
1L
0P
1S
0Q
1Z
16
1E
0G
1O
0R
0e
0a
0H
17
0Z
1U
0S
06
0E
1G
0I
0O
0T
1R
1[
0M
04
07
19
1V
0\
0U
1I
08
1T
0[
09
1W
0V
1\
18
1:
0]
0W
0:
1]
1X
0X
#55000
0%
02
#55500
1%
12
0y
0z
0x
0q
15
03
1N
0L
1e
0d
0c
1b
1a
16
1O
1M
14
#56000
0%
02
#56500
1%
12
1y
0|
0}
1{
1z
1w
1x
1p
1q
05
13
1D
0N
1L
1P
06
0O
0e
0a
0D
0P
1Z
16
1E
1O
0M
04
0Z
0E
1[
0[
#57000
0%
02
#57500
1%
12
0y
0z
0x
0q
15
03
1N
0L
1e
1c
1a
1D
1P
06
0O
1M
14
1Z
1E
1[
#58000
0%
02
#58500
1%
12
1y
1}
1z
1v
0w
1x
1o
0p
1q
05
13
0D
1F
0N
1L
0P
1Q
0Z
16
0E
1O
0e
0c
0b
0a
0F
1H
0Q
1Z
1S
06
1E
0G
0O
0R
0[
0M
04
0H
17
0S
1U
1G
0I
1R
0T
1[
07
19
0U
1V
0\
1I
08
1T
09
0V
1\
1W
18
1:
0]
0W
0:
1X
1]
0X
#59000
0%
02
#59500
1%
12
0y
0}
0{
0z
0x
0q
15
03
1N
0L
1e
1c
1a
16
1O
1M
14
#60000
0%
02
#60500
1%
12
1y
1}
1z
1w
1x
1p
1q
05
13
1D
0N
1L
1P
06
0O
0e
0a
0D
1F
0P
1Q
0Z
16
0E
1O
0M
04
0F
1H
0Q
1Z
1S
1E
0G
0R
0[
0H
17
0S
1U
1G
0I
1R
0T
1[
07
19
0U
1V
0\
1I
08
1T
09
0V
1\
1W
18
1:
0]
0W
0:
1X
1]
0X
#61000
0%
02
#61500
1%
12
0y
0z
0x
0q
15
03
1N
0L
1e
1d
0c
1a
1D
1P
06
0O
1M
14
1F
1Q
0Z
0E
1H
1S
0G
0R
0[
17
1U
0I
0T
19
1V
0\
08
1W
1:
0]
1X
#62000
0%
02
#62500
1!
1%
11
12
1y
1|
0}
1z
0s
0v
1r
0t
0u
0w
1x
0m
0n
0o
0p
1k
0l
1q
1J
05
13
09
1;
0D
0F
0H
07
1^
0N
1L
0P
0S
0U
0W
0Q
1Z
0V
1\
18
0:
16
1E
1G
1I
1O
1R
1T
0e
0a
0;
0Z
0\
1W
06
1:
1<
0E
0G
0I
08
0O
0T
0R
1]
1[
0X
0M
04
0<
1X
0]
0[
#63000
0%
02
#63500
1%
12
0y
0z
0x
0q
15
03
1N
0L
1e
1c
1a
16
1O
1M
14
#64000
0%
02
#64500
1%
12
1y
1}
1z
1w
1x
1p
1q
05
13
1D
0N
1L
1P
06
0O
0e
0a
0D
0P
1Z
16
1E
1O
0M
04
0Z
0E
1[
0[
#65000
0%
02
#65500
1%
12
0y
0z
0x
0q
15
03
0^
1N
0L
1e
0d
0c
1b
1a
1D
1P
06
0O
1M
14
1Z
1E
1[
#66000
0%
02
#66500
1%
12
1y
0|
0}
1{
1z
1v
0w
1x
1o
0p
1q
05
13
0D
1F
0N
1L
0P
1Q
0Z
16
0E
1O
0e
0a
0F
0Q
1Z
06
1E
1G
0O
1R
0[
0M
04
0G
0R
1[
#67000
0%
02
#67500
1%
12
0y
0z
0x
0q
0J
15
03
1N
0L
1e
1c
1a
16
1O
1M
14
#68000
0%
02
#68500
1%
12
1y
1}
1z
1w
1x
1p
1q
05
13
1D
0N
1L
1P
06
0O
0e
0c
0b
0a
0D
1F
0P
1Q
0Z
16
0E
1O
0M
04
0F
0Q
1Z
1E
1G
1R
0[
0G
0R
1[
#69000
0%
02
#69500
1%
12
0y
0}
0{
0z
0x
0q
15
03
1N
0L
1e
1c
1a
1D
1P
06
0O
1M
14
1F
1Q
0Z
0E
1G
1R
0[
#70000
0%
02
#70500
1%
12
1y
1}
1z
0v
1u
0w
1x
1n
0o
0p
1q
05
13
0D
0F
1H
0N
1L
0P
1S
0Q
1Z
16
1E
0G
1O
0R
0e
0a
0H
0Z
0S
06
0E
1G
1I
0O
1T
1R
1[
0M
04
0I
0T
0[
#71000
0%
02
#71500
1%
12
0y
0z
0x
0q
15
03
1N
0L
1e
1d
0c
1a
16
1O
1M
14
#72000
0%
02
#72500
1%
12
1y
1|
0}
1z
1w
1x
1p
1q
05
13
1D
0N
1L
1P
06
0O
0e
0a
0D
0P
1Z
16
1E
1O
0M
04
0Z
0E
1[
0[
#73000
0%
02
#73500
1%
12
0y
0z
0x
0q
15
03
1N
0L
1e
1c
1a
1D
1P
06
0O
1M
14
1Z
1E
1[
#74000
0%
02
#74500
1%
12
1y
1}
1z
1v
0w
1x
1o
0p
1q
05
13
0D
1F
0N
1L
0P
1Q
0Z
16
0E
1O
0e
0a
0F
1H
0Q
1Z
1S
06
1E
0G
0O
0R
0[
0M
04
0H
0S
1G
1I
1R
1T
1[
0I
0T
#75000
0%
02
#75500
1%
12
0y
0z
0x
0q
15
03
1N
0L
1e
0d
0c
1b
1a
16
1O
1M
14
#76000
0%
02
#76500
1%
12
1y
0|
0}
1{
1z
1w
1x
1p
1q
05
13
1D
0N
1L
1P
06
0O
0e
0a
0D
1F
0P
1Q
0Z
16
0E
1O
0M
04
0F
1H
0Q
1Z
1S
1E
0G
0R
0[
0H
0S
1G
1I
1R
1T
1[
0I
0T
#77000
0%
02
#77500
1%
12
0y
0z
0x
0q
15
03
1N
0L
1e
1c
1a
1D
1P
06
0O
1M
14
1F
1Q
0Z
0E
1H
1S
0G
0R
0[
1I
1T
#78000
0%
02
#78500
1%
12
1y
1}
1z
0v
1t
0u
0w
1x
1m
0n
0o
0p
1q
1J
05
13
0D
0F
0H
17
1^
0N
1L
0P
0S
1U
0Q
1Z
16
1E
1G
0I
1O
1R
0T
0e
0c
0b
0a
07
0Z
0U
1\
06
0E
0G
1I
18
0O
1T
0R
1[
0M
04
0\
08
1]
0[
0]
#79000
0%
02
#79500
1%
12
0y
0}
0{
0z
0x
0q
15
03
1N
0L
1e
1c
1a
16
1O
1M
14
#80000
0%
02
#80500
1%
12
1y
1}
1z
1w
1x
1p
1q
05
13
1D
0N
1L
1P
06
0O
0e
0a
0D
0P
1Z
16
1E
1O
0M
04
0Z
0E
1[
0[
#81000
0%
02
#81500
1%
12
0y
0z
0x
0q
15
03
0^
1N
0L
1e
1d
0c
1a
1D
1P
06
0O
1M
14
1Z
1E
1[
#82000
0%
02
#82500
1%
12
1y
1|
0}
1z
1v
0w
1x
1o
0p
1q
05
13
0D
1F
0N
1L
0P
1Q
0Z
16
0E
1O
0e
0a
0F
0Q
1Z
06
1E
1G
0O
1R
0[
0M
04
0G
0R
1[
#83000
0%
02
#83500
1%
12
0y
0z
0x
0q
0J
15
03
1N
0L
1e
1c
1a
16
1O
1M
14
#84000
0%
02
#84500
1%
12
1y
1}
1z
1w
1x
1p
1q
05
13
1D
0N
1L
1P
06
0O
0e
0a
0D
1F
0P
1Q
0Z
16
0E
1O
0M
04
0F
0Q
1Z
1E
1G
1R
0[
0G
0R
1[
#85000
0%
02
#85500
1%
12
0y
0z
0x
0q
15
03
1N
0L
1e
0d
0c
1b
1a
1D
1P
06
0O
1M
14
1F
1Q
0Z
0E
1G
1R
0[
#86000
0%
02
#86500
1%
12
1y
0|
0}
1{
1z
0v
1u
0w
1x
1n
0o
0p
1q
05
13
0D
0F
1H
0N
1L
0P
1S
0Q
1Z
16
1E
0G
1O
0R
0e
0a
0H
17
0Z
1U
0S
06
0E
1G
0I
0O
0T
1R
1[
0M
04
07
1\
0U
1I
18
1T
0[
0\
08
1]
0]
#87000
0%
02
#87500
1%
12
0y
0z
0x
0q
15
03
1N
0L
1e
1c
1a
16
1O
1M
14
#88000
0%
02
#88500
1%
12
1y
1}
1z
1w
1x
1p
1q
05
13
1D
0N
1L
1P
06
0O
0e
0c
0b
0a
0D
0P
1Z
16
1E
1O
0M
04
0Z
0E
1[
0[
#89000
0%
02
#89500
1%
12
0y
0}
0{
0z
0x
0q
15
03
1N
0L
1e
1c
1a
1D
1P
06
0O
1M
14
1Z
1E
1[
#90000
0%
02
#90500
1%
12
1y
1}
1z
1v
0w
1x
1o
0p
1q
05
13
0D
1F
0N
1L
0P
1Q
0Z
16
0E
1O
0e
0a
0F
1H
0Q
1Z
1S
06
1E
0G
0O
0R
0[
0M
04
0H
17
0S
1U
1G
0I
1R
0T
1[
07
0U
1\
1I
18
1T
0\
08
1]
0]
#91000
0%
02
#91500
1%
12
0y
0z
0x
0q
15
03
1N
0L
1e
1d
0c
1a
16
1O
1M
14
#92000
0%
02
#92500
1%
12
1y
1|
0}
1z
1w
1x
1p
1q
05
13
1D
0N
1L
1P
06
0O
0e
0a
0D
1F
0P
1Q
0Z
16
0E
1O
0M
04
0F
1H
0Q
1Z
1S
1E
0G
0R
0[
0H
17
0S
1U
1G
0I
1R
0T
1[
07
0U
1\
1I
18
1T
0\
08
1]
0]
#93000
0%
02
#93500
1%
12
0y
0z
0x
0q
15
03
1N
0L
1e
1c
1a
1D
1P
06
0O
1M
14
1F
1Q
0Z
0E
1H
1S
0G
0R
0[
17
1U
0I
0T
1\
18
1]
#94000
0%
02
#94500
1%
12
1y
1}
1z
1s
0v
0t
0u
0w
1x
0m
0n
0o
0p
1l
1q
1J
05
13
19
0D
0F
0H
07
1^
0N
1L
0P
1Y
0S
0U
0Q
1Z
1V
0\
08
16
1E
1G
1I
1O
1R
1T
0e
0a
1;
09
0Z
0V
1\
0W
06
0:
0E
0G
0I
18
0O
0T
0R
0]
1[
0M
04
0;
1W
1<
1:
0X
1]
0[
0<
1X
#95000
0%
02
#95500
1%
12
0y
0z
0x
0q
15
03
1N
0L
1e
0d
0c
1b
1a
16
1O
1M
14
#96000
0%
02
#96500
1%
12
1y
0|
0}
1{
1z
1w
1x
1p
1q
05
13
1D
0N
1L
1P
06
0O
0e
0a
0D
0P
1Z
16
1E
1O
0M
04
0Z
0E
1[
0[
#97000
0%
02
#97500
1%
12
0y
0z
0x
0q
15
03
0^
1N
0L
1e
1c
1a
1D
1P
06
0O
1M
14
1Z
1E
1[
#98000
0%
02
#98500
1%
12
1y
1}
1z
1v
0w
1x
1o
0p
1q
05
13
0D
1F
0N
1L
0P
1Q
0Z
16
0E
0]
0[
0X
1O
0e
0c
0b
0a
0F
0Q
1Z
06
1E
1G
0O
1R
0M
04
0G
0R
#99000
0%
02
#99500
1%
12
0y
0}
0{
0z
0s
0v
0r
0x
0q
0J
15
03
1^
1N
0L
0Y
0W
0Z
0\
1]
1[
1X
1e
1c
1a
16
1O
0]
0[
0X
1M
14
#100000
0%
02
#100500
1%
12
1y
1}
1z
1w
1x
1p
1q
05
13
1D
0N
1L
1P
06
0O
0e
0a
0D
1F
0P
1Z
16
0E
1O
0M
04
0F
0Z
1E
1G
1[
0G
0[
#101000
0%
02
#101500
1%
12
0y
0z
0x
0q
15
03
0^
1N
0L
1e
1d
0c
1a
1D
1P
06
0O
1M
14
1F
1Z
0E
1G
1[
#102000
0%
02
#102500
1%
12
1y
1|
0}
1z
1v
0w
1x
1n
0o
0p
1q
05
13
0D
0F
1H
0N
1L
0P
1Q
0Z
16
1E
0G
1O
0e
0a
0H
0Q
1Z
06
0E
1G
1I
0O
1R
0[
0M
04
0I
0R
1[
#103000
0%
02
#103500
1%
12
0y
0z
0x
0q
15
03
1N
0L
1e
1c
1a
16
1O
1M
14
#104000
0%
02
#104500
1%
12
1y
1}
1z
1w
1x
1p
1q
05
13
1D
0N
1L
1P
06
0O
0e
0a
0D
0P
1Q
0Z
16
1E
1O
0M
04
0Q
1Z
0E
1R
0[
0R
1[
#105000
0%
02
#105500
1%
12
0y
0z
0x
0q
15
03
1N
0L
1e
0d
0c
1b
1a
1D
1P
06
0O
1M
14
1Q
0Z
1E
1R
0[
#106000
0%
02
#106500
1%
12
1y
0|
0}
1{
1z
0v
1u
0w
1x
1o
0p
1q
05
13
0D
1F
0N
1L
0P
1S
0Q
1Z
16
0E
1O
0R
0e
0a
0F
1H
0Z
0S
06
1E
0G
0O
1T
1R
1[
0M
04
0H
1G
1I
0T
0[
0I
#107000
0%
02
#107500
1%
12
0y
0z
0x
0q
15
03
1N
0L
1e
1c
1a
16
1O
1M
14
#108000
0%
02
#108500
1%
12
1y
1}
1z
1w
1x
1p
1q
05
13
1D
0N
1L
1P
06
0O
0e
0c
0b
0a
0D
1F
0P
1Z
16
0E
1O
0M
04
0F
1H
0Z
1E
0G
1[
0H
1G
1I
0[
0I
#109000
0%
02
#109500
1%
12
0y
0}
0{
0z
0x
0q
15
03
1N
0L
1e
1c
1a
1D
1P
06
0O
1M
14
1F
1Z
0E
1H
0G
1[
1I
#110000
0%
02
