DigLab/exp_6/1.2/simulation/qsim/fluxo_dados.msim.vcd
$comment
	File created using the following command:
		vcd file fluxo_dados.msim.vcd -direction
$end
$date
	Sun Apr 26 21:09:07 2020
$end
$version
	ModelSim Version 10.5b
$end
$timescale
	1ps
$end

$scope module fluxo_dados_vhd_vec_tst $end
$var wire 1 ! carrega2 $end
$var wire 1 " clock $end
$var wire 1 # condicao1 $end
$var wire 1 $ conta1 $end
$var wire 1 % conta2 $end
$var wire 1 & db_contagem1 [3] $end
$var wire 1 ' db_contagem1 [2] $end
$var wire 1 ( db_contagem1 [1] $end
$var wire 1 ) db_contagem1 [0] $end
$var wire 1 * db_fim2 $end
$var wire 1 + fim1 $end
$var wire 1 , saida [3] $end
$var wire 1 - saida [2] $end
$var wire 1 . saida [1] $end
$var wire 1 / saida [0] $end
$var wire 1 0 zera1 $end

$scope module i1 $end
$var wire 1 1 gnd $end
$var wire 1 2 vcc $end
$var wire 1 3 unknown $end
$var wire 1 4 devoe $end
$var wire 1 5 devclrn $end
$var wire 1 6 devpor $end
$var wire 1 7 ww_devoe $end
$var wire 1 8 ww_devclrn $end
$var wire 1 9 ww_devpor $end
$var wire 1 : ww_clock $end
$var wire 1 ; ww_zera1 $end
$var wire 1 < ww_conta1 $end
$var wire 1 = ww_conta2 $end
$var wire 1 > ww_carrega2 $end
$var wire 1 ? ww_fim1 $end
$var wire 1 @ ww_condicao1 $end
$var wire 1 A ww_saida [3] $end
$var wire 1 B ww_saida [2] $end
$var wire 1 C ww_saida [1] $end
$var wire 1 D ww_saida [0] $end
$var wire 1 E ww_db_fim2 $end
$var wire 1 F ww_db_contagem1 [3] $end
$var wire 1 G ww_db_contagem1 [2] $end
$var wire 1 H ww_db_contagem1 [1] $end
$var wire 1 I ww_db_contagem1 [0] $end
$var wire 1 J \fim1~output_o\ $end
$var wire 1 K \condicao1~output_o\ $end
$var wire 1 L \saida[0]~output_o\ $end
$var wire 1 M \saida[1]~output_o\ $end
$var wire 1 N \saida[2]~output_o\ $end
$var wire 1 O \saida[3]~output_o\ $end
$var wire 1 P \db_fim2~output_o\ $end
$var wire 1 Q \db_contagem1[0]~output_o\ $end
$var wire 1 R \db_contagem1[1]~output_o\ $end
$var wire 1 S \db_contagem1[2]~output_o\ $end
$var wire 1 T \db_contagem1[3]~output_o\ $end
$var wire 1 U \clock~input_o\ $end
$var wire 1 V \conta1~input_o\ $end
$var wire 1 W \IQ1[0]~3_combout\ $end
$var wire 1 X \zera1~input_o\ $end
$var wire 1 Y \IQ1[1]~2_combout\ $end
$var wire 1 Z \IQ1[2]~1_combout\ $end
$var wire 1 [ \IQ1[3]~0_combout\ $end
$var wire 1 \ \Equal1~0_combout\ $end
$var wire 1 ] \Equal2~0_combout\ $end
$var wire 1 ^ \carrega2~input_o\ $end
$var wire 1 _ \IQ2~0_combout\ $end
$var wire 1 ` \conta2~input_o\ $end
$var wire 1 a \IQ2[0]~1_combout\ $end
$var wire 1 b \IQ2~2_combout\ $end
$var wire 1 c \IQ2~3_combout\ $end
$var wire 1 d \IQ2~4_combout\ $end
$var wire 1 e \Equal0~0_combout\ $end
$var wire 1 f IQ1 [3] $end
$var wire 1 g IQ1 [2] $end
$var wire 1 h IQ1 [1] $end
$var wire 1 i IQ1 [0] $end
$var wire 1 j IQ2 [3] $end
$var wire 1 k IQ2 [2] $end
$var wire 1 l IQ2 [1] $end
$var wire 1 m IQ2 [0] $end
$var wire 1 n ALT_INV_IQ1 [3] $end
$var wire 1 o ALT_INV_IQ1 [2] $end
$var wire 1 p ALT_INV_IQ1 [1] $end
$var wire 1 q ALT_INV_IQ1 [0] $end
$var wire 1 r \ALT_INV_Equal2~0_combout\ $end
$var wire 1 s ALT_INV_IQ2 [3] $end
$var wire 1 t ALT_INV_IQ2 [2] $end
$var wire 1 u ALT_INV_IQ2 [1] $end
$var wire 1 v ALT_INV_IQ2 [0] $end
$var wire 1 w \ALT_INV_conta1~input_o\ $end
$var wire 1 x \ALT_INV_zera1~input_o\ $end
$var wire 1 y \ALT_INV_carrega2~input_o\ $end
$var wire 1 z \ALT_INV_conta2~input_o\ $end
$upscope $end
$upscope $end
$enddefinitions $end
#0
$dumpvars
0!
0"
1#
1$
1%
0*
0+
10
01
12
x3
14
15
16
17
18
19
0:
1;
1<
1=
0>
0?
1@
0E
0J
1K
0L
0M
0N
0O
0P
0Q
0R
0S
0T
0U
1V
1W
1X
0Y
0Z
0[
0\
0]
0^
1_
1`
1a
0b
0c
0d
0e
1r
0w
0x
1y
0z
0,
0-
0.
0/
0&
0'
0(
0)
0A
0B
0C
0D
0F
0G
0H
0I
0f
0g
0h
0i
0j
0k
0l
0m
1n
1o
1p
1q
1s
1t
1u
1v
$end
#100000
1"
1:
1U
1m
0v
0_
1b
1L
1D
1/
#200000
0"
0:
0U
#300000
1"
1:
1U
0m
1l
0u
1v
1_
1M
0L
1C
0D
0/
1.
#400000
0"
0:
0U
#500000
1"
1:
1U
1m
0v
0_
0b
1c
1L
1D
1/
#600000
0"
0:
0U
#700000
1"
1:
1U
0m
0l
1k
0t
1u
1v
1_
1N
0M
0L
1B
0C
0D
0/
0.
1-
#800000
0"
0:
0U
#900000
1"
1:
1U
1m
0v
0_
1b
1L
1D
1/
#1000000
0"
0:
0U
#1100000
1"
1:
1U
0m
1l
0u
1v
1_
1M
0L
1C
0D
0/
1.
#1200000
0"
0:
0U
#1300000
1"
1:
1U
1m
0v
0_
0b
0c
1d
1L
1D
1/
#1400000
0"
0:
0U
#1500000
1"
1:
1U
0m
0l
0k
1j
0s
1t
1u
1v
1_
1O
0N
0M
0L
1A
0B
0C
0D
0/
0.
0-
1,
#1600000
0"
00
0$
0:
0;
0<
0V
0X
0U
1x
1w
0W
#1700000
1"
1:
1U
1m
0v
0_
1b
1L
1D
1/
#1800000
0"
0:
0U
#1900000
1"
1:
1U
0m
1l
0u
1v
1_
1M
0L
1C
0D
0/
1.
#2000000
0"
0:
0U
#2100000
1"
1:
1U
1m
0v
0_
0b
1c
1L
1D
1/
#2200000
0"
0:
0U
#2300000
1"
1:
1U
0m
0l
1k
0t
1u
1v
1_
1N
0M
0L
1B
0C
0D
0/
0.
1-
#2400000
0"
0:
0U
#2500000
1"
1:
1U
1m
0v
0_
1b
1L
1D
1/
#2600000
0"
1$
0:
1<
1V
0U
0w
1W
#2700000
1"
1:
1U
1i
0m
1l
0u
1v
0q
0W
1Y
1]
1_
0r
1M
0L
1Q
1C
0D
1I
0/
1.
1)
0K
0@
0#
#2800000
0"
0:
0U
#2900000
1"
1:
1U
0i
1h
1m
0v
0p
1q
1W
0_
0b
0c
0d
1e
1L
1R
0Q
1D
1H
0I
1/
0)
1(
1P
1E
1*
#3000000
0"
0:
0U
#3100000
1"
1:
1U
1i
0m
0l
0k
0j
1s
1t
1u
1v
0q
0W
0Y
1Z
1_
0e
0O
0N
0M
0L
1Q
0A
0B
0C
0D
1I
0/
0.
0-
0,
1)
0P
0E
0*
#3200000
0"
1!
0:
1>
1^
0U
0y
0_
#3300000
1"
1:
1U
0i
0h
1g
0o
1p
1q
1W
1S
0R
0Q
1G
0H
0I
0)
0(
1'
#3400000
0"
0:
0U
#3500000
1"
1:
1U
1i
0q
0W
1Y
0]
1r
1Q
1I
1)
1K
1@
1#
#3600000
0"
0:
0U
#3700000
1"
1:
1U
0i
1h
0p
1q
1W
1]
0r
1R
0Q
1H
0I
0)
1(
0K
0@
0#
#3800000
0"
0:
0U
#3900000
1"
0%
1:
0=
0`
1U
1z
1i
0q
0W
0Y
0Z
1[
1Q
1I
1)
#4000000
0"
0:
0U
#4100000
1"
1:
1U
0i
0h
0g
1f
0n
1o
1p
1q
1W
1T
0S
0R
0Q
1F
0G
0H
0I
0)
0(
0'
1&
#4200000
0"
0:
0U
#4300000
1"
1:
1U
1i
0q
0W
1Y
1Q
1I
1)
#4400000
0"
0:
0U
#4500000
1"
1:
1U
0i
1h
0p
1q
1W
0]
1r
1R
0Q
1H
0I
0)
1(
1K
1@
1#
#4600000
0"
0!
0:
0>
0^
0U
1y
1_
0a
#4700000
1"
1:
1U
1i
0q
0W
0Y
1Z
1]
0r
1Q
1I
1)
0K
0@
0#
#4800000
0"
0:
0U
#4900000
1"
1:
1U
0i
0h
1g
0o
1p
1q
1W
1S
0R
0Q
1G
0H
0I
0)
0(
1'
#5000000
0"
0:
0U
#5100000
1"
1:
1U
1i
0q
0W
1Y
1Q
1I
1)
#5200000
0"
0:
0U
#5300000
1"
1%
1:
1=
1`
1U
0z
0i
1h
1a
0p
1q
1W
1R
0Q
1H
0I
0)
1(
#5400000
0"
0:
0U
#5500000
1"
1:
1U
1i
1m
0v
0q
0W
0Y
0Z
0[
1\
0]
0_
1b
1r
1L
1Q
1D
1I
1/
1)
1J
1K
1?
1@
1+
1#
#5600000
0"
0:
0U
#5700000
1"
1:
1U
0i
0h
0g
0f
0m
1l
0u
1v
1n
1o
1p
1q
1W
0\
1_
1M
0L
0T
0S
0R
0Q
1C
0D
0F
0G
0H
0I
0/
1.
0)
0(
0'
0&
0J
0?
0+
#5800000
0"
0:
0U
#5900000
1"
1:
1U
1i
1m
0v
0q
0W
1Y
1]
0_
0b
1c
0r
1L
1Q
1D
1I
1/
1)
0K
0@
0#
#6000000
0"
0:
0U
#6100000
1"
1:
1U
0i
1h
0m
0l
1k
0t
1u
1v
0p
1q
1W
1_
1N
0M
0L
1R
0Q
1B
0C
0D
1H
0I
0/
0.
1-
0)
1(
#6200000
0"
0:
0U
#6300000
1"
1:
1U
1i
1m
0v
0q
0W
0Y
1Z
0_
1b
1L
1Q
1D
1I
1/
1)
#6400000
0"
0:
0U
#6500000
1"
1:
1U
0i
0h
1g
0m
1l
0u
1v
0o
1p
1q
1W
1_
1M
0L
1S
0R
0Q
1C
0D
1G
0H
0I
0/
1.
0)
0(
1'
#6600000
0"
0:
0U
#6700000
1"
1:
1U
1i
1m
0v
0q
0W
1Y
0]
0_
0b
0c
1d
1r
1L
1Q
1D
1I
1/
1)
1K
1@
1#
#6800000
0"
0:
0U
#6900000
1"
1:
1U
0i
1h
0m
0l
0k
1j
0s
1t
1u
1v
0p
1q
1W
1]
1_
0r
1O
0N
0M
0L
1R
0Q
1A
0B
0C
0D
1H
0I
0/
0.
0-
1,
0)
1(
0K
0@
0#
#7000000
0"
0:
0U
#7100000
1"
0%
1:
0=
0`
1U
1z
1i
1m
0a
0v
0q
0W
0Y
0Z
1[
0_
1b
1L
1Q
1D
1I
1/
1)
#7200000
0"
0:
0U
#7300000
1"
1:
1U
0i
0h
0g
1f
0n
1o
1p
1q
1W
1T
0S
0R
0Q
1F
0G
0H
0I
0)
0(
0'
1&
#7400000
0"
0:
0U
#7500000
1"
1:
1U
1i
0q
0W
1Y
1Q
1I
1)
#7600000
0"
0:
0U
#7700000
1"
1:
1U
0i
1h
0p
1q
1W
0]
1r
1R
0Q
1H
0I
0)
1(
1K
1@
1#
#7800000
0"
0:
0U
#7900000
1"
0$
1:
0<
0V
1U
1w
1i
0W
0q
1W
1]
0r
1Q
1I
1)
0K
0@
0#
