DigLab/exp_6/simulation/qsim/maquina_estados.msim.vcd
$comment
	File created using the following command:
		vcd file maquina_estados.msim.vcd -direction
$end
$date
	Sun Apr 26 20:55:07 2020
$end
$version
	ModelSim Version 10.5b
$end
$timescale
	1ps
$end

$scope module maquina_estados_vhd_vec_tst $end
$var wire 1 ! carrega2 $end
$var wire 1 " clock $end
$var wire 1 # condicao1 $end
$var wire 1 $ conta1 $end
$var wire 1 % conta2 $end
$var wire 1 & db_estado [2] $end
$var wire 1 ' db_estado [1] $end
$var wire 1 ( db_estado [0] $end
$var wire 1 ) fim $end
$var wire 1 * iniciar $end
$var wire 1 + pronto $end
$var wire 1 , reset $end
$var wire 1 - zera1 $end

$scope module i1 $end
$var wire 1 . gnd $end
$var wire 1 / vcc $end
$var wire 1 0 unknown $end
$var wire 1 1 devoe $end
$var wire 1 2 devclrn $end
$var wire 1 3 devpor $end
$var wire 1 4 ww_devoe $end
$var wire 1 5 ww_devclrn $end
$var wire 1 6 ww_devpor $end
$var wire 1 7 ww_clock $end
$var wire 1 8 ww_reset $end
$var wire 1 9 ww_iniciar $end
$var wire 1 : ww_condicao1 $end
$var wire 1 ; ww_fim $end
$var wire 1 < ww_pronto $end
$var wire 1 = ww_zera1 $end
$var wire 1 > ww_conta1 $end
$var wire 1 ? ww_conta2 $end
$var wire 1 @ ww_carrega2 $end
$var wire 1 A ww_db_estado [2] $end
$var wire 1 B ww_db_estado [1] $end
$var wire 1 C ww_db_estado [0] $end
$var wire 1 D \pronto~output_o\ $end
$var wire 1 E \zera1~output_o\ $end
$var wire 1 F \conta1~output_o\ $end
$var wire 1 G \conta2~output_o\ $end
$var wire 1 H \carrega2~output_o\ $end
$var wire 1 I \db_estado[0]~output_o\ $end
$var wire 1 J \db_estado[1]~output_o\ $end
$var wire 1 K \db_estado[2]~output_o\ $end
$var wire 1 L \clock~input_o\ $end
$var wire 1 M \iniciar~input_o\ $end
$var wire 1 N \Selector0~0_combout\ $end
$var wire 1 O \reset~input_o\ $end
$var wire 1 P \Eatual.inicial~q\ $end
$var wire 1 Q \Eprox.zeraconts~0_combout\ $end
$var wire 1 R \Eatual.zeraconts~q\ $end
$var wire 1 S \fim~input_o\ $end
$var wire 1 T \Selector1~0_combout\ $end
$var wire 1 U \Eatual.testacondicao1~q\ $end
$var wire 1 V \condicao1~input_o\ $end
$var wire 1 W \Eprox.contacont2~0_combout\ $end
$var wire 1 X \Eatual.contacont2~q\ $end
$var wire 1 Y \Selector2~0_combout\ $end
$var wire 1 Z \Eatual.contacont1~q\ $end
$var wire 1 [ \Eatual.testafim~q\ $end
$var wire 1 \ \Eprox.final~0_combout\ $end
$var wire 1 ] \Eatual.final~q\ $end
$var wire 1 ^ \WideOr5~0_combout\ $end
$var wire 1 _ \WideOr4~0_combout\ $end
$var wire 1 ` \WideOr3~0_combout\ $end
$var wire 1 a \ALT_INV_condicao1~input_o\ $end
$var wire 1 b \ALT_INV_iniciar~input_o\ $end
$var wire 1 c \ALT_INV_reset~input_o\ $end
$var wire 1 d \ALT_INV_fim~input_o\ $end
$var wire 1 e \ALT_INV_Eatual.final~q\ $end
$var wire 1 f \ALT_INV_Eatual.zeraconts~q\ $end
$var wire 1 g \ALT_INV_Eatual.contacont1~q\ $end
$var wire 1 h \ALT_INV_Eatual.contacont2~q\ $end
$var wire 1 i \ALT_INV_Eatual.testafim~q\ $end
$var wire 1 j \ALT_INV_Eatual.testacondicao1~q\ $end
$var wire 1 k \ALT_INV_Eatual.inicial~q\ $end
$upscope $end
$upscope $end
$enddefinitions $end
#0
$dumpvars
0!
0"
0#
0$
0%
0)
0*
0+
1,
0-
0.
1/
x0
11
12
13
14
15
16
07
18
09
0:
0;
0<
0=
0>
0?
0@
0D
0E
0F
0G
0H
0I
0J
0K
0L
0M
0N
1O
0P
0Q
0R
0S
0T
0U
0V
0W
0X
0Y
0Z
0[
0\
0]
0^
0_
0`
1a
1b
0c
1d
1e
1f
1g
1h
1i
1j
1k
0&
0'
0(
0A
0B
0C
$end
#50000
1"
0,
17
08
0O
1L
1c
#100000
0"
07
0L
#150000
1"
1*
17
19
1M
1L
0b
1N
1Q
#200000
0"
07
0L
#250000
1"
0*
17
09
0M
1L
1b
1P
1R
0N
0Q
0f
0k
1N
1T
1^
1E
1H
1=
1@
1-
1!
1I
1C
1(
#300000
0"
07
0L
#350000
1"
17
1L
0R
1U
0j
1f
0T
0^
1Y
1_
0E
0H
0=
0@
0-
0!
1J
0I
1B
0C
0(
1'
#400000
0"
1#
07
1:
1V
0L
0a
1W
0Y
#450000
1"
17
1L
0U
1X
0h
1j
0W
1Y
1^
1G
1?
1%
1I
1C
1(
#500000
0"
07
0L
#550000
1"
17
1L
0X
1Z
0g
1h
0Y
0^
0_
1`
1F
0G
1>
0?
1$
0%
1K
0J
0I
1A
0B
0C
0(
0'
1&
#600000
0"
07
0L
#650000
1"
17
1L
0Z
1[
0i
1g
1T
1^
0F
0>
0$
1I
1C
1(
#700000
0"
07
0L
#750000
1"
0#
17
0:
0V
1L
1a
1U
0[
1i
0j
1Y
1_
0T
0^
0`
0K
0I
1J
0A
0C
1B
0(
1'
0&
#800000
0"
07
0L
#850000
1"
17
1L
0U
1Z
0g
1j
0Y
0_
1`
1F
1>
1$
1K
0J
1A
0B
0'
1&
#900000
0"
07
0L
#950000
1"
1#
17
1:
1V
1L
0a
0Z
1[
0i
1g
1T
1^
0F
0>
0$
1I
1C
1(
#1000000
0"
07
0L
#1050000
1"
0#
17
0:
0V
1L
1a
1U
0[
1i
0j
1Y
1_
0T
0^
0`
0K
0I
1J
0A
0C
1B
0(
1'
0&
#1100000
0"
07
0L
#1150000
1"
17
1L
0U
1Z
0g
1j
0Y
0_
1`
1F
1>
1$
1K
0J
1A
0B
0'
1&
#1200000
0"
07
0L
#1250000
1"
1#
17
1:
1V
1L
0a
0Z
1[
0i
1g
1T
1^
0F
0>
0$
1I
1C
1(
#1300000
0"
07
0L
#1350000
1"
17
1L
1U
0[
1i
0j
1W
1_
0T
0^
0`
0K
0I
1J
0A
0C
1B
0(
1'
0&
#1400000
0"
07
0L
#1450000
1"
0#
17
0:
0V
1L
1a
0U
1X
0W
1Y
0h
1j
1^
1G
1?
1%
1I
1C
1(
#1500000
0"
07
0L
#1550000
1"
17
1L
0X
1Z
0g
1h
0Y
0^
0_
1`
1F
0G
1>
0?
1$
0%
1K
0J
0I
1A
0B
0C
0(
0'
1&
#1600000
0"
07
0L
#1650000
1"
17
1L
0Z
1[
0i
1g
1T
1^
0F
0>
0$
1I
1C
1(
#1700000
0"
07
0L
#1750000
1"
1)
17
1;
1S
1L
0d
1U
0[
0T
1\
1i
0j
1Y
1_
0\
0^
0`
0K
0I
1J
0A
0C
1B
0(
1'
0&
#1800000
0"
07
0L
#1850000
1"
0)
17
0;
0S
1L
1d
0U
1Z
0g
1j
0Y
0_
1`
1F
1>
1$
1K
0J
1A
0B
0'
1&
#1900000
0"
07
0L
#1950000
1"
17
1L
0Z
1[
0i
1g
1T
1^
0F
0>
0$
1I
1C
1(
