DigLab/exp_6/1.3/simulation/qsim/circuito4.msim.vcd
$comment
	File created using the following command:
		vcd file circuito4.msim.vcd -direction
$end
$date
	Sun Apr 26 23:04:21 2020
$end
$version
	ModelSim Version 10.5b
$end
$timescale
	1ps
$end

$scope module circuito4_vhd_vec_tst $end
$var wire 1 ! clock $end
$var wire 1 " db_contagem1 [3] $end
$var wire 1 # db_contagem1 [2] $end
$var wire 1 $ db_contagem1 [1] $end
$var wire 1 % db_contagem1 [0] $end
$var wire 1 & db_estado [2] $end
$var wire 1 ' db_estado [1] $end
$var wire 1 ( db_estado [0] $end
$var wire 1 ) db_fim2 $end
$var wire 1 * fim1 $end
$var wire 1 + iniciar $end
$var wire 1 , pronto $end
$var wire 1 - reset $end
$var wire 1 . saida [3] $end
$var wire 1 / saida [2] $end
$var wire 1 0 saida [1] $end
$var wire 1 1 saida [0] $end

$scope module i1 $end
$var wire 1 2 gnd $end
$var wire 1 3 vcc $end
$var wire 1 4 unknown $end
$var wire 1 5 devoe $end
$var wire 1 6 devclrn $end
$var wire 1 7 devpor $end
$var wire 1 8 ww_devoe $end
$var wire 1 9 ww_devclrn $end
$var wire 1 : ww_devpor $end
$var wire 1 ; ww_pronto $end
$var wire 1 < ww_clock $end
$var wire 1 = ww_reset $end
$var wire 1 > ww_iniciar $end
$var wire 1 ? ww_db_fim2 $end
$var wire 1 @ ww_fim1 $end
$var wire 1 A ww_db_contagem1 [3] $end
$var wire 1 B ww_db_contagem1 [2] $end
$var wire 1 C ww_db_contagem1 [1] $end
$var wire 1 D ww_db_contagem1 [0] $end
$var wire 1 E ww_db_estado [2] $end
$var wire 1 F ww_db_estado [1] $end
$var wire 1 G ww_db_estado [0] $end
$var wire 1 H ww_saida [3] $end
$var wire 1 I ww_saida [2] $end
$var wire 1 J ww_saida [1] $end
$var wire 1 K ww_saida [0] $end
$var wire 1 L \~QUARTUS_CREATED_GND~I_combout\ $end
$var wire 1 M \clock~input_o\ $end
$var wire 1 N \clock~inputCLKENA0_outclk\ $end
$var wire 1 O \iniciar~input_o\ $end
$var wire 1 P \inst1|Selector0~0_combout\ $end
$var wire 1 Q \reset~input_o\ $end
$var wire 1 R \inst1|Eatual.inicial~q\ $end
$var wire 1 S \inst1|Eprox.zeraconts~0_combout\ $end
$var wire 1 T \inst1|Eatual.zeraconts~q\ $end
$var wire 1 U \inst1|Eatual.testafim~q\ $end
$var wire 1 V \inst1|Eatual.contacont1~DUPLICATE_q\ $end
$var wire 1 W \inst|IQ1[0]~3_combout\ $end
$var wire 1 X \inst|IQ1[1]~2_combout\ $end
$var wire 1 Y \inst|IQ1[0]~DUPLICATE_q\ $end
$var wire 1 Z \inst|IQ1[2]~1_combout\ $end
$var wire 1 [ \inst|IQ1[3]~0_combout\ $end
$var wire 1 \ \inst|IQ1[1]~DUPLICATE_q\ $end
$var wire 1 ] \inst1|Selector1~0_combout\ $end
$var wire 1 ^ \inst1|Eatual.testacondicao1~q\ $end
$var wire 1 _ \inst|IQ1[3]~DUPLICATE_q\ $end
$var wire 1 ` \inst1|Eprox.contacont2~0_combout\ $end
$var wire 1 a \inst1|Eatual.contacont2~feeder_combout\ $end
$var wire 1 b \inst1|Eatual.contacont2~q\ $end
$var wire 1 c \inst1|Selector2~0_combout\ $end
$var wire 1 d \inst1|Eatual.contacont1~q\ $end
$var wire 1 e \inst1|Eatual.testafim~DUPLICATE_q\ $end
$var wire 1 f \inst1|Eprox.final~0_combout\ $end
$var wire 1 g \inst1|Eatual.final~q\ $end
$var wire 1 h \inst|IQ2[2]~1_combout\ $end
$var wire 1 i \inst|IQ2~4_combout\ $end
$var wire 1 j \inst|IQ2[0]~DUPLICATE_q\ $end
$var wire 1 k \inst|IQ2~3_combout\ $end
$var wire 1 l \inst|IQ2[1]~DUPLICATE_q\ $end
$var wire 1 m \inst|IQ2~2_combout\ $end
$var wire 1 n \inst|IQ2~0_combout\ $end
$var wire 1 o \inst|IQ2[2]~DUPLICATE_q\ $end
$var wire 1 p \inst|Equal0~0_combout\ $end
$var wire 1 q \inst|IQ1[2]~DUPLICATE_q\ $end
$var wire 1 r \inst|Equal1~0_combout\ $end
$var wire 1 s \inst1|WideOr3~0_combout\ $end
$var wire 1 t \inst1|WideOr4~0_combout\ $end
$var wire 1 u \inst1|WideOr5~0_combout\ $end
$var wire 1 v \inst|IQ2\ [3] $end
$var wire 1 w \inst|IQ2\ [2] $end
$var wire 1 x \inst|IQ2\ [1] $end
$var wire 1 y \inst|IQ2\ [0] $end
$var wire 1 z \inst|IQ1\ [3] $end
$var wire 1 { \inst|IQ1\ [2] $end
$var wire 1 | \inst|IQ1\ [1] $end
$var wire 1 } \inst|IQ1\ [0] $end
$var wire 1 ~ \inst|ALT_INV_IQ2\ [3] $end
$var wire 1 !! \inst|ALT_INV_IQ2\ [2] $end
$var wire 1 "! \inst|ALT_INV_IQ2\ [1] $end
$var wire 1 #! \inst|ALT_INV_IQ2\ [0] $end
$var wire 1 $! \inst1|ALT_INV_Eatual.final~q\ $end
$var wire 1 %! \inst|ALT_INV_IQ1\ [3] $end
$var wire 1 &! \inst|ALT_INV_IQ1\ [2] $end
$var wire 1 '! \inst|ALT_INV_IQ1\ [1] $end
$var wire 1 (! \inst|ALT_INV_IQ1\ [0] $end
$var wire 1 )! \inst1|ALT_INV_Eatual.contacont1~q\ $end
$var wire 1 *! \inst1|ALT_INV_Eatual.testafim~q\ $end
$var wire 1 +! \inst1|ALT_INV_Eatual.testacondicao1~q\ $end
$var wire 1 ,! \inst1|ALT_INV_Eatual.contacont2~q\ $end
$var wire 1 -! \inst1|ALT_INV_Eatual.zeraconts~q\ $end
$var wire 1 .! \inst1|ALT_INV_Eatual.testafim~DUPLICATE_q\ $end
$var wire 1 /! \inst1|ALT_INV_Eatual.contacont1~DUPLICATE_q\ $end
$var wire 1 0! \inst|ALT_INV_IQ1[0]~DUPLICATE_q\ $end
$var wire 1 1! \inst|ALT_INV_IQ1[1]~DUPLICATE_q\ $end
$var wire 1 2! \inst|ALT_INV_IQ1[2]~DUPLICATE_q\ $end
$var wire 1 3! \inst|ALT_INV_IQ1[3]~DUPLICATE_q\ $end
$var wire 1 4! \inst|ALT_INV_IQ2[0]~DUPLICATE_q\ $end
$var wire 1 5! \inst|ALT_INV_IQ2[1]~DUPLICATE_q\ $end
$var wire 1 6! \inst|ALT_INV_IQ2[2]~DUPLICATE_q\ $end
$var wire 1 7! \ALT_INV_iniciar~input_o\ $end
$var wire 1 8! \ALT_INV_reset~input_o\ $end
$var wire 1 9! \inst1|ALT_INV_Eatual.inicial~q\ $end
$var wire 1 :! \inst1|ALT_INV_Eprox.contacont2~0_combout\ $end
$upscope $end
$upscope $end
$enddefinitions $end
#0
$dumpvars
0!
0)
0*
0+
0,
0-
02
13
x4
15
16
17
18
19
1:
0;
0<
0=
0>
0?
0@
xL
0M
0N
0O
0P
0Q
0R
0S
0T
0U
0V
0W
0X
0Y
0Z
0[
0\
0]
0^
0_
0`
0a
0b
0c
0d
0e
0f
0g
0h
1i
0j
0k
0l
0m
0n
0o
0p
0q
0r
0s
0t
0u
1$!
1)!
1*!
1+!
1,!
1-!
1.!
1/!
10!
11!
12!
13!
14!
15!
16!
17!
18!
19!
1:!
0A
0B
0C
0D
0E
0F
0G
0H
0I
0J
0K
0v
0w
0x
0y
0z
0{
0|
0}
1~
1!!
1"!
1#!
1%!
1&!
1'!
1(!
0"
0#
0$
0%
0&
0'
0(
0.
0/
00
01
$end
#50000
1!
1<
1M
1N
#100000
0!
0<
0M
0N
#150000
1!
1<
1M
1N
#200000
0!
0<
0M
0N
#250000
1!
1<
1M
1N
#300000
0!
0<
0M
0N
#350000
1!
1<
1M
1N
#400000
0!
0<
0M
0N
#450000
1!
1<
1M
1N
#500000
0!
0<
0M
0N
#550000
1!
1<
1M
1N
#600000
0!
0<
0M
0N
#650000
1!
1<
1M
1N
#700000
0!
0<
0M
0N
#750000
1!
1<
1M
1N
#800000
0!
0<
0M
0N
#850000
1!
1<
1M
1N
#900000
0!
1+
0<
1>
1O
0M
0N
07!
1P
1S
#950000
1!
1<
1M
1N
1R
1T
0-!
09!
0S
1]
1h
0i
1u
1G
1(
#1000000
0!
0<
0M
0N
#1050000
1!
1<
1M
1N
0T
1^
0+!
1-!
0]
0h
1i
0u
1`
1t
0:!
1a
1F
0G
0(
1'
#1100000
0!
0<
0M
0N
#1150000
1!
1<
1M
1N
0^
1b
0,!
1+!
0`
1c
1h
1u
1:!
0a
1G
1(
#1200000
0!
0+
0<
0>
0O
0M
0N
17!
#1250000
1!
1<
1M
1N
1V
0b
1d
1y
1j
04!
0#!
0)!
1,!
0/!
1W
1s
0c
0h
0t
0u
0i
1k
1K
11
0G
0F
1E
0(
0'
1&
#1300000
0!
0<
0M
0N
#1350000
1!
1<
1M
1N
1U
0V
1}
1Y
0d
1e
0.!
1)!
00!
0(!
1/!
0*!
1]
1u
1D
1%
1G
1(
#1400000
0!
0<
0M
0N
#1450000
1!
1<
1M
1N
0U
1^
0e
1.!
0+!
1*!
0]
1c
1t
0s
0u
0G
0E
1F
0(
1'
0&
#1500000
0!
0<
0M
0N
#1550000
1!
1<
1M
1N
1V
0^
1d
0)!
1+!
0/!
0W
1X
1s
0c
0t
0F
1E
0'
1&
#1600000
0!
0<
0M
0N
#1650000
1!
1<
1M
1N
1U
0V
0}
1|
0Y
1\
0d
1e
0.!
1)!
01!
10!
0'!
1(!
1/!
0*!
1]
1u
1C
0D
0%
1$
1G
1(
#1700000
0!
0<
0M
0N
#1750000
1!
1<
1M
1N
0U
1^
0e
1.!
0+!
1*!
0]
1c
1t
0s
0u
0G
0E
1F
0(
1'
0&
#1800000
0!
0<
0M
0N
#1850000
1!
1<
1M
1N
1V
0^
1d
0)!
1+!
0/!
1W
1s
0c
0t
0F
1E
0'
1&
#1900000
0!
0<
0M
0N
#1950000
1!
1<
1M
1N
1U
0V
1}
1Y
0d
1e
0.!
1)!
00!
0(!
1/!
0*!
1]
1u
1D
1%
1G
1(
#2000000
0!
0<
0M
0N
#2050000
1!
1<
1M
1N
0U
1^
0e
1.!
0+!
1*!
0]
1c
1t
0s
0u
0G
0E
1F
0(
1'
0&
#2100000
0!
0<
0M
0N
#2150000
1!
1<
1M
1N
1V
0^
1d
0)!
1+!
0/!
0W
0X
1Z
1s
0c
0t
0F
1E
0'
1&
#2200000
0!
0<
0M
0N
#2250000
1!
1<
1M
1N
1U
0V
0}
0|
0Y
1{
0\
0d
1e
1q
02!
0.!
1)!
11!
0&!
10!
1'!
1(!
1/!
0*!
1]
1u
1B
0C
0D
0%
0$
1#
1G
1(
#2300000
0!
0<
0M
0N
#2350000
1!
1<
1M
1N
0U
1^
0e
1.!
0+!
1*!
0]
1c
1t
0s
0u
0G
0E
1F
0(
1'
0&
#2400000
0!
0<
0M
0N
#2450000
1!
1<
1M
1N
1V
0^
1d
0)!
1+!
0/!
1W
1s
0c
0t
0F
1E
0'
1&
#2500000
0!
0<
0M
0N
#2550000
1!
1<
1M
1N
1U
0V
1}
1Y
0d
1e
0.!
1)!
00!
0(!
1/!
0*!
1]
1u
1D
1%
1G
1(
#2600000
0!
0<
0M
0N
#2650000
1!
1<
1M
1N
0U
1^
0e
1.!
0+!
1*!
0]
1`
1t
0s
0u
0:!
1a
0G
0E
1F
0(
1'
0&
#2700000
0!
0<
0M
0N
#2750000
1!
1<
1M
1N
0^
1b
0,!
1+!
0`
1c
1h
1u
1:!
0a
1G
1(
#2800000
0!
0<
0M
0N
#2850000
1!
1<
1M
1N
1V
0b
1d
1x
0y
0j
1l
05!
14!
1#!
0"!
0)!
1,!
0/!
0W
1X
1s
0c
0h
0t
0u
1i
1J
0K
01
10
0G
0F
1E
0(
0'
1&
#2900000
0!
0<
0M
0N
#2950000
1!
1<
1M
1N
1U
0V
0}
1|
0Y
1\
0d
1e
0.!
1)!
01!
10!
0'!
1(!
1/!
0*!
1]
1u
1C
0D
0%
1$
1G
1(
#3000000
0!
0<
0M
0N
#3050000
1!
1<
1M
1N
0U
1^
0e
1.!
0+!
1*!
0]
1c
1t
0s
0u
0G
0E
1F
0(
1'
0&
#3100000
0!
0<
0M
0N
#3150000
1!
1<
1M
1N
1V
0^
1d
0)!
1+!
0/!
1W
1s
0c
0t
0F
1E
0'
1&
#3200000
0!
0<
0M
0N
#3250000
1!
1<
1M
1N
1U
0V
1}
1Y
0d
1e
0.!
1)!
00!
0(!
1/!
0*!
1]
1u
1D
1%
1G
1(
#3300000
0!
0<
0M
0N
#3350000
1!
1<
1M
1N
0U
1^
0e
1.!
0+!
1*!
0]
1c
1t
0s
0u
0G
0E
1F
0(
1'
0&
#3400000
0!
0<
0M
0N
#3450000
1!
1<
1M
1N
1V
0^
1d
0)!
1+!
0/!
0W
0X
0Z
1s
0c
0t
1[
0F
1E
0'
1&
#3500000
0!
0<
0M
0N
#3550000
1!
1<
1M
1N
1U
0V
0}
0|
0Y
0{
1z
0\
1_
0d
1e
0q
12!
0.!
1)!
03!
11!
0%!
1&!
10!
1'!
1(!
1/!
0*!
1]
1u
0B
1A
0C
0D
0%
0$
0#
1"
1G
1(
#3600000
0!
0<
0M
0N
#3650000
1!
1<
1M
1N
0U
1^
0e
1.!
0+!
1*!
0]
1c
1t
0s
0u
0G
0E
1F
0(
1'
0&
#3700000
0!
0<
0M
0N
#3750000
1!
1<
1M
1N
1V
0^
1d
0)!
1+!
0/!
1W
1s
0c
0t
0F
1E
0'
1&
#3800000
0!
0<
0M
0N
#3850000
1!
1<
1M
1N
1U
0V
1}
1Y
0d
1e
0.!
1)!
00!
0(!
1/!
0*!
1]
1u
1D
1%
1G
1(
#3900000
0!
0<
0M
0N
#3950000
1!
1<
1M
1N
0U
1^
0e
1.!
0+!
1*!
0]
1c
1t
0s
0u
0G
0E
1F
0(
1'
0&
#4000000
0!
0<
0M
0N
#4050000
1!
1<
1M
1N
1V
0^
1d
0)!
1+!
0/!
0W
1X
1s
0c
0t
0F
1E
0'
1&
#4100000
0!
0<
0M
0N
#4150000
1!
1<
1M
1N
1U
0V
0}
1|
0Y
1\
0d
1e
0.!
1)!
01!
10!
0'!
1(!
1/!
0*!
1]
1u
1C
0D
0%
1$
1G
1(
#4200000
0!
0<
0M
0N
#4250000
1!
1<
1M
1N
0U
1^
0e
1.!
0+!
1*!
0]
1`
1t
0s
0u
0:!
1a
0G
0E
1F
0(
1'
0&
#4300000
0!
0<
0M
0N
#4350000
1!
1<
1M
1N
0^
1b
0,!
1+!
0`
1c
1h
1u
1:!
0a
1G
1(
#4400000
0!
0<
0M
0N
#4450000
1!
1<
1M
1N
1V
0b
1d
1y
1j
04!
0#!
0)!
1,!
0/!
1W
1s
0c
0h
0t
0u
0i
1m
0k
1K
11
0G
0F
1E
0(
0'
1&
#4500000
0!
0<
0M
0N
#4550000
1!
1<
1M
1N
1U
0V
1}
1Y
0d
1e
0.!
1)!
00!
0(!
1/!
0*!
1]
1u
1D
1%
1G
1(
#4600000
0!
0<
0M
0N
#4650000
1!
1<
1M
1N
0U
1^
0e
1.!
0+!
1*!
0]
1c
1t
0s
0u
0G
0E
1F
0(
1'
0&
#4700000
0!
0<
0M
0N
#4750000
1!
1<
1M
1N
1V
0^
1d
0)!
1+!
0/!
0W
0X
1Z
1s
0c
0t
0F
1E
0'
1&
#4800000
0!
0<
0M
0N
#4850000
1!
1<
1M
1N
1U
0V
0}
0|
0Y
1{
0\
0d
1e
1q
02!
0.!
1)!
11!
0&!
10!
1'!
1(!
1/!
0*!
1]
1u
1B
0C
0D
0%
0$
1#
1G
1(
#4900000
0!
0<
0M
0N
#4950000
1!
1<
1M
1N
0U
1^
0e
1.!
0+!
1*!
0]
1c
1t
0s
0u
0G
0E
1F
0(
1'
0&
#5000000
0!
0<
0M
0N
#5050000
1!
1<
1M
1N
1V
0^
1d
0)!
1+!
0/!
1W
1s
0c
0t
0F
1E
0'
1&
#5100000
0!
1-
0<
1=
1Q
0M
0N
08!
0R
0V
0d
1)!
1/!
19!
0P
0W
0s
0E
0&
#5150000
1!
1<
1M
1N
#5200000
0!
0<
0M
0N
#5250000
1!
1<
1M
1N
#5300000
0!
0<
0M
0N
#5350000
1!
1<
1M
1N
#5400000
0!
0-
0<
0=
0Q
0M
0N
18!
#5450000
1!
1<
1M
1N
#5500000
0!
0<
0M
0N
#5550000
1!
1<
1M
1N
#5600000
0!
0<
0M
0N
#5650000
1!
1<
1M
1N
#5700000
0!
0<
0M
0N
#5750000
1!
1<
1M
1N
#5800000
0!
0<
0M
0N
#5850000
1!
1<
1M
1N
#5900000
0!
0<
0M
0N
#5950000
1!
1<
1M
1N
#6000000
0!
0<
0M
0N
#6050000
1!
1<
1M
1N
#6100000
0!
0<
0M
0N
#6150000
1!
1<
1M
1N
#6200000
0!
0<
0M
0N
#6250000
1!
1<
1M
1N
#6300000
0!
0<
0M
0N
#6350000
1!
1<
1M
1N
#6400000
0!
0<
0M
0N
#6450000
1!
1<
1M
1N
#6500000
0!
0<
0M
0N
#6550000
1!
1<
1M
1N
#6600000
0!
0<
0M
0N
#6650000
1!
1<
1M
1N
#6700000
0!
0<
0M
0N
#6750000
1!
1<
1M
1N
#6800000
0!
0<
0M
0N
#6850000
1!
1<
1M
1N
#6900000
0!
0<
0M
0N
#6950000
1!
1<
1M
1N
#7000000
0!
0<
0M
0N
#7050000
1!
1<
1M
1N
#7100000
0!
0<
0M
0N
#7150000
1!
1<
1M
1N
#7200000
0!
0<
0M
0N
#7250000
1!
1<
1M
1N
#7300000
0!
0<
0M
0N
#7350000
1!
1<
1M
1N
#7400000
0!
0<
0M
0N
#7450000
1!
1<
1M
1N
#7500000
0!
0<
0M
0N
#7550000
1!
1<
1M
1N
#7600000
0!
0<
0M
0N
#7650000
1!
1<
1M
1N
#7700000
0!
0<
0M
0N
#7750000
1!
1<
1M
1N
#7800000
0!
0<
0M
0N
#7850000
1!
1<
1M
1N
#7900000
0!
0<
0M
0N
#7950000
1!
1<
1M
1N
