DigLab/exp_7/enviar/montagem final/simulation/qsim/montagem.msim.vcd
$comment
	File created using the following command:
		vcd file montagem.msim.vcd -direction
$end
$date
	Tue Jun 23 18:21:29 2020
$end
$version
	ModelSim Version 10.5b
$end
$timescale
	1ps
$end

$scope module montagem_vhd_vec_tst $end
$var wire 1 ! AmA $end
$var wire 1 " AmB $end
$var wire 1 # clock $end
$var wire 1 $ noturno $end
$var wire 1 % pin_name1 $end
$var wire 1 & PvA $end
$var wire 1 ' PvB $end
$var wire 1 ( reset $end
$var wire 1 ) trigger_1min $end
$var wire 1 * trigger_1s $end
$var wire 1 + trigger_5s $end
$var wire 1 , VdA $end
$var wire 1 - VdB $end
$var wire 1 . VmA $end
$var wire 1 / VmB $end

$scope module i1 $end
$var wire 1 0 gnd $end
$var wire 1 1 vcc $end
$var wire 1 2 unknown $end
$var wire 1 3 devoe $end
$var wire 1 4 devclrn $end
$var wire 1 5 devpor $end
$var wire 1 6 ww_devoe $end
$var wire 1 7 ww_devclrn $end
$var wire 1 8 ww_devpor $end
$var wire 1 9 ww_VdA $end
$var wire 1 : ww_reset $end
$var wire 1 ; ww_clock $end
$var wire 1 < ww_noturno $end
$var wire 1 = ww_PvA $end
$var wire 1 > ww_PvB $end
$var wire 1 ? ww_AmA $end
$var wire 1 @ ww_VmA $end
$var wire 1 A ww_VdB $end
$var wire 1 B ww_AmB $end
$var wire 1 C ww_VmB $end
$var wire 1 D ww_pin_name1 $end
$var wire 1 E ww_trigger_1s $end
$var wire 1 F ww_trigger_5s $end
$var wire 1 G ww_trigger_1min $end
$var wire 1 H \VdA~output_o\ $end
$var wire 1 I \AmA~output_o\ $end
$var wire 1 J \VmA~output_o\ $end
$var wire 1 K \VdB~output_o\ $end
$var wire 1 L \AmB~output_o\ $end
$var wire 1 M \VmB~output_o\ $end
$var wire 1 N \pin_name1~output_o\ $end
$var wire 1 O \trigger_1s~output_o\ $end
$var wire 1 P \trigger_5s~output_o\ $end
$var wire 1 Q \trigger_1min~output_o\ $end
$var wire 1 R \reset~input_o\ $end
$var wire 1 S \clock~input_o\ $end
$var wire 1 T \noturno~input_o\ $end
$var wire 1 U \PvA~input_o\ $end
$var wire 1 V \inst1|Selector5~0_combout\ $end
$var wire 1 W \PvB~input_o\ $end
$var wire 1 X \inst1|Selector10~0_combout\ $end
$var wire 1 Y \inst1|reg_fstate.VmA_AmB_286~combout\ $end
$var wire 1 Z \inst1|fstate.VmA_AmB~q\ $end
$var wire 1 [ \inst1|Selector6~0_combout\ $end
$var wire 1 \ \inst1|reg_fstate.VmA_VmB_265~combout\ $end
$var wire 1 ] \inst1|fstate.VmA_VmB~q\ $end
$var wire 1 ^ \inst1|Selector7~0_combout\ $end
$var wire 1 _ \inst1|reg_fstate.Apagado_244~combout\ $end
$var wire 1 ` \inst1|fstate.Apagado~q\ $end
$var wire 1 a \inst1|Selector0~0_combout\ $end
$var wire 1 b \inst1|reg_fstate.AmA_AmB_223~combout\ $end
$var wire 1 c \inst1|fstate.AmA_AmB~q\ $end
$var wire 1 d \inst1|Selector2~0_combout\ $end
$var wire 1 e \inst1|Selector2~1_combout\ $end
$var wire 1 f \inst1|reg_fstate.VdA_Vmb_349~combout\ $end
$var wire 1 g \inst1|fstate.VdA_Vmb~0_combout\ $end
$var wire 1 h \inst1|fstate.VdA_Vmb~q\ $end
$var wire 1 i \inst1|Selector4~0_combout\ $end
$var wire 1 j \inst1|reg_fstate.AmA_VmB_307~combout\ $end
$var wire 1 k \inst1|fstate.AmA_VmB~q\ $end
$var wire 1 l \inst1|Q[0]~0_combout\ $end
$var wire 1 m \inst|trigger_1s~0_combout\ $end
$var wire 1 n \inst2|flag~0_combout\ $end
$var wire 1 o \inst2|conta1[2]~2_combout\ $end
$var wire 1 p \inst2|conta1[3]~3_combout\ $end
$var wire 1 q \inst2|conta1~5_combout\ $end
$var wire 1 r \inst2|conta1~4_combout\ $end
$var wire 1 s \inst2|conta1~1_combout\ $end
$var wire 1 t \inst2|conta1~0_combout\ $end
$var wire 1 u \inst2|Equal2~0_combout\ $end
$var wire 1 v \inst2|conta2[0]~1_combout\ $end
$var wire 1 w \inst2|conta2[1]~2_combout\ $end
$var wire 1 x \inst2|conta2[2]~0_combout\ $end
$var wire 1 y \inst2|Equal0~0_combout\ $end
$var wire 1 z \inst2|conta3[0]~0_combout\ $end
$var wire 1 { \inst2|conta3[1]~1_combout\ $end
$var wire 1 | \inst2|conta3[2]~2_combout\ $end
$var wire 1 } \inst2|Add1~0_combout\ $end
$var wire 1 ~ \inst2|conta3[3]~3_combout\ $end
$var wire 1 !! \inst2|conta3[4]~4_combout\ $end
$var wire 1 "! \inst2|Add1~1_combout\ $end
$var wire 1 #! \inst2|conta3[5]~5_combout\ $end
$var wire 1 $! \inst2|Equal1~0_combout\ $end
$var wire 1 %! \inst2|flag~1_combout\ $end
$var wire 1 &! \inst2|flag~q\ $end
$var wire 1 '! \inst1|Selector3~0_combout\ $end
$var wire 1 (! \inst1|reg_fstate.VmA_VdB_328~combout\ $end
$var wire 1 )! \inst1|fstate.VmA_VdB~q\ $end
$var wire 1 *! \inst1|WideOr2~combout\ $end
$var wire 1 +! \inst1|WideOr3~combout\ $end
$var wire 1 ,! \inst1|WideOr1~combout\ $end
$var wire 1 -! \inst|VdA~0_combout\ $end
$var wire 1 .! \inst|AmA~combout\ $end
$var wire 1 /! \inst|VmA~combout\ $end
$var wire 1 0! \inst|VdB~0_combout\ $end
$var wire 1 1! \inst|AmB~combout\ $end
$var wire 1 2! \inst|VmB~0_combout\ $end
$var wire 1 3! \inst|trigger_1min~0_combout\ $end
$var wire 1 4! \inst2|conta1\ [5] $end
$var wire 1 5! \inst2|conta1\ [4] $end
$var wire 1 6! \inst2|conta1\ [3] $end
$var wire 1 7! \inst2|conta1\ [2] $end
$var wire 1 8! \inst2|conta1\ [1] $end
$var wire 1 9! \inst2|conta1\ [0] $end
$var wire 1 :! \inst2|conta2\ [2] $end
$var wire 1 ;! \inst2|conta2\ [1] $end
$var wire 1 <! \inst2|conta2\ [0] $end
$var wire 1 =! \inst2|conta3\ [5] $end
$var wire 1 >! \inst2|conta3\ [4] $end
$var wire 1 ?! \inst2|conta3\ [3] $end
$var wire 1 @! \inst2|conta3\ [2] $end
$var wire 1 A! \inst2|conta3\ [1] $end
$var wire 1 B! \inst2|conta3\ [0] $end
$var wire 1 C! \ALT_INV_PvA~input_o\ $end
$var wire 1 D! \ALT_INV_noturno~input_o\ $end
$var wire 1 E! \ALT_INV_PvB~input_o\ $end
$var wire 1 F! \ALT_INV_reset~input_o\ $end
$var wire 1 G! \inst1|ALT_INV_reg_fstate.VdA_Vmb_349~combout\ $end
$var wire 1 H! \inst1|ALT_INV_reg_fstate.Apagado_244~combout\ $end
$var wire 1 I! \inst1|ALT_INV_reg_fstate.AmA_AmB_223~combout\ $end
$var wire 1 J! \inst1|ALT_INV_reg_fstate.AmA_VmB_307~combout\ $end
$var wire 1 K! \inst1|ALT_INV_reg_fstate.VmA_VmB_265~combout\ $end
$var wire 1 L! \inst1|ALT_INV_reg_fstate.VmA_AmB_286~combout\ $end
$var wire 1 M! \inst1|ALT_INV_reg_fstate.VmA_VdB_328~combout\ $end
$var wire 1 N! \inst1|ALT_INV_Selector2~1_combout\ $end
$var wire 1 O! \inst1|ALT_INV_Selector2~0_combout\ $end
$var wire 1 P! \inst2|ALT_INV_Add1~1_combout\ $end
$var wire 1 Q! \inst2|ALT_INV_Add1~0_combout\ $end
$var wire 1 R! \inst1|ALT_INV_Selector7~0_combout\ $end
$var wire 1 S! \inst1|ALT_INV_Selector0~0_combout\ $end
$var wire 1 T! \inst1|ALT_INV_Selector4~0_combout\ $end
$var wire 1 U! \inst1|ALT_INV_Selector6~0_combout\ $end
$var wire 1 V! \inst1|ALT_INV_Selector5~0_combout\ $end
$var wire 1 W! \inst1|ALT_INV_Selector10~0_combout\ $end
$var wire 1 X! \inst1|ALT_INV_Selector3~0_combout\ $end
$var wire 1 Y! \inst1|ALT_INV_fstate.VdA_Vmb~q\ $end
$var wire 1 Z! \inst2|ALT_INV_Equal1~0_combout\ $end
$var wire 1 [! \inst2|ALT_INV_conta3\ [5] $end
$var wire 1 \! \inst2|ALT_INV_conta3\ [4] $end
$var wire 1 ]! \inst2|ALT_INV_conta3\ [3] $end
$var wire 1 ^! \inst2|ALT_INV_conta3\ [2] $end
$var wire 1 _! \inst2|ALT_INV_conta3\ [1] $end
$var wire 1 `! \inst2|ALT_INV_conta3\ [0] $end
$var wire 1 a! \inst2|ALT_INV_Equal0~0_combout\ $end
$var wire 1 b! \inst2|ALT_INV_conta2\ [2] $end
$var wire 1 c! \inst2|ALT_INV_conta2\ [1] $end
$var wire 1 d! \inst2|ALT_INV_conta2\ [0] $end
$var wire 1 e! \inst2|ALT_INV_Equal2~0_combout\ $end
$var wire 1 f! \inst2|ALT_INV_conta1\ [5] $end
$var wire 1 g! \inst2|ALT_INV_conta1\ [4] $end
$var wire 1 h! \inst2|ALT_INV_conta1\ [3] $end
$var wire 1 i! \inst2|ALT_INV_conta1\ [2] $end
$var wire 1 j! \inst2|ALT_INV_conta1\ [1] $end
$var wire 1 k! \inst2|ALT_INV_conta1\ [0] $end
$var wire 1 l! \inst1|ALT_INV_fstate.VmA_VdB~q\ $end
$var wire 1 m! \inst1|ALT_INV_fstate.VmA_AmB~q\ $end
$var wire 1 n! \inst1|ALT_INV_fstate.VmA_VmB~q\ $end
$var wire 1 o! \inst1|ALT_INV_WideOr2~combout\ $end
$var wire 1 p! \inst1|ALT_INV_fstate.AmA_VmB~q\ $end
$var wire 1 q! \inst1|ALT_INV_fstate.AmA_AmB~q\ $end
$var wire 1 r! \inst1|ALT_INV_WideOr3~combout\ $end
$var wire 1 s! \inst1|ALT_INV_fstate.Apagado~q\ $end
$var wire 1 t! \inst1|ALT_INV_WideOr1~combout\ $end
$var wire 1 u! \inst|ALT_INV_AmA~combout\ $end
$var wire 1 v! \inst|ALT_INV_VdA~0_combout\ $end
$var wire 1 w! \inst|ALT_INV_VmA~combout\ $end
$var wire 1 x! \inst1|ALT_INV_Q[0]~0_combout\ $end
$var wire 1 y! \inst|ALT_INV_VdB~0_combout\ $end
$var wire 1 z! \inst|ALT_INV_trigger_1s~0_combout\ $end
$var wire 1 {! \inst2|ALT_INV_flag~q\ $end
$var wire 1 |! \inst2|ALT_INV_flag~0_combout\ $end
$upscope $end
$upscope $end
$enddefinitions $end
#0
$dumpvars
0!
0"
0#
0$
0%
1&
1'
1(
1)
0*
0+
1,
0-
0.
1/
00
11
x2
13
14
15
16
17
18
19
1:
0;
0<
1=
1>
0?
0@
0A
0B
1C
0D
0E
0F
1G
1H
0I
0J
0K
0L
1M
0N
0O
0P
1Q
1R
0S
0T
1U
0V
1W
1X
0Y
0Z
0[
0\
0]
0^
0_
0`
0a
0b
0c
1d
0e
1f
0g
0h
1i
0j
0k
0l
0m
0n
0o
0p
0q
0r
0s
1t
0u
0v
0w
0x
0y
0z
0{
0|
0}
0~
0!!
0"!
0#!
0$!
0%!
0&!
0'!
0(!
0)!
1*!
1+!
1,!
0-!
1.!
1/!
10!
01!
12!
13!
0C!
1D!
0E!
0F!
0G!
1H!
1I!
1J!
1K!
1L!
1M!
1N!
0O!
1P!
1Q!
1R!
1S!
0T!
1U!
1V!
0W!
1X!
1Y!
1Z!
1a!
1e!
1l!
1m!
1n!
0o!
1p!
1q!
0r!
1s!
0t!
0u!
1v!
0w!
1x!
0y!
1z!
1{!
1|!
04!
05!
06!
07!
08!
09!
0:!
0;!
0<!
0=!
0>!
0?!
0@!
0A!
0B!
1[!
1\!
1]!
1^!
1_!
1`!
1b!
1c!
1d!
1f!
1g!
1h!
1i!
1j!
1k!
$end
#50
1#
1;
1S
19!
0k!
1s
0t
#100
0#
0;
0S
#150
1#
1;
1S
18!
09!
1k!
0j!
1t
#200
0#
0;
0S
#250
1#
1;
1S
19!
0k!
1o
0s
0t
#300
0#
0;
0S
#350
1#
1;
1S
17!
08!
09!
1k!
1j!
0i!
1t
#400
0#
0;
0S
#450
1#
1;
1S
19!
0k!
1s
0t
#500
0#
0;
0S
#550
1#
1;
1S
18!
09!
1k!
0j!
1t
#600
0#
0;
0S
#650
1#
1;
1S
19!
0k!
0o
1p
0s
0t
#700
0#
0;
0S
#750
1#
1;
1S
07!
16!
08!
09!
1k!
1j!
0h!
1i!
1t
#800
0#
0;
0S
#850
1#
1;
1S
19!
0k!
1s
0t
#900
0#
0;
0S
#950
1#
1;
1S
18!
09!
1k!
0j!
1t
#1000
0#
0;
0S
#1050
1#
1;
1S
19!
0k!
1o
0s
0t
#1100
0#
0;
0S
#1150
1#
1;
1S
17!
08!
09!
1k!
1j!
0i!
1t
#1200
0#
0;
0S
#1250
1#
1;
1S
19!
0k!
1s
0t
#1300
0#
0;
0S
#1350
1#
1;
1S
18!
09!
1k!
0j!
1t
#1400
0#
0;
0S
#1450
1#
1;
1S
19!
0k!
0o
0p
1r
0s
0t
#1500
0#
0;
0S
#1550
1#
1;
1S
07!
06!
15!
08!
09!
1k!
1j!
0g!
1h!
1i!
1t
#1600
0#
0;
0S
#1650
1#
1;
1S
19!
0k!
1s
0t
#1700
0#
0;
0S
#1750
1#
1;
1S
18!
09!
1k!
0j!
1t
#1800
0#
0;
0S
#1850
1#
1;
1S
19!
0k!
1o
0s
0t
#1900
0#
0;
0S
#1950
1#
1;
1S
17!
08!
09!
1k!
1j!
0i!
1t
#2000
0#
0;
0S
#2050
1#
1;
1S
19!
0k!
1s
0t
#2100
0#
0;
0S
#2150
1#
1;
1S
18!
09!
1k!
0j!
1t
#2200
0#
0;
0S
#2250
1#
1;
1S
19!
0k!
0o
1p
0s
0t
#2300
0#
0;
0S
#2350
1#
1;
1S
07!
16!
08!
09!
1k!
1j!
0h!
1i!
1t
#2400
0#
0;
0S
#2450
1#
1;
1S
19!
0k!
1s
0t
#2500
0#
0;
0S
#2550
1#
1;
1S
18!
09!
1k!
0j!
1t
#2600
0#
0;
0S
#2650
1#
1;
1S
19!
0k!
1o
0s
0t
#2700
0#
0;
0S
#2750
1#
1;
1S
17!
08!
09!
1k!
1j!
0i!
1t
#2800
0#
0;
0S
#2850
1#
1;
1S
19!
0k!
1s
0t
#2900
0#
0;
0S
#2950
1#
1;
1S
18!
09!
1k!
0j!
1t
#3000
0#
0;
0S
#3050
1#
1;
1S
19!
0k!
0o
0p
1q
0r
0s
0t
#3100
0#
0;
0S
#3150
1#
1;
1S
07!
06!
14!
05!
08!
09!
1k!
1j!
1g!
0f!
1h!
1i!
1t
#3200
0#
0;
0S
#3250
1#
1;
1S
19!
0k!
1s
0t
#3300
0#
0;
0S
#3350
1#
1;
1S
18!
09!
1k!
0j!
1t
#3400
0#
0;
0S
#3450
1#
1;
1S
19!
0k!
1o
0s
0t
#3500
0#
0;
0S
#3550
1#
1;
1S
17!
08!
09!
1k!
1j!
0i!
1t
#3600
0#
0;
0S
#3650
1#
1;
1S
19!
0k!
1s
0t
#3700
0#
0;
0S
#3750
1#
1;
1S
18!
09!
1k!
0j!
1t
#3800
0#
0;
0S
#3850
1#
1;
1S
19!
0k!
0o
1p
0s
0t
#3900
0#
0;
0S
#3950
1#
1;
1S
07!
16!
08!
09!
1k!
1j!
0h!
1i!
1t
#4000
0#
0;
0S
#4050
1#
1;
1S
19!
0k!
1s
0t
#4100
0#
0;
0S
#4150
1#
1;
1S
18!
09!
1k!
0j!
1t
#4200
0#
0;
0S
#4250
1#
1;
1S
19!
0k!
1o
0s
0t
#4300
0#
0;
0S
#4350
1#
1;
1S
17!
08!
09!
1k!
1j!
0i!
1t
#4400
0#
0;
0S
#4450
1#
1;
1S
19!
0k!
1s
0t
#4500
0#
0;
0S
#4550
1#
1;
1S
18!
09!
1k!
0j!
1t
#4600
0#
0;
0S
#4650
1#
1;
1S
19!
0k!
0o
0p
1r
0s
0t
#4700
0#
0;
0S
#4750
1#
1;
1S
07!
06!
15!
08!
09!
1k!
1j!
0g!
1h!
1i!
1t
#4800
0#
0;
0S
#4850
1#
1;
1S
19!
0k!
1s
0t
#4900
0#
0;
0S
#4950
1#
1;
1S
18!
09!
1k!
0j!
0q
0r
0s
1u
0e!
1v
1z
#5000
0#
0;
0S
#5050
1#
1;
1S
04!
05!
08!
1<!
1B!
0`!
0d!
1j!
1g!
1f!
1t
0u
0v
1w
0z
1{
1e!
1v
0w
1z
0{
#5100
0#
0;
0S
#5150
1#
1;
1S
19!
0k!
1s
0t
#5200
0#
0;
0S
#5250
1#
1;
1S
18!
09!
1k!
0j!
1t
#5300
0#
0;
0S
#5350
1#
1;
1S
19!
0k!
1o
0s
0t
#5400
0#
0;
0S
#5450
1#
1;
1S
17!
08!
09!
1k!
1j!
0i!
1t
#5500
0#
0;
0S
#5550
1#
1;
1S
19!
0k!
1s
0t
#5600
0#
0;
0S
#5650
1#
1;
1S
18!
09!
1k!
0j!
1t
#5700
0#
0;
0S
#5750
1#
1;
1S
19!
0k!
0o
1p
0s
0t
#5800
0#
0;
0S
#5850
1#
1;
1S
07!
16!
08!
09!
1k!
1j!
0h!
1i!
1t
#5900
0#
0;
0S
#5950
1#
1;
1S
19!
0k!
1s
0t
#6000
0#
0;
0S
#6050
1#
1;
1S
18!
09!
1k!
0j!
1t
#6100
0#
0;
0S
#6150
1#
1;
1S
19!
0k!
1o
0s
0t
#6200
0#
0;
0S
#6250
1#
1;
1S
17!
08!
09!
1k!
1j!
0i!
1t
#6300
0#
0;
0S
#6350
1#
1;
1S
19!
0k!
1s
0t
#6400
0#
0;
0S
#6450
1#
1;
1S
18!
09!
1k!
0j!
1t
#6500
0#
0;
0S
#6550
1#
1;
1S
19!
0k!
0o
0p
1r
0s
0t
#6600
0#
0;
0S
#6650
1#
1;
1S
07!
06!
15!
08!
09!
1k!
1j!
0g!
1h!
1i!
1t
#6700
0#
0;
0S
#6750
1#
1;
1S
19!
0k!
1s
0t
#6800
0#
0;
0S
#6850
1#
1;
1S
18!
09!
1k!
0j!
1t
#6900
0#
0;
0S
#6950
1#
1;
1S
19!
0k!
1o
0s
0t
#7000
0#
0;
0S
#7050
1#
1;
1S
17!
08!
09!
1k!
1j!
0i!
1t
#7100
0#
0;
0S
#7150
1#
1;
1S
19!
0k!
1s
0t
#7200
0#
0;
0S
#7250
1#
1;
1S
18!
09!
1k!
0j!
1t
#7300
0#
0;
0S
#7350
1#
1;
1S
19!
0k!
0o
1p
0s
0t
#7400
0#
0;
0S
#7450
1#
1;
1S
07!
16!
08!
09!
1k!
1j!
0h!
1i!
1t
#7500
0#
0;
0S
#7550
1#
1;
1S
19!
0k!
1s
0t
#7600
0#
0;
0S
#7650
1#
1;
1S
18!
09!
1k!
0j!
1t
#7700
0#
0;
0S
#7750
1#
1;
1S
19!
0k!
1o
0s
0t
#7800
0#
0;
0S
#7850
1#
1;
1S
17!
08!
09!
1k!
1j!
0i!
1t
#7900
0#
0;
0S
#7950
1#
1;
1S
19!
0k!
1s
0t
#8000
0#
0;
0S
#8050
1#
1;
1S
18!
09!
1k!
0j!
1t
#8100
0#
0;
0S
#8150
1#
1;
1S
19!
0k!
0o
0p
1q
0r
0s
0t
#8200
0#
0;
0S
#8250
1#
1;
1S
07!
06!
14!
05!
08!
09!
1k!
1j!
1g!
0f!
1h!
1i!
1t
#8300
0#
0;
0S
#8350
1#
1;
1S
19!
0k!
1s
0t
#8400
0#
0;
0S
#8450
1#
1;
1S
18!
09!
1k!
0j!
1t
#8500
0#
0;
0S
#8550
1#
1;
1S
19!
0k!
1o
0s
0t
#8600
0#
0;
0S
#8650
1#
1;
1S
17!
08!
09!
1k!
1j!
0i!
1t
#8700
0#
0;
0S
#8750
1#
1;
1S
19!
0k!
1s
0t
#8800
0#
0;
0S
#8850
1#
1;
1S
18!
09!
1k!
0j!
1t
#8900
0#
0;
0S
#8950
1#
1;
1S
19!
0k!
0o
1p
0s
0t
#9000
0#
0;
0S
#9050
1#
1;
1S
07!
16!
08!
09!
1k!
1j!
0h!
1i!
1t
#9100
0#
0;
0S
#9150
1#
1;
1S
19!
0k!
1s
0t
#9200
0#
0;
0S
#9250
1#
1;
1S
18!
09!
1k!
0j!
1t
#9300
0#
0;
0S
#9350
1#
1;
1S
19!
0k!
1o
0s
0t
#9400
0#
0;
0S
#9450
1#
1;
1S
17!
08!
09!
1k!
1j!
0i!
1t
#9500
0#
0;
0S
#9550
1#
1;
1S
19!
0k!
1s
0t
#9600
0#
0;
0S
#9650
1#
1;
1S
18!
09!
1k!
0j!
1t
#9700
0#
0;
0S
#9750
1#
1;
1S
19!
0k!
0o
0p
1r
0s
0t
#9800
0#
0;
0S
#9850
1#
1;
1S
07!
06!
15!
08!
09!
1k!
1j!
0g!
1h!
1i!
1t
#9900
0#
0;
0S
#9950
1#
1;
1S
19!
0k!
1s
0t
#10000
0#
0;
0S
#10050
1#
1;
1S
18!
09!
1k!
0j!
0q
0r
0s
1u
0e!
0v
1w
0z
1{
#10100
0#
0;
0S
#10150
1#
1;
1S
04!
05!
08!
0<!
1;!
0B!
1A!
0_!
1`!
0c!
1d!
1j!
1g!
1f!
1t
0u
1v
1z
1e!
0v
0z
#10200
0#
0;
0S
#10250
1#
1;
1S
19!
0k!
1s
0t
#10300
0#
0;
0S
#10350
1#
1;
1S
18!
09!
1k!
0j!
1t
#10400
0#
0;
0S
#10450
1#
1;
1S
19!
0k!
1o
0s
0t
#10500
0#
0;
0S
#10550
1#
1;
1S
17!
08!
09!
1k!
1j!
0i!
1t
#10600
0#
0;
0S
#10650
1#
1;
1S
19!
0k!
1s
0t
#10700
0#
0;
0S
#10750
1#
1;
1S
18!
09!
1k!
0j!
1t
#10800
0#
0;
0S
#10850
1#
1;
1S
19!
0k!
0o
1p
0s
0t
#10900
0#
0;
0S
#10950
1#
1;
1S
07!
16!
08!
09!
1k!
1j!
0h!
1i!
1t
#11000
0#
0;
0S
#11050
1#
1;
1S
19!
0k!
1s
0t
#11100
0#
0;
0S
#11150
1#
1;
1S
18!
09!
1k!
0j!
1t
#11200
0#
0;
0S
#11250
1#
1;
1S
19!
0k!
1o
0s
0t
#11300
0#
0;
0S
#11350
1#
1;
1S
17!
08!
09!
1k!
1j!
0i!
1t
#11400
0#
0;
0S
#11450
1#
1;
1S
19!
0k!
1s
0t
#11500
0#
0;
0S
#11550
1#
1;
1S
18!
09!
1k!
0j!
1t
#11600
0#
0;
0S
#11650
1#
1;
1S
19!
0k!
0o
0p
1r
0s
0t
#11700
0#
0;
0S
#11750
1#
1;
1S
07!
06!
15!
08!
09!
1k!
1j!
0g!
1h!
1i!
1t
#11800
0#
0;
0S
#11850
1#
1;
1S
19!
0k!
1s
0t
#11900
0#
0;
0S
#11950
1#
1;
1S
18!
09!
1k!
0j!
1t
#12000
0#
0;
0S
#12050
1#
1;
1S
19!
0k!
1o
0s
0t
#12100
0#
0;
0S
#12150
1#
1;
1S
17!
08!
09!
1k!
1j!
0i!
1t
#12200
0#
0;
0S
#12250
1#
1;
1S
19!
0k!
1s
0t
#12300
0#
0;
0S
#12350
1#
1;
1S
18!
09!
1k!
0j!
1t
#12400
0#
0;
0S
#12450
1#
1;
1S
19!
0k!
0o
1p
0s
0t
#12500
0#
0;
0S
#12550
1#
1;
1S
07!
16!
08!
09!
1k!
1j!
0h!
1i!
1t
#12600
0#
0;
0S
#12650
1#
1;
1S
19!
0k!
1s
0t
#12700
0#
0;
0S
#12750
1#
1;
1S
18!
09!
1k!
0j!
1t
#12800
0#
0;
0S
#12850
1#
1;
1S
19!
0k!
1o
0s
0t
#12900
0#
0;
0S
#12950
1#
1;
1S
17!
08!
09!
1k!
1j!
0i!
1t
#13000
0#
0;
0S
#13050
1#
1;
1S
19!
0k!
1s
0t
#13100
0#
0;
0S
#13150
1#
1;
1S
18!
09!
1k!
0j!
1t
#13200
0#
0;
0S
#13250
1#
1;
1S
19!
0k!
0o
0p
1q
0r
0s
0t
#13300
0#
0;
0S
#13350
1#
1;
1S
07!
06!
14!
05!
08!
09!
1k!
1j!
1g!
0f!
1h!
1i!
1t
#13400
0#
0;
0S
#13450
1#
1;
1S
19!
0k!
1s
0t
#13500
0#
0;
0S
#13550
1#
1;
1S
18!
09!
1k!
0j!
1t
#13600
0#
0;
0S
#13650
1#
1;
1S
19!
0k!
1o
0s
0t
#13700
0#
0;
0S
#13750
1#
1;
1S
17!
08!
09!
1k!
1j!
0i!
1t
#13800
0#
0;
0S
#13850
1#
1;
1S
19!
0k!
1s
0t
#13900
0#
0;
0S
#13950
1#
1;
1S
18!
09!
1k!
0j!
1t
#14000
0#
0;
0S
#14050
1#
1;
1S
19!
0k!
0o
1p
0s
0t
#14100
0#
0;
0S
#14150
1#
1;
1S
07!
16!
08!
09!
1k!
1j!
0h!
1i!
1t
#14200
0#
0;
0S
#14250
1#
1;
1S
19!
0k!
1s
0t
#14300
0#
0;
0S
#14350
1#
1;
1S
18!
09!
1k!
0j!
1t
#14400
0#
0;
0S
#14450
1#
1;
1S
19!
0k!
1o
0s
0t
#14500
0#
0;
0S
#14550
1#
1;
1S
17!
08!
09!
1k!
1j!
0i!
1t
#14600
0#
0;
0S
#14650
1#
1;
1S
19!
0k!
1s
0t
#14700
0#
0;
0S
#14750
1#
1;
1S
18!
09!
1k!
0j!
1t
#14800
0#
0;
0S
#14850
1#
1;
1S
19!
0k!
0o
0p
1r
0s
0t
#14900
0#
0;
0S
#14950
1#
1;
1S
07!
06!
15!
08!
09!
1k!
1j!
0g!
1h!
1i!
1t
#15000
0#
0;
0S
#15050
1#
1;
1S
19!
0k!
1s
0t
#15100
0#
0;
0S
#15150
1#
1;
1S
18!
09!
1k!
0j!
0q
0r
0s
1u
0e!
1v
1z
#15200
0#
0;
0S
#15250
1#
1;
1S
04!
05!
08!
1<!
1B!
0`!
0d!
1j!
1g!
1f!
1t
0u
0v
0w
1x
0z
0{
1|
1e!
1v
1w
0x
1z
1{
0|
#15300
0#
0;
0S
#15350
1#
1;
1S
19!
0k!
1s
0t
#15400
0#
0;
0S
#15450
1#
1;
1S
18!
09!
1k!
0j!
1t
#15500
0#
0;
0S
#15550
1#
1;
1S
19!
0k!
1o
0s
0t
#15600
0#
0;
0S
#15650
1#
1;
1S
17!
08!
09!
1k!
1j!
0i!
1t
#15700
0#
0;
0S
#15750
1#
1;
1S
19!
0k!
1s
0t
#15800
0#
0;
0S
#15850
1#
1;
1S
18!
09!
1k!
0j!
1t
#15900
0#
0;
0S
#15950
1#
1;
1S
19!
0k!
0o
1p
0s
0t
#16000
0#
0;
0S
#16050
1#
1;
1S
07!
16!
08!
09!
1k!
1j!
0h!
1i!
1t
#16100
0#
0;
0S
#16150
1#
1;
1S
19!
0k!
1s
0t
#16200
0#
0;
0S
#16250
1#
1;
1S
18!
09!
1k!
0j!
1t
#16300
0#
0;
0S
#16350
1#
1;
1S
19!
0k!
1o
0s
0t
#16400
0#
0;
0S
#16450
1#
1;
1S
17!
08!
09!
1k!
1j!
0i!
1t
#16500
0#
0;
0S
#16550
1#
1;
1S
19!
0k!
1s
0t
#16600
0#
0;
0S
#16650
1#
1;
1S
18!
09!
1k!
0j!
1t
#16700
0#
0;
0S
#16750
1#
1;
1S
19!
0k!
0o
0p
1r
0s
0t
#16800
0#
0;
0S
#16850
1#
1;
1S
07!
06!
15!
08!
09!
1k!
1j!
0g!
1h!
1i!
1t
#16900
0#
0;
0S
#16950
1#
1;
1S
19!
0k!
1s
0t
#17000
0#
0;
0S
#17050
1#
1;
1S
18!
09!
1k!
0j!
1t
#17100
0#
0;
0S
#17150
1#
1;
1S
19!
0k!
1o
0s
0t
#17200
0#
0;
0S
#17250
1#
1;
1S
17!
08!
09!
1k!
1j!
0i!
1t
#17300
0#
0;
0S
#17350
1#
1;
1S
19!
0k!
1s
0t
#17400
0#
0;
0S
#17450
1#
1;
1S
18!
09!
1k!
0j!
1t
#17500
0#
0;
0S
#17550
1#
1;
1S
19!
0k!
0o
1p
0s
0t
#17600
0#
0;
0S
#17650
1#
1;
1S
07!
16!
08!
09!
1k!
1j!
0h!
1i!
1t
#17700
0#
0;
0S
#17750
1#
1;
1S
19!
0k!
1s
0t
#17800
0#
0;
0S
#17850
1#
1;
1S
18!
09!
1k!
0j!
1t
#17900
0#
0;
0S
#17950
1#
1;
1S
19!
0k!
1o
0s
0t
#18000
0#
0;
0S
#18050
1#
1;
1S
17!
08!
09!
1k!
1j!
0i!
1t
#18100
0#
0;
0S
#18150
1#
1;
1S
19!
0k!
1s
0t
#18200
0#
0;
0S
#18250
1#
1;
1S
18!
09!
1k!
0j!
1t
#18300
0#
0;
0S
#18350
1#
1;
1S
19!
0k!
0o
0p
1q
0r
0s
0t
#18400
0#
0;
0S
#18450
1#
1;
1S
07!
06!
14!
05!
08!
09!
1k!
1j!
1g!
0f!
1h!
1i!
1t
#18500
0#
0;
0S
#18550
1#
1;
1S
19!
0k!
1s
0t
#18600
0#
0;
0S
#18650
1#
1;
1S
18!
09!
1k!
0j!
1t
#18700
0#
0;
0S
#18750
1#
1;
1S
19!
0k!
1o
0s
0t
#18800
0#
0;
0S
#18850
1#
1;
1S
17!
08!
09!
1k!
1j!
0i!
1t
#18900
0#
0;
0S
#18950
1#
1;
1S
19!
0k!
1s
0t
#19000
0#
0;
0S
#19050
1#
1;
1S
18!
09!
1k!
0j!
1t
#19100
0#
0;
0S
#19150
1#
1;
1S
19!
0k!
0o
1p
0s
0t
#19200
0#
0;
0S
#19250
1#
1;
1S
07!
16!
08!
09!
1k!
1j!
0h!
1i!
1t
#19300
0#
0;
0S
#19350
1#
1;
1S
19!
0k!
1s
0t
#19400
0#
0;
0S
#19450
1#
1;
1S
18!
09!
1k!
0j!
1t
#19500
0#
0;
0S
