DigLab/exp_8/circuito_temporizador/simulation/qsim/circuito_temporizador.msim.vcd
$comment
	File created using the following command:
		vcd file circuito_temporizador.msim.vcd -direction
$end
$date
	Sun May 24 23:56:19 2020
$end
$version
	ModelSim Version 10.5b
$end
$timescale
	1ps
$end

$scope module circuito_temporizador_vhd_vec_tst $end
$var wire 1 ! clock $end
$var wire 1 " Desliga $end
$var wire 1 # lampada $end
$var wire 1 $ Liga $end
$var wire 1 % out_12horas $end
$var wire 1 & out_hora $end
$var wire 1 ' out_minuto $end
$var wire 1 ( out_segundo $end
$var wire 1 ) Reset $end

$scope module i1 $end
$var wire 1 * gnd $end
$var wire 1 + vcc $end
$var wire 1 , unknown $end
$var wire 1 - devoe $end
$var wire 1 . devclrn $end
$var wire 1 / devpor $end
$var wire 1 0 ww_devoe $end
$var wire 1 1 ww_devclrn $end
$var wire 1 2 ww_devpor $end
$var wire 1 3 ww_out_segundo $end
$var wire 1 4 ww_clock $end
$var wire 1 5 ww_Reset $end
$var wire 1 6 ww_out_minuto $end
$var wire 1 7 ww_out_hora $end
$var wire 1 8 ww_out_12horas $end
$var wire 1 9 ww_lampada $end
$var wire 1 : ww_Liga $end
$var wire 1 ; ww_Desliga $end
$var wire 1 < \out_segundo~output_o\ $end
$var wire 1 = \out_minuto~output_o\ $end
$var wire 1 > \out_hora~output_o\ $end
$var wire 1 ? \out_12horas~output_o\ $end
$var wire 1 @ \lampada~output_o\ $end
$var wire 1 A \clock~input_o\ $end
$var wire 1 B \inst|conta_ciclo~4_combout\ $end
$var wire 1 C \Reset~input_o\ $end
$var wire 1 D \inst|conta_ciclo~0_combout\ $end
$var wire 1 E \inst|conta_ciclo~1_combout\ $end
$var wire 1 F \inst|conta_ciclo~2_combout\ $end
$var wire 1 G \inst|Add0~0_combout\ $end
$var wire 1 H \inst|conta_ciclo~3_combout\ $end
$var wire 1 I \inst|conta_ciclo~5_combout\ $end
$var wire 1 J \inst|Equal0~combout\ $end
$var wire 1 K \inst1|conta_ciclo~4_combout\ $end
$var wire 1 L \inst1|conta_ciclo~0_combout\ $end
$var wire 1 M \inst1|conta_ciclo~1_combout\ $end
$var wire 1 N \inst1|conta_ciclo~2_combout\ $end
$var wire 1 O \inst1|Add0~0_combout\ $end
$var wire 1 P \inst1|conta_ciclo~3_combout\ $end
$var wire 1 Q \inst1|conta_ciclo~5_combout\ $end
$var wire 1 R \inst1|Equal0~combout\ $end
$var wire 1 S \inst2|conta_ciclo~4_combout\ $end
$var wire 1 T \inst2|conta_ciclo~0_combout\ $end
$var wire 1 U \inst2|conta_ciclo~1_combout\ $end
$var wire 1 V \inst2|conta_ciclo~2_combout\ $end
$var wire 1 W \inst2|Add0~0_combout\ $end
$var wire 1 X \inst2|conta_ciclo~3_combout\ $end
$var wire 1 Y \inst2|conta_ciclo~5_combout\ $end
$var wire 1 Z \inst2|Equal0~combout\ $end
$var wire 1 [ \inst3|conta_ciclo~2_combout\ $end
$var wire 1 \ \inst3|conta_ciclo~0_combout\ $end
$var wire 1 ] \inst3|conta_ciclo~1_combout\ $end
$var wire 1 ^ \inst3|conta_ciclo~3_combout\ $end
$var wire 1 _ \inst3|Equal0~combout\ $end
$var wire 1 ` \Desliga~input_o\ $end
$var wire 1 a \inst5~0_combout\ $end
$var wire 1 b \inst5~q\ $end
$var wire 1 c \Liga~input_o\ $end
$var wire 1 d \inst13~0_combout\ $end
$var wire 1 e \inst|conta_ciclo\ [5] $end
$var wire 1 f \inst|conta_ciclo\ [4] $end
$var wire 1 g \inst|conta_ciclo\ [3] $end
$var wire 1 h \inst|conta_ciclo\ [2] $end
$var wire 1 i \inst|conta_ciclo\ [1] $end
$var wire 1 j \inst|conta_ciclo\ [0] $end
$var wire 1 k \inst1|conta_ciclo\ [5] $end
$var wire 1 l \inst1|conta_ciclo\ [4] $end
$var wire 1 m \inst1|conta_ciclo\ [3] $end
$var wire 1 n \inst1|conta_ciclo\ [2] $end
$var wire 1 o \inst1|conta_ciclo\ [1] $end
$var wire 1 p \inst1|conta_ciclo\ [0] $end
$var wire 1 q \inst2|conta_ciclo\ [5] $end
$var wire 1 r \inst2|conta_ciclo\ [4] $end
$var wire 1 s \inst2|conta_ciclo\ [3] $end
$var wire 1 t \inst2|conta_ciclo\ [2] $end
$var wire 1 u \inst2|conta_ciclo\ [1] $end
$var wire 1 v \inst2|conta_ciclo\ [0] $end
$var wire 1 w \inst3|conta_ciclo\ [3] $end
$var wire 1 x \inst3|conta_ciclo\ [2] $end
$var wire 1 y \inst3|conta_ciclo\ [1] $end
$var wire 1 z \inst3|conta_ciclo\ [0] $end
$var wire 1 { \ALT_INV_Reset~input_o\ $end
$var wire 1 | \ALT_INV_Liga~input_o\ $end
$var wire 1 } \ALT_INV_Desliga~input_o\ $end
$var wire 1 ~ \inst2|ALT_INV_Add0~0_combout\ $end
$var wire 1 !! \inst1|ALT_INV_Add0~0_combout\ $end
$var wire 1 "! \inst|ALT_INV_Add0~0_combout\ $end
$var wire 1 #! \inst3|ALT_INV_Equal0~combout\ $end
$var wire 1 $! \inst3|ALT_INV_conta_ciclo\ [3] $end
$var wire 1 %! \inst3|ALT_INV_conta_ciclo\ [2] $end
$var wire 1 &! \inst3|ALT_INV_conta_ciclo\ [1] $end
$var wire 1 '! \inst3|ALT_INV_conta_ciclo\ [0] $end
$var wire 1 (! \inst2|ALT_INV_Equal0~combout\ $end
$var wire 1 )! \inst2|ALT_INV_conta_ciclo\ [5] $end
$var wire 1 *! \inst2|ALT_INV_conta_ciclo\ [4] $end
$var wire 1 +! \inst2|ALT_INV_conta_ciclo\ [3] $end
$var wire 1 ,! \inst2|ALT_INV_conta_ciclo\ [2] $end
$var wire 1 -! \inst2|ALT_INV_conta_ciclo\ [1] $end
$var wire 1 .! \inst2|ALT_INV_conta_ciclo\ [0] $end
$var wire 1 /! \inst1|ALT_INV_Equal0~combout\ $end
$var wire 1 0! \inst1|ALT_INV_conta_ciclo\ [5] $end
$var wire 1 1! \inst1|ALT_INV_conta_ciclo\ [4] $end
$var wire 1 2! \inst1|ALT_INV_conta_ciclo\ [3] $end
$var wire 1 3! \inst1|ALT_INV_conta_ciclo\ [2] $end
$var wire 1 4! \inst1|ALT_INV_conta_ciclo\ [1] $end
$var wire 1 5! \inst1|ALT_INV_conta_ciclo\ [0] $end
$var wire 1 6! \inst|ALT_INV_Equal0~combout\ $end
$var wire 1 7! \inst|ALT_INV_conta_ciclo\ [5] $end
$var wire 1 8! \inst|ALT_INV_conta_ciclo\ [4] $end
$var wire 1 9! \inst|ALT_INV_conta_ciclo\ [3] $end
$var wire 1 :! \inst|ALT_INV_conta_ciclo\ [2] $end
$var wire 1 ;! \inst|ALT_INV_conta_ciclo\ [1] $end
$var wire 1 <! \inst|ALT_INV_conta_ciclo\ [0] $end
$var wire 1 =! \ALT_INV_inst5~q\ $end
$upscope $end
$upscope $end
$enddefinitions $end
#0
$dumpvars
0!
0"
0#
0$
0%
0&
0'
0(
0)
0*
1+
x,
1-
1.
1/
10
11
12
03
04
05
06
07
08
09
0:
0;
0<
0=
0>
0?
0@
0A
1B
0C
0D
0E
0F
0G
0H
0I
0J
1K
0L
0M
0N
0O
0P
0Q
0R
1S
0T
0U
0V
0W
0X
0Y
0Z
1[
0\
0]
0^
0_
0`
1a
0b
0c
0d
1{
1|
1}
1~
1!!
1"!
1#!
1(!
1/!
16!
1=!
0e
0f
0g
0h
0i
0j
0k
0l
0m
0n
0o
0p
0q
0r
0s
0t
0u
0v
0w
0x
0y
0z
1$!
1%!
1&!
1'!
1)!
1*!
1+!
1,!
1-!
1.!
10!
11!
12!
13!
14!
15!
17!
18!
19!
1:!
1;!
1<!
$end
#50
1!
14
1A
1j
0<!
0B
1D
#100
0!
04
0A
#150
1!
14
1A
0j
1i
0;!
1<!
1B
#200
0!
04
0A
#250
1!
14
1A
1j
0<!
0B
0D
1E
#300
0!
04
0A
#350
1!
14
1A
0j
0i
1h
0:!
1;!
1<!
1B
#400
0!
04
0A
#450
1!
14
1A
1j
0<!
0B
1D
1J
06!
1p
0D
0E
05!
1<
0K
1L
13
1(
#500
0!
04
0A
#550
1!
14
1A
0j
0h
1:!
1<!
0J
16!
1B
0<
03
0(
#600
0!
04
0A
#650
1!
14
1A
1j
0<!
0B
1D
#700
0!
04
0A
#750
1!
14
1A
0j
1i
0;!
1<!
1B
#800
0!
04
0A
#850
1!
14
1A
1j
0<!
0B
0D
1E
#900
0!
04
0A
#950
1!
14
1A
0j
0i
1h
0:!
1;!
1<!
1B
#1000
0!
04
0A
#1050
1!
14
1A
1j
0<!
0B
1D
1J
06!
0p
1o
0D
0E
04!
15!
1<
1K
13
1(
#1100
0!
04
0A
#1150
1!
14
1A
0j
0h
1:!
1<!
0J
16!
1B
0<
03
0(
#1200
0!
04
0A
#1250
1!
14
1A
1j
0<!
0B
1D
#1300
0!
04
0A
#1350
1!
14
1A
0j
1i
0;!
1<!
1B
#1400
0!
04
0A
#1450
1!
14
1A
1j
0<!
0B
0D
1E
#1500
0!
04
0A
#1550
1!
14
1A
0j
0i
1h
0:!
1;!
1<!
1B
#1600
0!
04
0A
#1650
1!
14
1A
1j
0<!
0B
1D
1J
06!
1p
0D
0E
05!
1<
0K
0L
1M
13
1(
#1700
0!
04
0A
#1750
1!
14
1A
0j
0h
1:!
1<!
0J
16!
1B
0<
03
0(
#1800
0!
04
0A
#1850
1!
14
1A
1j
0<!
0B
1D
#1900
0!
04
0A
#1950
1!
14
1A
0j
1i
0;!
1<!
1B
#2000
0!
04
0A
#2050
1!
14
1A
1j
0<!
0B
0D
1E
#2100
0!
04
0A
#2150
1!
14
1A
0j
0i
1h
0:!
1;!
1<!
1B
#2200
0!
04
0A
#2250
1!
14
1A
1j
0<!
0B
1D
1J
06!
0p
0o
1n
0D
0E
03!
14!
15!
1<
1K
13
1(
#2300
0!
04
0A
#2350
1!
14
1A
0j
0h
1:!
1<!
0J
16!
1B
0<
03
0(
#2400
0!
04
0A
#2450
1!
14
1A
1j
0<!
0B
1D
#2500
0!
04
0A
#2550
1!
14
1A
0j
1i
0;!
1<!
1B
#2600
0!
04
0A
#2650
1!
14
1A
1j
0<!
0B
0D
1E
#2700
0!
04
0A
#2750
1!
14
1A
0j
0i
1h
0:!
1;!
1<!
1B
#2800
0!
04
0A
#2850
1!
14
1A
1j
0<!
0B
1D
1J
06!
1p
0D
0E
05!
1<
0K
1L
13
1(
#2900
0!
04
0A
#2950
1!
14
1A
0j
0h
1:!
1<!
0J
16!
1B
0<
03
0(
#3000
0!
04
0A
#3050
1!
14
1A
1j
0<!
0B
1D
#3100
0!
04
0A
#3150
1!
14
1A
0j
1i
0;!
1<!
1B
#3200
0!
04
0A
#3250
1!
14
1A
1j
0<!
0B
0D
1E
#3300
0!
04
0A
#3350
1!
14
1A
0j
0i
1h
0:!
1;!
1<!
1B
#3400
0!
04
0A
#3450
1!
14
1A
1j
0<!
0B
1D
1J
06!
0p
1o
0D
0E
04!
15!
1<
1K
1R
0/!
13
1v
1(
0K
0L
0M
0.!
1=
0S
1T
16
1'
#3500
0!
04
0A
#3550
1!
14
1A
0j
0h
1:!
1<!
0J
16!
1B
0<
03
0(
#3600
0!
04
0A
#3650
1!
14
1A
1j
0<!
0B
1D
#3700
0!
04
0A
#3750
1!
14
1A
0j
1i
0;!
1<!
1B
#3800
0!
04
0A
#3850
1!
14
1A
1j
0<!
0B
0D
1E
#3900
0!
04
0A
#3950
1!
14
1A
0j
0i
1h
0:!
1;!
1<!
1B
#4000
0!
04
0A
#4050
1!
14
1A
1j
0<!
0B
1D
1J
06!
0o
0n
0D
0E
13!
14!
1<
0R
1/!
13
1(
1K
0=
06
0'
#4100
0!
04
0A
#4150
1!
14
1A
0j
0h
1:!
1<!
0J
16!
1B
0<
03
0(
#4200
0!
04
0A
#4250
1!
14
1A
1j
0<!
0B
1D
#4300
0!
04
0A
#4350
1!
14
1A
0j
1i
0;!
1<!
1B
#4400
0!
04
0A
#4450
1!
14
1A
1j
0<!
0B
0D
1E
#4500
0!
04
0A
#4550
1!
14
1A
0j
0i
1h
0:!
1;!
1<!
1B
#4600
0!
04
0A
#4650
1!
14
1A
1j
0<!
0B
1D
1J
06!
1p
0D
0E
05!
1<
0K
1L
13
1(
#4700
0!
04
0A
#4750
1!
14
1A
0j
0h
1:!
1<!
0J
16!
1B
0<
03
0(
#4800
0!
04
0A
#4850
1!
14
1A
1j
0<!
0B
1D
#4900
0!
04
0A
#4950
1!
14
1A
0j
1i
0;!
1<!
1B
#5000
0!
04
0A
#5050
1!
14
1A
1j
0<!
0B
0D
1E
#5100
0!
04
0A
#5150
1!
14
1A
0j
0i
1h
0:!
1;!
1<!
1B
#5200
0!
04
0A
#5250
1!
14
1A
1j
0<!
0B
1D
1J
06!
0p
1o
0D
0E
04!
15!
1<
1K
13
1(
#5300
0!
04
0A
#5350
1!
14
1A
0j
0h
1:!
1<!
0J
16!
1B
0<
03
0(
#5400
0!
04
0A
#5450
1!
14
1A
1j
0<!
0B
1D
#5500
0!
04
0A
#5550
1!
14
1A
0j
1i
0;!
1<!
1B
#5600
0!
04
0A
#5650
1!
14
1A
1j
0<!
0B
0D
1E
#5700
0!
04
0A
#5750
1!
14
1A
0j
0i
1h
0:!
1;!
1<!
1B
#5800
0!
04
0A
#5850
1!
14
1A
1j
0<!
0B
1D
1J
06!
1p
0D
0E
05!
1<
0K
0L
1M
13
1(
#5900
0!
04
0A
#5950
1!
14
1A
0j
0h
1:!
1<!
0J
16!
1B
0<
03
0(
#6000
0!
04
0A
#6050
1!
14
1A
1j
0<!
0B
1D
#6100
0!
04
0A
#6150
1!
14
1A
0j
1i
0;!
1<!
1B
#6200
0!
04
0A
#6250
1!
14
1A
1j
0<!
0B
0D
1E
#6300
0!
04
0A
#6350
1!
14
1A
0j
0i
1h
0:!
1;!
1<!
1B
#6400
0!
04
0A
#6450
1!
14
1A
1j
0<!
0B
1D
1J
06!
0p
0o
1n
0D
0E
03!
14!
15!
1<
1K
13
1(
#6500
0!
04
0A
#6550
1!
14
1A
0j
0h
1:!
1<!
0J
16!
1B
0<
03
0(
#6600
0!
04
0A
#6650
1!
14
1A
1j
0<!
0B
1D
#6700
0!
04
0A
#6750
1!
14
1A
0j
1i
0;!
1<!
1B
#6800
0!
04
0A
#6850
1!
14
1A
1j
0<!
0B
0D
1E
#6900
0!
04
0A
#6950
1!
14
1A
0j
0i
1h
0:!
1;!
1<!
1B
#7000
0!
04
0A
#7050
1!
14
1A
1j
0<!
0B
1D
1J
06!
1p
0D
0E
05!
1<
0K
1L
13
1(
#7100
0!
04
0A
#7150
1!
14
1A
0j
0h
1:!
1<!
0J
16!
1B
0<
03
0(
#7200
0!
04
0A
#7250
1!
14
1A
1j
0<!
0B
1D
#7300
0!
04
0A
#7350
1!
14
1A
0j
1i
0;!
1<!
1B
#7400
0!
04
0A
#7450
1!
14
1A
1j
0<!
0B
0D
1E
#7500
0!
04
0A
#7550
1!
14
1A
0j
0i
1h
0:!
1;!
1<!
1B
#7600
0!
04
0A
#7650
1!
14
1A
1j
0<!
0B
1D
1J
06!
0p
1o
0D
0E
04!
15!
1<
1K
1R
0/!
13
0v
1u
1(
0K
0L
0M
0-!
1.!
1=
1S
16
1'
#7700
0!
04
0A
#7750
1!
14
1A
0j
0h
1:!
1<!
0J
16!
1B
0<
03
0(
#7800
0!
04
0A
#7850
1!
14
1A
1j
0<!
0B
1D
#7900
0!
04
0A
#7950
1!
14
1A
0j
1i
0;!
1<!
1B
#8000
0!
04
0A
#8050
1!
14
1A
1j
0<!
0B
0D
1E
#8100
0!
04
0A
#8150
1!
14
1A
0j
0i
1h
0:!
1;!
1<!
1B
#8200
0!
04
0A
#8250
1!
14
1A
1j
0<!
0B
1D
1J
06!
0o
0n
0D
0E
13!
14!
1<
0R
1/!
13
1(
1K
0=
06
0'
#8300
0!
04
0A
#8350
1!
14
1A
0j
0h
1:!
1<!
0J
16!
1B
0<
03
0(
#8400
0!
04
0A
#8450
1!
14
1A
1j
0<!
0B
1D
#8500
0!
04
0A
#8550
1!
14
1A
0j
1i
0;!
1<!
1B
#8600
0!
04
0A
#8650
1!
14
1A
1j
0<!
0B
0D
1E
#8700
0!
04
0A
#8750
1!
14
1A
0j
0i
1h
0:!
1;!
1<!
1B
#8800
0!
04
0A
#8850
1!
14
1A
1j
0<!
0B
1D
1J
06!
1p
0D
0E
05!
1<
0K
1L
13
1(
#8900
0!
04
0A
#8950
1!
14
1A
0j
0h
1:!
1<!
0J
16!
1B
0<
03
0(
#9000
0!
04
0A
#9050
1!
14
1A
1j
0<!
0B
1D
#9100
0!
04
0A
#9150
1!
14
1A
0j
1i
0;!
1<!
1B
#9200
0!
04
0A
#9250
1!
14
1A
1j
0<!
0B
0D
1E
#9300
0!
04
0A
#9350
1!
14
1A
0j
0i
1h
0:!
1;!
1<!
1B
#9400
0!
04
0A
#9450
1!
14
1A
1j
0<!
0B
1D
1J
06!
0p
1o
0D
0E
04!
15!
1<
1K
13
1(
#9500
0!
04
0A
#9550
1!
14
1A
0j
0h
1:!
1<!
0J
16!
1B
0<
03
0(
#9600
0!
04
0A
#9650
1!
14
1A
1j
0<!
0B
1D
#9700
0!
04
0A
#9750
1!
14
1A
0j
1i
0;!
1<!
1B
#9800
0!
04
0A
#9850
1!
14
1A
1j
0<!
0B
0D
1E
#9900
0!
04
0A
#9950
1!
14
1A
0j
0i
1h
0:!
1;!
1<!
1B
#10000
0!
04
0A
#10050
1!
14
1A
1j
0<!
0B
1D
1J
06!
1p
0D
0E
05!
1<
0K
0L
1M
13
1(
#10100
0!
04
0A
#10150
1!
14
1A
0j
0h
1:!
1<!
0J
16!
1B
0<
03
0(
#10200
0!
04
0A
#10250
1!
14
1A
1j
0<!
0B
1D
#10300
0!
04
0A
#10350
1!
14
1A
0j
1i
0;!
1<!
1B
#10400
0!
04
0A
#10450
1!
14
1A
1j
0<!
0B
0D
1E
#10500
0!
04
0A
#10550
1!
14
1A
0j
0i
1h
0:!
1;!
1<!
1B
#10600
0!
04
0A
#10650
1!
14
1A
1j
0<!
0B
1D
1J
06!
0p
0o
1n
0D
0E
03!
14!
15!
1<
1K
13
1(
#10700
0!
04
0A
#10750
1!
14
1A
0j
0h
1:!
1<!
0J
16!
1B
0<
03
0(
#10800
0!
04
0A
#10850
1!
14
1A
1j
0<!
0B
1D
#10900
0!
04
0A
#10950
1!
14
1A
0j
1i
0;!
1<!
1B
#11000
0!
04
0A
#11050
1!
14
1A
1j
0<!
0B
0D
1E
#11100
0!
04
0A
#11150
1!
14
1A
0j
0i
1h
0:!
1;!
1<!
1B
#11200
0!
04
0A
#11250
1!
14
1A
1j
0<!
0B
1D
1J
06!
1p
0D
0E
05!
1<
0K
1L
13
1(
#11300
0!
04
0A
#11350
1!
14
1A
0j
0h
1:!
1<!
0J
16!
1B
0<
03
0(
#11400
0!
04
0A
#11450
1!
14
1A
1j
0<!
0B
1D
#11500
0!
04
0A
#11550
1!
14
1A
0j
1i
0;!
1<!
1B
#11600
0!
04
0A
#11650
1!
14
1A
1j
0<!
0B
0D
1E
#11700
0!
04
0A
#11750
1!
14
1A
0j
0i
1h
0:!
1;!
1<!
1B
#11800
0!
04
0A
#11850
1!
14
1A
1j
0<!
0B
1D
1J
06!
0p
1o
0D
0E
04!
15!
1<
1K
1R
0/!
13
1v
1(
0K
0L
0M
0.!
1=
0S
0T
1U
16
1'
#11900
0!
04
0A
#11950
1!
14
1A
0j
0h
1:!
1<!
0J
16!
1B
0<
03
0(
#12000
0!
04
0A
#12050
1!
14
1A
1j
0<!
0B
1D
#12100
0!
04
0A
#12150
1!
14
1A
0j
1i
0;!
1<!
1B
#12200
0!
04
0A
#12250
1!
14
1A
1j
0<!
0B
0D
1E
#12300
0!
04
0A
#12350
1!
14
1A
0j
0i
1h
0:!
1;!
1<!
1B
#12400
0!
04
0A
#12450
1!
14
1A
1j
0<!
0B
1D
1J
06!
0o
0n
0D
0E
13!
14!
1<
0R
1/!
13
1(
1K
0=
06
0'
#12500
0!
04
0A
#12550
1!
14
1A
0j
0h
1:!
1<!
0J
16!
1B
0<
03
0(
#12600
0!
04
0A
#12650
1!
14
1A
1j
0<!
0B
1D
#12700
0!
04
0A
#12750
1!
14
1A
0j
1i
0;!
1<!
1B
#12800
0!
04
0A
#12850
1!
14
1A
1j
0<!
0B
0D
1E
#12900
0!
04
0A
#12950
1!
14
1A
0j
0i
1h
0:!
1;!
1<!
1B
#13000
0!
04
0A
#13050
1!
14
1A
1j
0<!
0B
1D
1J
06!
1p
0D
0E
05!
1<
0K
1L
13
1(
#13100
0!
04
0A
#13150
1!
14
1A
0j
0h
1:!
1<!
0J
16!
1B
0<
03
0(
#13200
0!
04
0A
#13250
1!
14
1A
1j
0<!
0B
1D
#13300
0!
04
0A
#13350
1!
14
1A
0j
1i
0;!
1<!
1B
#13400
0!
04
0A
#13450
1!
14
1A
1j
0<!
0B
0D
1E
#13500
0!
04
0A
#13550
1!
14
1A
0j
0i
1h
0:!
1;!
1<!
1B
#13600
0!
04
0A
#13650
1!
14
1A
1j
0<!
0B
1D
1J
06!
0p
1o
0D
0E
04!
15!
1<
1K
13
1(
#13700
0!
04
0A
#13750
1!
14
1A
0j
0h
1:!
1<!
0J
16!
1B
0<
03
0(
#13800
0!
04
0A
#13850
1!
14
1A
1j
0<!
0B
1D
#13900
0!
04
0A
#13950
1!
14
1A
0j
1i
0;!
1<!
1B
#14000
0!
04
0A
#14050
1!
14
1A
1j
0<!
0B
0D
1E
#14100
0!
04
0A
#14150
1!
14
1A
0j
0i
1h
0:!
1;!
1<!
1B
#14200
0!
04
0A
#14250
1!
14
1A
1j
0<!
0B
1D
1J
06!
1p
0D
0E
05!
1<
0K
0L
1M
13
1(
#14300
0!
04
0A
#14350
1!
14
1A
0j
0h
1:!
1<!
0J
16!
1B
0<
03
0(
#14400
0!
04
0A
#14450
1!
14
1A
1j
0<!
0B
1D
#14500
0!
04
0A
#14550
1!
14
1A
0j
1i
0;!
1<!
1B
#14600
0!
04
0A
#14650
1!
14
1A
1j
0<!
0B
0D
1E
#14700
0!
04
0A
#14750
1!
14
1A
0j
0i
1h
0:!
1;!
1<!
1B
#14800
0!
04
0A
#14850
1!
14
1A
1j
0<!
0B
1D
1J
06!
0p
0o
1n
0D
0E
03!
14!
15!
1<
1K
13
1(
#14900
0!
04
0A
#14950
1!
14
1A
0j
0h
1:!
1<!
0J
16!
1B
0<
03
0(
#15000
0!
04
0A
#15050
1!
14
1A
1j
0<!
0B
1D
#15100
0!
04
0A
#15150
1!
14
1A
0j
1i
0;!
1<!
1B
#15200
0!
04
0A
#15250
1!
14
1A
1j
0<!
0B
0D
1E
#15300
0!
04
0A
#15350
1!
14
1A
0j
0i
1h
0:!
1;!
1<!
1B
#15400
0!
04
0A
#15450
1!
14
1A
1j
0<!
0B
1D
1J
06!
1p
0D
0E
05!
1<
0K
1L
13
1(
#15500
0!
04
0A
#15550
1!
14
1A
0j
0h
1:!
1<!
0J
16!
1B
0<
03
0(
#15600
0!
04
0A
#15650
1!
14
1A
1j
0<!
0B
1D
#15700
0!
04
0A
#15750
1!
14
1A
0j
1i
0;!
1<!
1B
#15800
0!
04
0A
#15850
1!
14
1A
1j
0<!
0B
0D
1E
#15900
0!
04
0A
#15950
1!
14
1A
0j
0i
1h
0:!
1;!
1<!
1B
#16000
0!
04
0A
#16050
1!
14
1A
1j
0<!
0B
1D
1J
06!
0p
1o
0D
0E
04!
15!
1<
1K
1R
0/!
13
0v
0u
1t
1(
0K
0L
0M
0,!
1-!
1.!
1=
1S
16
1'
#16100
0!
04
0A
#16150
1!
14
1A
0j
0h
1:!
1<!
0J
16!
1B
0<
03
0(
#16200
0!
04
0A
#16250
1!
14
1A
1j
0<!
0B
1D
#16300
0!
04
0A
#16350
1!
14
1A
0j
1i
0;!
1<!
1B
#16400
0!
04
0A
#16450
1!
14
1A
1j
0<!
0B
0D
1E
#16500
0!
04
0A
#16550
1!
14
1A
0j
0i
1h
0:!
1;!
1<!
1B
#16600
0!
04
0A
#16650
1!
14
1A
1j
0<!
0B
1D
1J
06!
0o
0n
0D
0E
13!
14!
1<
0R
1/!
13
1(
1K
0=
06
0'
#16700
0!
04
0A
#16750
1!
14
1A
0j
0h
1:!
1<!
0J
16!
1B
0<
03
0(
#16800
0!
04
0A
#16850
1!
14
1A
1j
0<!
0B
1D
#16900
0!
04
0A
#16950
1!
14
1A
0j
1i
0;!
1<!
1B
#17000
0!
04
0A
#17050
1!
14
1A
1j
0<!
0B
0D
1E
#17100
0!
04
0A
#17150
1!
14
1A
0j
0i
1h
0:!
1;!
1<!
1B
#17200
0!
04
0A
#17250
1!
14
1A
1j
0<!
0B
1D
1J
06!
1p
0D
0E
05!
1<
0K
1L
13
1(
#17300
0!
04
0A
#17350
1!
14
1A
0j
0h
1:!
1<!
0J
16!
1B
0<
03
0(
#17400
0!
04
0A
#17450
1!
14
1A
1j
0<!
0B
1D
#17500
0!
04
0A
#17550
1!
14
1A
0j
1i
0;!
1<!
1B
#17600
0!
04
0A
#17650
1!
14
1A
1j
0<!
0B
0D
1E
#17700
0!
04
0A
#17750
1!
14
1A
0j
0i
1h
0:!
1;!
1<!
1B
#17800
0!
04
0A
#17850
1!
14
1A
1j
0<!
0B
1D
1J
06!
0p
1o
0D
0E
04!
15!
1<
1K
13
1(
#17900
0!
04
0A
#17950
1!
14
1A
0j
0h
1:!
1<!
0J
16!
1B
0<
03
0(
#18000
0!
04
0A
#18050
1!
14
1A
1j
0<!
0B
1D
#18100
0!
04
0A
#18150
1!
14
1A
0j
1i
0;!
1<!
1B
#18200
0!
04
0A
#18250
1!
14
1A
1j
0<!
0B
0D
1E
#18300
0!
04
0A
#18350
1!
14
1A
0j
0i
1h
0:!
1;!
1<!
1B
#18400
0!
04
0A
#18450
1!
14
1A
1j
0<!
0B
1D
1J
06!
1p
0D
0E
05!
1<
0K
0L
1M
13
1(
#18500
0!
04
0A
#18550
1!
14
1A
0j
0h
1:!
1<!
0J
16!
1B
0<
03
0(
#18600
0!
04
0A
#18650
1!
14
1A
1j
0<!
0B
1D
#18700
0!
04
0A
#18750
1!
14
1A
0j
1i
0;!
1<!
1B
#18800
0!
04
0A
#18850
1!
14
1A
1j
0<!
0B
0D
1E
#18900
0!
04
0A
#18950
1!
14
1A
0j
0i
1h
0:!
1;!
1<!
1B
#19000
0!
04
0A
#19050
1!
14
1A
1j
0<!
0B
1D
1J
06!
0p
0o
1n
0D
0E
03!
14!
15!
1<
1K
13
1(
#19100
0!
04
0A
#19150
1!
14
1A
0j
0h
1:!
1<!
0J
16!
1B
0<
03
0(
#19200
0!
04
0A
#19250
1!
14
1A
1j
0<!
0B
1D
#19300
0!
04
0A
#19350
1!
14
1A
0j
1i
0;!
1<!
1B
#19400
0!
04
0A
#19450
1!
14
1A
1j
0<!
0B
0D
1E
#19500
0!
04
0A
#19550
1!
14
1A
0j
0i
1h
0:!
1;!
1<!
1B
#19600
0!
04
0A
#19650
1!
14
1A
1j
0<!
0B
1D
1J
06!
1p
0D
0E
05!
1<
0K
1L
13
1(
#19700
0!
04
0A
#19750
1!
14
1A
0j
0h
1:!
1<!
0J
16!
1B
0<
03
0(
#19800
0!
04
0A
#19850
1!
14
1A
1j
0<!
0B
1D
#19900
0!
04
0A
#19950
1!
14
1A
0j
1i
0;!
1<!
1B
#20000
0!
04
0A
#20050
1!
14
1A
1j
0<!
0B
0D
1E
#20100
0!
04
0A
#20150
1!
14
1A
0j
0i
1h
0:!
1;!
1<!
1B
#20200
0!
04
0A
#20250
1!
14
1A
1j
0<!
0B
1D
1J
06!
0p
1o
0D
0E
04!
15!
1<
1K
1R
0/!
13
1v
1(
0K
0L
0M
0.!
1=
0S
1T
16
1'
#20300
0!
04
0A
#20350
1!
14
1A
0j
0h
1:!
1<!
0J
16!
1B
0<
03
0(
#20400
0!
04
0A
#20450
1!
14
1A
1j
0<!
0B
1D
#20500
0!
04
0A
#20550
1!
14
1A
0j
1i
0;!
1<!
1B
#20600
0!
04
0A
#20650
1!
14
1A
1j
0<!
0B
0D
1E
#20700
0!
04
0A
#20750
1!
14
1A
0j
0i
1h
0:!
1;!
1<!
1B
#20800
0!
04
0A
#20850
1!
14
1A
1j
0<!
0B
1D
1J
06!
0o
0n
0D
0E
13!
14!
1<
0R
1/!
13
1(
1K
0=
06
0'
#20900
0!
04
0A
#20950
1!
14
1A
0j
0h
1:!
1<!
0J
16!
1B
0<
03
0(
#21000
0!
04
0A
#21050
1!
14
1A
1j
0<!
0B
1D
#21100
0!
04
0A
#21150
1!
14
1A
0j
1i
0;!
1<!
1B
#21200
0!
04
0A
#21250
1!
14
1A
1j
0<!
0B
0D
1E
#21300
0!
04
0A
#21350
1!
14
1A
0j
0i
1h
0:!
1;!
1<!
1B
#21400
0!
04
0A
#21450
1!
14
1A
1j
0<!
0B
1D
1J
06!
1p
0D
0E
05!
1<
0K
1L
13
1(
#21500
0!
04
0A
#21550
1!
14
1A
0j
0h
1:!
1<!
0J
16!
1B
0<
03
0(
#21600
0!
04
0A
#21650
1!
14
1A
1j
0<!
0B
1D
#21700
0!
04
0A
#21750
1!
14
1A
0j
1i
0;!
1<!
1B
#21800
0!
04
0A
#21850
1!
14
1A
1j
0<!
0B
0D
1E
#21900
0!
04
0A
#21950
1!
14
1A
0j
0i
1h
0:!
1;!
1<!
1B
#22000
0!
04
0A
#22050
1!
14
1A
1j
0<!
0B
1D
1J
06!
0p
1o
0D
0E
04!
15!
1<
1K
13
1(
#22100
0!
04
0A
#22150
1!
14
1A
0j
0h
1:!
1<!
0J
16!
1B
0<
03
0(
#22200
0!
04
0A
