DigLab/P2/contador/simulation/qsim/contador.msim.vcd
$comment
	File created using the following command:
		vcd file contador.msim.vcd -direction
$end
$date
	Thu Jul 23 17:55:03 2020
$end
$version
	ModelSim Version 10.5b
$end
$timescale
	1ps
$end

$scope module contador_vhd_vec_tst $end
$var wire 1 ! clock $end
$var wire 1 " out2k $end
$var wire 1 # out20 $end
$var wire 1 $ out20k $end
$var wire 1 % out200 $end

$scope module i1 $end
$var wire 1 & gnd $end
$var wire 1 ' vcc $end
$var wire 1 ( unknown $end
$var wire 1 ) devoe $end
$var wire 1 * devclrn $end
$var wire 1 + devpor $end
$var wire 1 , ww_devoe $end
$var wire 1 - ww_devclrn $end
$var wire 1 . ww_devpor $end
$var wire 1 / ww_clock $end
$var wire 1 0 ww_out20 $end
$var wire 1 1 ww_out200 $end
$var wire 1 2 ww_out2k $end
$var wire 1 3 ww_out20k $end
$var wire 1 4 \out20~output_o\ $end
$var wire 1 5 \out200~output_o\ $end
$var wire 1 6 \out2k~output_o\ $end
$var wire 1 7 \out20k~output_o\ $end
$var wire 1 8 \clock~input_o\ $end
$var wire 1 9 \Add0~17_sumout\ $end
$var wire 1 : \cont20[0]~0_combout\ $end
$var wire 1 ; \Add0~18\ $end
$var wire 1 < \Add0~21_sumout\ $end
$var wire 1 = \Equal0~0_combout\ $end
$var wire 1 > \Equal0~1_combout\ $end
$var wire 1 ? \Equal0~2_combout\ $end
$var wire 1 @ \Add0~22\ $end
$var wire 1 A \Add0~13_sumout\ $end
$var wire 1 B \Add0~14\ $end
$var wire 1 C \Add0~9_sumout\ $end
$var wire 1 D \Add0~10\ $end
$var wire 1 E \Add0~5_sumout\ $end
$var wire 1 F \Add0~6\ $end
$var wire 1 G \Add0~37_sumout\ $end
$var wire 1 H \Add0~38\ $end
$var wire 1 I \Add0~33_sumout\ $end
$var wire 1 J \Add0~34\ $end
$var wire 1 K \Add0~29_sumout\ $end
$var wire 1 L \Add0~30\ $end
$var wire 1 M \Add0~25_sumout\ $end
$var wire 1 N \Add0~26\ $end
$var wire 1 O \Add0~1_sumout\ $end
$var wire 1 P \LessThan0~0_combout\ $end
$var wire 1 Q \LessThan0~1_combout\ $end
$var wire 1 R \Add1~25_sumout\ $end
$var wire 1 S \cont200[0]~3_combout\ $end
$var wire 1 T \Add1~26\ $end
$var wire 1 U \Add1~21_sumout\ $end
$var wire 1 V \Add1~22\ $end
$var wire 1 W \Add1~18\ $end
$var wire 1 X \Add1~13_sumout\ $end
$var wire 1 Y \Add1~14\ $end
$var wire 1 Z \Add1~9_sumout\ $end
$var wire 1 [ \Add1~10\ $end
$var wire 1 \ \Add1~5_sumout\ $end
$var wire 1 ] \cont200~1_combout\ $end
$var wire 1 ^ \Equal1~0_combout\ $end
$var wire 1 _ \Add1~17_sumout\ $end
$var wire 1 ` \cont200~2_combout\ $end
$var wire 1 a \Add1~6\ $end
$var wire 1 b \Add1~1_sumout\ $end
$var wire 1 c \cont200~0_combout\ $end
$var wire 1 d \LessThan1~0_combout\ $end
$var wire 1 e \LessThan1~1_combout\ $end
$var wire 1 f \cont20k[0]~2_combout\ $end
$var wire 1 g \cont2k~2_combout\ $end
$var wire 1 h \cont2k[2]~1_combout\ $end
$var wire 1 i \cont2k~0_combout\ $end
$var wire 1 j \LessThan2~0_combout\ $end
$var wire 1 k \cont20k~0_combout\ $end
$var wire 1 l \Equal3~0_combout\ $end
$var wire 1 m cont20 [9] $end
$var wire 1 n cont20 [8] $end
$var wire 1 o cont20 [7] $end
$var wire 1 p cont20 [6] $end
$var wire 1 q cont20 [5] $end
$var wire 1 r cont20 [4] $end
$var wire 1 s cont20 [3] $end
$var wire 1 t cont20 [2] $end
$var wire 1 u cont20 [1] $end
$var wire 1 v cont20 [0] $end
$var wire 1 w cont200 [6] $end
$var wire 1 x cont200 [5] $end
$var wire 1 y cont200 [4] $end
$var wire 1 z cont200 [3] $end
$var wire 1 { cont200 [2] $end
$var wire 1 | cont200 [1] $end
$var wire 1 } cont200 [0] $end
$var wire 1 ~ cont2k [3] $end
$var wire 1 !! cont2k [2] $end
$var wire 1 "! cont2k [1] $end
$var wire 1 #! cont2k [0] $end
$var wire 1 $! cont20k [1] $end
$var wire 1 %! cont20k [0] $end
$var wire 1 &! \ALT_INV_Equal1~0_combout\ $end
$var wire 1 '! \ALT_INV_Equal0~1_combout\ $end
$var wire 1 (! ALT_INV_cont20k [1] $end
$var wire 1 )! ALT_INV_cont20k [0] $end
$var wire 1 *! \ALT_INV_LessThan2~0_combout\ $end
$var wire 1 +! ALT_INV_cont2k [3] $end
$var wire 1 ,! ALT_INV_cont2k [2] $end
$var wire 1 -! ALT_INV_cont2k [1] $end
$var wire 1 .! \ALT_INV_LessThan1~1_combout\ $end
$var wire 1 /! \ALT_INV_LessThan1~0_combout\ $end
$var wire 1 0! ALT_INV_cont200 [6] $end
$var wire 1 1! ALT_INV_cont200 [5] $end
$var wire 1 2! ALT_INV_cont200 [4] $end
$var wire 1 3! ALT_INV_cont200 [3] $end
$var wire 1 4! ALT_INV_cont200 [2] $end
$var wire 1 5! ALT_INV_cont200 [1] $end
$var wire 1 6! ALT_INV_cont200 [0] $end
$var wire 1 7! \ALT_INV_LessThan0~1_combout\ $end
$var wire 1 8! \ALT_INV_Equal0~0_combout\ $end
$var wire 1 9! \ALT_INV_LessThan0~0_combout\ $end
$var wire 1 :! ALT_INV_cont20 [9] $end
$var wire 1 ;! ALT_INV_cont20 [8] $end
$var wire 1 <! ALT_INV_cont20 [7] $end
$var wire 1 =! ALT_INV_cont20 [6] $end
$var wire 1 >! ALT_INV_cont20 [5] $end
$var wire 1 ?! ALT_INV_cont20 [4] $end
$var wire 1 @! ALT_INV_cont20 [3] $end
$var wire 1 A! ALT_INV_cont20 [2] $end
$var wire 1 B! ALT_INV_cont20 [1] $end
$var wire 1 C! ALT_INV_cont20 [0] $end
$var wire 1 D! \ALT_INV_Add1~25_sumout\ $end
$var wire 1 E! \ALT_INV_Add1~17_sumout\ $end
$var wire 1 F! \ALT_INV_Add1~5_sumout\ $end
$var wire 1 G! \ALT_INV_Add1~1_sumout\ $end
$var wire 1 H! \ALT_INV_Add0~17_sumout\ $end
$upscope $end
$upscope $end
$enddefinitions $end
#0
$dumpvars
0!
0"
0#
0$
0%
0&
1'
x(
1)
1*
1+
1,
1-
1.
0/
00
01
02
03
04
05
06
07
08
09
1:
1;
1<
0=
0>
0?
0@
0A
0B
0C
0D
0E
0F
0G
0H
0I
0J
0K
0L
0M
0N
0O
1P
1Q
0R
1S
1T
1U
0V
0W
0X
0Y
0Z
0[
0\
0]
0^
0_
0`
0a
0b
0c
1d
1e
1f
1g
0h
0i
1j
1k
0l
1&!
1'!
0*!
0.!
0/!
07!
18!
09!
1D!
1E!
1F!
1G!
1H!
0m
0n
0o
0p
0q
0r
0s
0t
0u
0v
0w
0x
0y
0z
0{
0|
0}
0~
0!!
0"!
x#!
0$!
0%!
1(!
1)!
1+!
1,!
1-!
10!
11!
12!
13!
14!
15!
16!
1:!
1;!
1<!
1=!
1>!
1?!
1@!
1A!
1B!
1C!
$end
#500
1!
1/
18
1v
1u
1}
1|
1%!
1"!
1$!
0(!
0-!
0)!
05!
06!
0B!
0C!
19
0;
0<
1@
1R
0T
0U
1V
0f
0k
1l
0D!
0H!
1_
1U
0V
1A
1<
0@
0:
0S
0E!
0A
0_
17
1`
1E!
13
0`
1$
#1000
0!
0/
08
#1500
1!
1/
18
0v
0}
0%!
0$!
1(!
1)!
16!
1C!
09
1;
0R
1T
0d
1f
0g
1h
1k
0l
1/!
1D!
1H!
0U
1V
0<
1@
1:
1S
1A
1_
07
0E!
03
1`
0$
#2000
0!
0/
08
#2500
1!
1/
18
1v
0u
1t
1}
0|
1{
1%!
0"!
1!!
1$!
0(!
0,!
1-!
0)!
04!
15!
06!
0A!
1B!
0C!
19
0;
1<
0@
0A
1B
1R
0T
1U
0V
0_
1W
0f
0k
1l
1E!
0D!
0H!
1X
1_
0W
0U
1C
1A
0B
0<
0:
0S
0`
0E!
0C
0X
17
1`
13
1$
#3000
0!
0/
08
#3500
1!
1/
18
0v
0}
0%!
0$!
1(!
1)!
16!
1C!
09
1;
0P
0R
1T
1f
1g
1k
0l
1D!
19!
1H!
1U
1<
1:
1S
07
03
0$
#4000
0!
0/
08
#4500
1!
1/
18
1v
1u
1}
1|
1%!
1"!
1$!
0(!
0-!
0)!
05!
06!
0B!
0C!
19
0;
0<
1@
1R
0T
0U
1V
0f
0j
0k
1l
1*!
0D!
0H!
0_
1W
1U
0V
0A
1B
1<
0@
0:
0S
1E!
1A
0B
1C
1_
0W
1X
17
0`
0E!
16
0X
0C
13
1`
12
1$
1"
#5000
0!
0/
08
#5500
1!
1/
18
0v
0}
0%!
0$!
1(!
1)!
16!
1C!
09
1;
0R
1T
1f
0g
0h
1i
1k
0l
1D!
1H!
0U
1V
0<
1@
1:
1S
0A
1B
0_
1W
07
1E!
1X
1C
03
0`
0$
#6000
0!
0/
08
#6500
1!
1/
18
1v
0u
0t
1s
1}
0|
1z
0{
1%!
0"!
0!!
1~
1$!
0(!
0+!
1,!
1-!
0)!
14!
03!
15!
06!
0@!
1A!
1B!
0C!
19
0;
1<
0@
1A
0B
0C
1D
1R
0T
1U
0V
0X
1Y
1_
0W
0f
0k
1l
0E!
0D!
0H!
1X
0Y
1Z
0_
0U
1E
1C
0D
0A
0<
0:
0S
1`
1E!
0E
0Z
17
0`
13
1$
#7000
0!
0/
08
#7500
1!
1/
18
0v
0}
0%!
0$!
1(!
1)!
16!
1C!
09
1;
0R
1T
1f
1g
1k
0l
1D!
1H!
1U
1<
1:
1S
07
03
0$
#8000
0!
0/
08
#8500
1!
1/
18
1v
1u
1}
1|
1%!
1"!
1$!
0(!
0-!
0)!
05!
06!
0B!
0C!
19
0;
0<
1@
1R
0T
0U
1V
0f
0g
0i
0k
1l
0D!
0H!
1_
1U
0V
1A
1<
0@
0:
0S
0E!
0A
0_
17
1`
1E!
13
0`
1$
#9000
0!
0/
08
#9500
1!
1/
18
0v
0}
0%!
0"!
0~
0$!
1(!
1+!
1-!
1)!
16!
1C!
09
1;
0R
1T
1f
1g
1j
1k
0l
0*!
1D!
1H!
0U
1V
0<
1@
1:
1S
1A
1_
07
0E!
06
03
1`
02
0$
0"
#10000
0!
0/
08
#10500
1!
1/
18
1v
0u
1t
1}
0|
1{
1%!
1"!
1$!
0(!
0-!
0)!
04!
15!
06!
0A!
1B!
0C!
19
0;
1<
0@
0A
1B
1R
0T
1U
0V
0_
1W
0f
0k
1l
1E!
0D!
0H!
0X
1Y
1_
0W
0U
0C
1D
1A
0B
0<
0:
0S
0`
0E!
1C
0D
1E
1X
0Y
1Z
17
1`
0Z
0E
13
1$
#11000
0!
0/
08
#11500
1!
1/
18
0v
0}
0%!
0$!
1(!
1)!
16!
1C!
09
1;
0R
1T
1f
0g
1h
1k
0l
1D!
1H!
1U
1<
1:
1S
07
03
0$
#12000
0!
0/
08
#12500
1!
1/
18
1v
1u
1}
1|
1%!
0"!
1!!
1$!
0(!
0,!
1-!
0)!
05!
06!
0B!
0C!
19
0;
0<
1@
1R
0T
0U
1V
0f
0k
1l
0D!
0H!
0_
1W
1U
0V
0A
1B
1<
0@
0:
0S
1E!
1A
0B
0C
1D
1_
0W
0X
1Y
17
0`
0E!
1Z
1X
0Y
1E
1C
0D
13
1`
1$
0E
0Z
#13000
0!
0/
08
#13500
1!
1/
18
0v
0}
0%!
0$!
1(!
1)!
16!
1C!
09
1;
0R
1T
1f
1g
1k
0l
1D!
1H!
0U
1V
0<
1@
1:
1S
0A
1B
0_
1W
07
1E!
0X
1Y
0C
1D
03
0`
0$
1E
1Z
#14000
0!
0/
08
#14500
1!
1/
18
1v
0u
0t
0s
1r
1}
0|
0z
1y
0{
1%!
1"!
1$!
0(!
0-!
0)!
14!
02!
13!
15!
06!
0?!
1@!
1A!
1B!
0C!
19
0;
1<
0@
1A
0B
1C
0D
1P
0E
1F
1R
0T
1U
0V
1X
0Y
0Z
1[
1_
0W
1d
0f
0j
0k
1l
1*!
0/!
0E!
0D!
09!
0H!
0X
1\
1Z
0[
0_
0U
1G
1E
0F
0C
0A
0<
0:
0S
1`
1E!
0F!
0G
0\
17
1]
0`
1F!
16
13
0]
12
1$
1"
#15000
0!
0/
08
#15500
1!
1/
18
0v
0}
0%!
0$!
1(!
1)!
16!
1C!
09
1;
0R
1T
1f
0g
0h
1i
1k
0l
1D!
1H!
1U
1<
1:
1S
07
03
0$
#16000
0!
0/
08
#16500
1!
1/
18
1v
1u
1}
1|
1%!
0"!
0!!
1~
1$!
0(!
0+!
1,!
1-!
0)!
05!
06!
0B!
0C!
19
0;
0<
1@
1R
0T
0U
1V
0f
0k
1l
0D!
0H!
1_
1U
0V
1A
1<
0@
0:
0S
0E!
0A
0_
17
1`
1E!
13
0`
1$
#17000
0!
0/
08
#17500
1!
1/
18
0v
0}
0%!
0$!
1(!
1)!
16!
1C!
09
1;
0R
1T
0d
1f
1g
1k
0l
1/!
1D!
1H!
0U
1V
0<
1@
1:
1S
1A
1_
07
0E!
03
1`
0$
#18000
0!
0/
08
#18500
1!
1/
18
1v
0u
1t
1}
0|
1{
1%!
1"!
1$!
0(!
0-!
0)!
04!
15!
06!
0A!
1B!
0C!
19
0;
1<
0@
0A
1B
1R
0T
1U
0V
0_
1W
0f
0g
0i
0k
1l
1E!
0D!
0H!
1X
1_
0W
0U
1C
1A
0B
0<
0:
0S
0`
0E!
0C
0X
17
1`
13
1$
#19000
0!
0/
08
#19500
1!
1/
18
0v
0}
0%!
0"!
0~
0$!
1(!
1+!
1-!
1)!
16!
1C!
09
1;
0P
0R
1T
1f
1g
1j
1k
0l
0*!
1D!
19!
1H!
1U
1<
1:
1S
07
06
03
02
0$
0"
#20000
0!
0/
08
#20500
1!
1/
18
1v
1u
1}
1|
1%!
1"!
1$!
0(!
0-!
0)!
05!
06!
0B!
0C!
19
0;
0<
1@
1R
0T
0U
1V
0f
0k
1l
0D!
0H!
0_
1W
1U
0V
0A
1B
1<
0@
0:
0S
1E!
1A
0B
1C
1_
0W
1X
17
0`
0E!
0X
0C
13
1`
1$
#21000
0!
0/
08
#21500
1!
1/
18
0v
0}
0%!
0$!
1(!
1)!
16!
1C!
09
1;
0R
1T
1f
0g
1h
1k
0l
1D!
1H!
0U
1V
0<
1@
1:
1S
0A
1B
0_
1W
07
1E!
1X
1C
03
0`
0$
#22000
0!
0/
08
#22500
1!
1/
18
1v
0u
0t
1s
1}
0|
1z
0{
1%!
0"!
1!!
1$!
0(!
0,!
1-!
0)!
14!
03!
15!
06!
0@!
1A!
1B!
0C!
19
0;
1<
0@
1A
0B
0C
1D
1R
0T
1U
0V
0X
1Y
1_
0W
0f
0k
1l
0E!
0D!
0H!
1X
0Y
0Z
1[
0_
0U
0E
1F
1C
0D
0A
0<
0:
0S
1`
1E!
1E
0F
1G
1\
1Z
0[
17
0`
0F!
0\
0G
13
1]
1F!
1$
0]
#23000
0!
0/
08
#23500
1!
1/
18
0v
0}
0%!
0$!
1(!
1)!
16!
1C!
09
1;
0R
1T
1f
1g
1k
0l
1D!
1H!
1U
1<
1:
1S
07
03
0$
#24000
0!
0/
08
#24500
1!
1/
18
1v
1u
1}
1|
1%!
1"!
1$!
0(!
0-!
0)!
05!
06!
0B!
0C!
19
0;
0<
1@
1R
0T
0U
1V
0f
0j
0k
1l
1*!
0D!
0H!
1_
1U
0V
1A
1<
0@
0:
0S
0E!
0A
0_
17
1`
1E!
16
13
0`
12
1$
1"
#25000
0!
0/
08
#25500
1!
1/
18
0v
0}
0%!
0$!
1(!
1)!
16!
1C!
09
1;
0R
1T
1f
0g
0h
1i
1k
0l
1D!
1H!
0U
1V
0<
1@
1:
1S
1A
1_
07
0E!
03
1`
0$
#26000
0!
0/
08
#26500
1!
1/
18
1v
0u
1t
1}
0|
1{
1%!
0"!
0!!
1~
1$!
0(!
0+!
1,!
1-!
0)!
04!
15!
06!
0A!
1B!
0C!
19
0;
1<
0@
0A
1B
1R
0T
1U
0V
0_
1W
0f
0k
1l
1E!
0D!
0H!
0X
1Y
1_
0W
0U
0C
1D
1A
0B
0<
0:
0S
0`
0E!
1C
0D
0E
1F
1X
0Y
0Z
1[
17
1`
1\
1Z
0[
1G
1E
0F
13
0F!
1$
0G
0\
1]
1F!
0]
#27000
0!
0/
08
#27500
1!
1/
18
0v
0}
0%!
0$!
1(!
1)!
16!
1C!
09
1;
0R
1T
1f
1g
1k
0l
1D!
1H!
1U
1<
1:
1S
07
03
0$
#28000
0!
0/
08
#28500
1!
1/
18
1v
1u
1}
1|
1%!
1"!
1$!
0(!
0-!
0)!
05!
06!
0B!
0C!
19
0;
0<
1@
1R
0T
0U
1V
0f
0g
0i
0k
1l
0D!
0H!
0_
1W
1U
0V
0A
1B
1<
0@
0:
0S
1E!
1A
0B
0C
1D
1_
0W
0X
1Y
17
0`
0E!
0Z
1[
1X
0Y
0E
1F
1C
0D
13
1`
1$
1E
0F
1G
1Z
0[
1\
0F!
0\
0G
1]
1F!
0]
#29000
0!
0/
08
#29500
1!
1/
18
0v
0}
0%!
0"!
0~
0$!
1(!
1+!
1-!
1)!
16!
1C!
09
1;
0R
1T
1f
1g
1j
1k
0l
0*!
1D!
1H!
0U
1V
0<
1@
1:
1S
0A
1B
0_
1W
07
1E!
06
0X
1Y
0C
1D
03
0`
02
0$
0E
1F
0Z
1[
0"
1\
1G
0F!
1]
#30000
0!
0/
08
#30500
1!
1/
18
1v
0u
0t
0s
0r
1q
1}
0|
0z
0y
1x
0{
1%!
1"!
1$!
0(!
0-!
0)!
14!
01!
12!
13!
15!
06!
0>!
1?!
1@!
1A!
1B!
0C!
19
0;
1<
0@
1A
0B
1C
0D
1P
1E
0F
0G
1H
1R
0T
1U
0V
1X
0Y
1Z
0[
0\
1a
1_
0W
1d
0f
0k
1l
0/!
0E!
1F!
0D!
09!
0H!
0X
1b
1\
0a
0Z
0_
0U
1I
1G
0H
0E
0C
0A
0<
0:
0S
0]
1`
1E!
0F!
0G!
0I
0b
17
1c
1]
0`
1G!
13
0c
1$
#31000
0!
0/
08
#31500
1!
1/
18
0v
0}
0%!
0$!
1(!
1)!
16!
1C!
09
1;
0R
1T
1f
0g
1h
1k
0l
1D!
1H!
1U
1<
1:
1S
07
03
0$
#32000
0!
0/
08
#32500
1!
1/
18
1v
1u
1}
1|
1%!
0"!
1!!
1$!
0(!
0,!
1-!
0)!
05!
06!
0B!
0C!
19
0;
0<
1@
1R
0T
0U
1V
0f
0k
1l
0D!
0H!
1_
1U
0V
1A
1<
0@
0:
0S
0E!
0A
0_
17
1`
1E!
13
0`
1$
#33000
0!
0/
08
#33500
1!
1/
18
0v
0}
0%!
0$!
1(!
1)!
16!
1C!
09
1;
0R
1T
0d
1f
1g
1k
0l
1/!
1D!
1H!
0U
1V
0<
1@
1:
1S
1A
1_
07
0E!
03
1`
0$
#34000
0!
0/
08
#34500
1!
1/
18
1v
0u
1t
1}
0|
1{
1%!
1"!
1$!
0(!
0-!
0)!
04!
15!
06!
0A!
1B!
0C!
19
0;
1<
0@
0A
1B
1R
0T
1U
0V
0_
1W
0f
0j
0k
1l
1*!
1E!
0D!
0H!
1X
1_
0W
0U
1C
1A
0B
0<
0:
0S
0`
0E!
0C
0X
17
1`
16
13
12
1$
1"
#35000
0!
0/
08
#35500
1!
1/
18
0v
0}
0%!
0$!
1(!
1)!
16!
1C!
09
1;
0P
0R
1T
1f
0g
0h
1i
1k
0l
1D!
19!
1H!
1U
1<
1:
1S
07
03
0$
#36000
0!
0/
08
#36500
1!
1/
18
1v
1u
1}
1|
1%!
0"!
0!!
1~
1$!
0(!
0+!
1,!
1-!
0)!
05!
06!
0B!
0C!
19
0;
0<
1@
1R
0T
0U
1V
0f
0k
1l
0D!
0H!
0_
1W
1U
0V
0A
1B
1<
0@
0:
0S
1E!
1A
0B
1C
1_
0W
1X
17
0`
0E!
0X
0C
13
1`
1$
#37000
0!
0/
08
#37500
1!
1/
18
0v
0}
0%!
0$!
1(!
1)!
16!
1C!
09
1;
0R
1T
1f
1g
1k
0l
1D!
1H!
0U
1V
0<
1@
1:
1S
0A
1B
0_
1W
07
1E!
1X
1C
03
0`
0$
#38000
0!
0/
08
#38500
1!
1/
18
1v
0u
0t
1s
1}
0|
1z
0{
1%!
1"!
1$!
0(!
0-!
0)!
14!
03!
15!
06!
0@!
1A!
1B!
0C!
19
0;
1<
0@
1A
0B
0C
1D
1R
0T
1U
0V
0X
1Y
1_
0W
0f
0g
0i
0k
1l
0E!
0D!
0H!
1X
0Y
1Z
0_
0U
1E
1C
0D
0A
0<
0:
0S
1`
1E!
0E
0Z
17
0`
13
1$
#39000
0!
0/
08
#39500
1!
1/
18
0v
0}
0%!
0"!
0~
0$!
1(!
1+!
1-!
1)!
16!
1C!
09
1;
0R
1T
1f
1g
1j
1k
0l
0*!
1D!
1H!
1U
1<
1:
1S
07
06
03
02
0$
0"
#40000
0!
0/
08
#40500
1!
1/
18
1v
1u
1}
1|
1%!
1"!
1$!
0(!
0-!
0)!
05!
06!
0B!
0C!
19
0;
0<
1@
1R
0T
0U
1V
0f
0k
1l
0D!
0H!
1_
1U
0V
1A
1<
0@
0:
0S
0E!
0A
0_
17
1`
1E!
13
0`
1$
#41000
0!
0/
08
#41500
1!
1/
18
0v
0}
0%!
0$!
1(!
1)!
16!
1C!
09
1;
0R
1T
1f
0g
1h
1k
0l
1D!
1H!
0U
1V
0<
1@
1:
1S
1A
1_
07
0E!
03
1`
0$
#42000
0!
0/
08
#42500
1!
1/
18
1v
0u
1t
1}
0|
1{
1%!
0"!
1!!
1$!
0(!
0,!
1-!
0)!
04!
15!
06!
0A!
1B!
0C!
19
0;
1<
0@
0A
1B
1R
0T
1U
0V
0_
1W
0f
0k
1l
1E!
0D!
0H!
0X
1Y
1_
0W
0U
0C
1D
1A
0B
0<
0:
0S
0`
0E!
1C
0D
1E
1X
0Y
1Z
17
1`
0Z
0E
13
1$
#43000
0!
0/
08
#43500
1!
1/
18
0v
0}
0%!
0$!
1(!
1)!
16!
1C!
09
1;
0R
1T
1f
1g
1k
0l
1D!
1H!
1U
1<
1:
1S
07
03
0$
#44000
0!
0/
08
#44500
1!
1/
18
1v
1u
1}
1|
1%!
1"!
1$!
0(!
0-!
0)!
05!
06!
0B!
0C!
19
0;
0<
1@
1R
0T
0U
1V
0f
0j
0k
1l
1*!
0D!
0H!
0_
1W
1U
0V
0A
1B
1<
0@
0:
0S
1E!
1A
0B
0C
1D
1_
0W
0X
1Y
17
0`
0E!
16
1Z
1X
0Y
1E
1C
0D
13
1`
12
1$
0E
0Z
1"
#45000
0!
0/
08
#45500
1!
1/
18
0v
0}
0%!
0$!
1(!
1)!
16!
1C!
09
1;
0R
1T
1f
0g
0h
1i
1k
0l
1D!
1H!
0U
1V
0<
1@
1:
1S
0A
1B
0_
1W
07
1E!
0X
1Y
0C
1D
03
0`
0$
1E
1Z
#46000
0!
0/
08
#46500
1!
1/
18
1v
0u
0t
0s
1r
1}
0|
0z
1y
0{
1%!
0"!
0!!
1~
1$!
0(!
0+!
1,!
1-!
0)!
14!
02!
13!
15!
06!
0?!
1@!
1A!
1B!
0C!
19
0;
1<
0@
1A
0B
1C
0D
1P
0E
1F
1R
0T
1U
0V
1X
0Y
0Z
1[
0e
1_
0W
1d
0f
0k
1l
0/!
0E!
1.!
0D!
09!
0H!
0X
0\
1a
1Z
0[
0_
0U
0G
1H
1E
0F
0C
0A
0<
0:
0S
1`
1e
1E!
1F!
1G
0H
1I
1\
0a
1b
0.!
17
0]
0`
0G!
0F!
15
0b
0I
13
1]
1c
1G!
11
1$
1%
05
0c
01
0%
#47000
0!
0/
08
#47500
1!
1/
18
0v
0}
0%!
0$!
1(!
1)!
16!
1C!
09
1;
0R
1T
1f
1g
1k
0l
1D!
1H!
1U
1<
1:
1S
07
03
0$
#48000
0!
0/
08
#48500
1!
1/
18
1v
1u
1}
1|
1%!
1"!
1$!
0(!
0-!
0)!
05!
06!
0B!
0C!
19
0;
0<
1@
1R
0T
0U
1V
0f
0g
0i
0k
1l
0D!
0H!
1_
1U
0V
1A
1<
0@
0:
0S
0E!
0A
0_
17
1`
1E!
13
0`
1$
#49000
0!
0/
08
#49500
1!
1/
18
0v
0}
0%!
0"!
0~
0$!
1(!
1+!
1-!
1)!
16!
1C!
09
1;
0R
1T
0d
1f
1g
1j
1k
0l
0*!
1/!
1D!
1H!
0U
1V
0<
1@
1:
1S
0e
1A
1_
1.!
07
0E!
06
03
1`
02
0$
0"
15
11
1%
#50000
0!
0/
08
#50500
1!
1/
18
1v
0u
1t
1}
0|
1{
1%!
1"!
1$!
0(!
0-!
0)!
04!
15!
06!
0A!
1B!
0C!
19
0;
1<
0@
0A
1B
1R
0T
1U
0V
0_
1W
0f
0k
1l
1E!
0D!
0H!
1X
1_
0W
0U
1C
1A
0B
0<
0:
0S
0`
0E!
0C
0X
17
1`
13
1$
#51000
0!
0/
08
#51500
1!
1/
18
0v
0}
0%!
0$!
1(!
1)!
16!
1C!
09
1;
0P
0R
1T
1f
0g
1h
1k
0l
1D!
19!
1H!
1U
1<
1:
1S
07
03
0$
#52000
0!
0/
08
#52500
1!
1/
18
1v
1u
1}
1|
1%!
0"!
1!!
1$!
0(!
0,!
1-!
0)!
05!
06!
0B!
0C!
19
0;
0<
1@
1R
0T
0U
1V
0f
0k
1l
0D!
0H!
0_
1W
1U
0V
0A
1B
1<
0@
0:
0S
1E!
1A
0B
1C
1_
0W
1X
17
0`
0E!
0X
0C
13
1`
1$
#53000
0!
0/
08
#53500
1!
1/
18
0v
0}
0%!
0$!
1(!
1)!
16!
1C!
09
1;
0R
1T
1f
1g
1k
0l
1D!
1H!
0U
1V
0<
1@
1:
1S
0A
1B
0_
1W
07
1E!
1X
1C
03
0`
0$
#54000
0!
0/
08
#54500
1!
1/
18
1v
0u
0t
1s
1}
0|
1z
0{
1%!
1"!
1$!
0(!
0-!
0)!
14!
03!
15!
06!
0@!
1A!
1B!
0C!
19
0;
1<
0@
1A
0B
0C
1D
1R
0T
1U
0V
0X
1Y
1_
0W
0f
0j
0k
1l
1*!
0E!
0D!
0H!
1X
0Y
0Z
1[
0_
0U
0E
1F
1C
0D
0A
0<
0:
0S
1`
1E!
1E
0F
0G
1H
0\
1a
1Z
0[
17
0`
1F!
16
1\
0a
1b
1I
1G
0H
13
0]
0G!
0F!
12
1$
0I
0b
1"
1]
1c
1G!
0c
#55000
0!
0/
08
#55500
1!
1/
18
0v
0}
0%!
0$!
1(!
1)!
16!
1C!
09
1;
0R
1T
1f
0g
0h
1i
1k
0l
1D!
1H!
1U
1<
1:
1S
07
03
0$
#56000
0!
0/
08
#56500
1!
1/
18
1v
1u
1}
1|
1%!
0"!
0!!
1~
1$!
0(!
0+!
1,!
1-!
0)!
05!
06!
0B!
0C!
19
0;
0<
1@
1R
0T
0U
1V
0f
0k
1l
0D!
0H!
1_
1U
0V
1A
1<
0@
0:
0S
0E!
0A
0_
17
1`
1E!
13
0`
1$
#57000
0!
0/
08
#57500
1!
1/
18
0v
0}
0%!
0$!
1(!
1)!
16!
1C!
09
1;
0R
1T
1f
1g
1k
0l
1D!
1H!
0U
1V
0<
1@
1:
1S
1A
1_
07
0E!
03
1`
0$
#58000
0!
0/
08
#58500
1!
1/
18
1v
0u
1t
1}
0|
1{
1%!
1"!
1$!
0(!
0-!
0)!
04!
15!
06!
0A!
1B!
0C!
19
0;
1<
0@
0A
1B
1R
0T
1U
0V
0_
1W
0f
0g
0i
0k
1l
1E!
0D!
0H!
0X
1Y
1_
0W
0U
0C
1D
1A
0B
0<
0:
0S
0`
0E!
1C
0D
0E
1F
1X
0Y
0Z
1[
17
1`
0\
1a
1Z
0[
0G
1H
1E
0F
13
1F!
1$
1G
0H
1I
1\
0a
1b
0]
0G!
0F!
0b
0I
1]
1c
1G!
0c
#59000
0!
0/
08
#59500
1!
1/
18
0v
0}
0%!
0"!
0~
0$!
1(!
1+!
1-!
1)!
16!
1C!
09
1;
0R
1T
1f
1g
1j
1k
0l
0*!
1D!
1H!
1U
1<
1:
1S
07
06
03
02
0$
0"
#60000
0!
0/
08
#60500
1!
1/
18
1v
1u
1}
1|
1%!
1"!
1$!
0(!
0-!
0)!
05!
06!
0B!
0C!
19
0;
0<
1@
1R
0T
0U
1V
0f
0k
1l
0D!
0H!
0_
1W
1U
0V
0A
1B
1<
0@
0:
0S
1E!
1A
0B
0C
1D
1_
0W
0X
1Y
17
0`
0E!
0Z
1[
1X
0Y
0E
1F
1C
0D
13
1`
1$
1E
0F
0G
1H
1Z
0[
0\
1a
1F!
1b
1\
0a
1I
1G
0H
0]
0F!
0G!
0I
0b
1c
1]
1G!
0c
#61000
0!
0/
08
#61500
1!
1/
18
0v
0}
0%!
0$!
1(!
1)!
16!
1C!
09
1;
0R
1T
1f
0g
1h
1k
0l
1D!
1H!
0U
1V
0<
1@
1:
1S
0A
1B
0_
1W
07
1E!
0X
1Y
0C
1D
03
0`
0$
0E
1F
0Z
1[
0\
1a
0G
1H
1F!
1I
1b
0]
0G!
1c
#62000
0!
0/
08
