DigLab/exp_7/temporizador/simulation/qsim/temporizador.msim.vcd
$comment
	File created using the following command:
		vcd file temporizador.msim.vcd -direction
$end
$date
	Sun May 03 22:45:32 2020
$end
$version
	ModelSim Version 10.5b
$end
$timescale
	1ps
$end

$scope module temporizador_vhd_vec_tst $end
$var wire 1 ! clock $end
$var wire 1 " saida $end
$var wire 1 # trigger_1min $end
$var wire 1 $ trigger_1s $end
$var wire 1 % trigger_5s $end
$var wire 1 & zera $end

$scope module i1 $end
$var wire 1 ' gnd $end
$var wire 1 ( vcc $end
$var wire 1 ) unknown $end
$var wire 1 * devoe $end
$var wire 1 + devclrn $end
$var wire 1 , devpor $end
$var wire 1 - ww_devoe $end
$var wire 1 . ww_devclrn $end
$var wire 1 / ww_devpor $end
$var wire 1 0 ww_clock $end
$var wire 1 1 ww_zera $end
$var wire 1 2 ww_trigger_1s $end
$var wire 1 3 ww_trigger_5s $end
$var wire 1 4 ww_trigger_1min $end
$var wire 1 5 ww_saida $end
$var wire 1 6 \saida~output_o\ $end
$var wire 1 7 \clock~input_o\ $end
$var wire 1 8 \trigger_1min~input_o\ $end
$var wire 1 9 \conta1~5_combout\ $end
$var wire 1 : \zera~input_o\ $end
$var wire 1 ; \conta1~4_combout\ $end
$var wire 1 < \conta1[2]~3_combout\ $end
$var wire 1 = \conta1[3]~2_combout\ $end
$var wire 1 > \conta1~1_combout\ $end
$var wire 1 ? \conta1~0_combout\ $end
$var wire 1 @ \Equal2~0_combout\ $end
$var wire 1 A \conta3[0]~5_combout\ $end
$var wire 1 B \conta3[1]~4_combout\ $end
$var wire 1 C \conta3[2]~3_combout\ $end
$var wire 1 D \conta3[3]~2_combout\ $end
$var wire 1 E \Add1~0_combout\ $end
$var wire 1 F \conta3[4]~1_combout\ $end
$var wire 1 G \conta3[5]~0_combout\ $end
$var wire 1 H \Equal1~0_combout\ $end
$var wire 1 I \trigger_1s~input_o\ $end
$var wire 1 J \trigger_5s~input_o\ $end
$var wire 1 K \conta2[0]~2_combout\ $end
$var wire 1 L \conta2[1]~1_combout\ $end
$var wire 1 M \conta2[2]~0_combout\ $end
$var wire 1 N \flag~0_combout\ $end
$var wire 1 O \flag~1_combout\ $end
$var wire 1 P \flag~q\ $end
$var wire 1 Q conta3 [5] $end
$var wire 1 R conta3 [4] $end
$var wire 1 S conta3 [3] $end
$var wire 1 T conta3 [2] $end
$var wire 1 U conta3 [1] $end
$var wire 1 V conta3 [0] $end
$var wire 1 W conta1 [5] $end
$var wire 1 X conta1 [4] $end
$var wire 1 Y conta1 [3] $end
$var wire 1 Z conta1 [2] $end
$var wire 1 [ conta1 [1] $end
$var wire 1 \ conta1 [0] $end
$var wire 1 ] conta2 [2] $end
$var wire 1 ^ conta2 [1] $end
$var wire 1 _ conta2 [0] $end
$var wire 1 ` ALT_INV_conta3 [5] $end
$var wire 1 a ALT_INV_conta3 [4] $end
$var wire 1 b ALT_INV_conta3 [3] $end
$var wire 1 c ALT_INV_conta3 [2] $end
$var wire 1 d ALT_INV_conta3 [1] $end
$var wire 1 e ALT_INV_conta3 [0] $end
$var wire 1 f \ALT_INV_flag~q\ $end
$var wire 1 g \ALT_INV_Equal1~0_combout\ $end
$var wire 1 h ALT_INV_conta1 [5] $end
$var wire 1 i ALT_INV_conta1 [4] $end
$var wire 1 j ALT_INV_conta1 [3] $end
$var wire 1 k ALT_INV_conta1 [2] $end
$var wire 1 l ALT_INV_conta1 [1] $end
$var wire 1 m ALT_INV_conta1 [0] $end
$var wire 1 n \ALT_INV_Equal2~0_combout\ $end
$var wire 1 o ALT_INV_conta2 [2] $end
$var wire 1 p ALT_INV_conta2 [1] $end
$var wire 1 q ALT_INV_conta2 [0] $end
$var wire 1 r \ALT_INV_flag~0_combout\ $end
$var wire 1 s \ALT_INV_Add1~0_combout\ $end
$var wire 1 t \ALT_INV_trigger_1min~input_o\ $end
$var wire 1 u \ALT_INV_trigger_1s~input_o\ $end
$var wire 1 v \ALT_INV_trigger_5s~input_o\ $end
$var wire 1 w \ALT_INV_zera~input_o\ $end
$upscope $end
$upscope $end
$enddefinitions $end
#0
$dumpvars
0!
0"
0#
1$
0%
0&
0'
1(
x)
1*
1+
1,
1-
1.
1/
00
01
12
03
04
05
06
07
08
19
0:
0;
0<
0=
0>
0?
0@
0A
0B
0C
0D
0E
0F
0G
0H
1I
0J
0K
0L
0M
1N
0O
0P
1f
1g
1n
0r
1s
1t
0u
1v
1w
0Q
0R
0S
0T
0U
0V
0W
0X
0Y
0Z
0[
0\
0]
0^
0_
1`
1a
1b
1c
1d
1e
1h
1i
1j
1k
1l
1m
1o
1p
1q
$end
#10000
1!
10
17
1\
0m
09
1;
#20000
0!
00
07
#30000
1!
10
17
0\
1[
0l
1m
19
#40000
0!
00
07
#50000
1!
10
17
1\
0m
09
0;
1<
#60000
0!
00
07
#70000
1!
10
17
0\
0[
1Z
0k
1l
1m
19
#80000
0!
00
07
#90000
1!
10
17
1\
0m
09
1;
#100000
0!
00
07
#110000
1!
10
17
0\
1[
0l
1m
19
#120000
0!
00
07
#130000
1!
10
17
1\
0m
09
0;
0<
1=
#140000
0!
00
07
#150000
1!
10
17
0\
0[
0Z
1Y
0j
1k
1l
1m
19
#160000
0!
00
07
#170000
1!
10
17
1\
0m
09
1;
#180000
0!
00
07
#190000
1!
10
17
0\
1[
0l
1m
19
#200000
0!
00
07
#210000
1!
10
17
1\
0m
09
0;
1<
#220000
0!
00
07
#230000
1!
10
17
0\
0[
1Z
0k
1l
1m
19
#240000
0!
00
07
#250000
1!
10
17
1\
0m
09
1;
#260000
0!
00
07
#270000
1!
10
17
0\
1[
0l
1m
19
#280000
0!
00
07
#290000
1!
10
17
1\
0m
09
0;
0<
0=
1>
#300000
0!
00
07
#310000
1!
10
17
0\
0[
0Z
0Y
1X
0i
1j
1k
1l
1m
19
#320000
0!
00
07
#330000
1!
10
17
1\
0m
09
1;
#340000
0!
00
07
#350000
1!
10
17
0\
1[
0l
1m
19
#360000
0!
00
07
#370000
1!
10
17
1\
0m
09
0;
1<
#380000
0!
00
07
#390000
1!
10
17
0\
0[
1Z
0k
1l
1m
19
#400000
0!
00
07
#410000
1!
10
17
1\
0m
09
1;
#420000
0!
00
07
#430000
1!
10
17
0\
1[
0l
1m
19
#440000
0!
00
07
#450000
1!
10
17
1\
0m
09
0;
0<
1=
#460000
0!
00
07
#470000
1!
10
17
0\
0[
0Z
1Y
0j
1k
1l
1m
19
#480000
0!
00
07
#490000
1!
10
17
1\
0m
09
1;
#500000
0!
00
07
#510000
1!
10
17
0\
1[
0l
1m
19
#520000
0!
00
07
#530000
1!
10
17
1\
0m
09
0;
1<
#540000
0!
00
07
#550000
1!
10
17
0\
0[
1Z
0k
1l
1m
19
#560000
0!
00
07
#570000
1!
10
17
1\
0m
09
1;
#580000
0!
00
07
#590000
1!
10
17
0\
1[
0l
1m
19
#600000
0!
00
07
#610000
1!
10
17
1\
0m
09
0;
0<
0=
0>
1?
#620000
0!
00
07
#630000
1!
10
17
0\
0[
0Z
0Y
0X
1W
0h
1i
1j
1k
1l
1m
19
#640000
0!
00
07
#650000
1!
10
17
1\
0m
09
1;
#660000
0!
00
07
#670000
1!
10
17
0\
1[
0l
1m
19
#680000
0!
00
07
#690000
1!
10
17
1\
0m
09
0;
1<
#700000
0!
00
07
#710000
1!
10
17
0\
0[
1Z
0k
1l
1m
19
#720000
0!
00
07
#730000
1!
10
17
1\
0m
09
1;
#740000
0!
00
07
#750000
1!
10
17
0\
1[
0l
1m
19
#760000
0!
00
07
#770000
1!
10
17
1\
0m
09
0;
0<
1=
#780000
0!
00
07
#790000
1!
10
17
0\
0[
0Z
1Y
0j
1k
1l
1m
19
#800000
0!
00
07
#810000
1!
10
17
1\
0m
09
1;
#820000
0!
00
07
#830000
1!
10
17
0\
1[
0l
1m
19
#840000
0!
00
07
#850000
1!
10
17
1\
0m
09
0;
1<
#860000
0!
00
07
#870000
1!
10
17
0\
0[
1Z
0k
1l
1m
19
#880000
0!
00
07
#890000
1!
10
17
1\
0m
09
1;
#900000
0!
00
07
#910000
1!
10
17
0\
1[
0l
1m
19
#920000
0!
00
07
#930000
1!
10
17
1\
0m
09
0;
0<
0=
1>
#940000
0!
00
07
#950000
1!
10
17
0\
0[
0Z
0Y
1X
0i
1j
1k
1l
1m
19
#960000
0!
00
07
#970000
1!
10
17
1\
0m
09
1;
#980000
0!
00
07
#990000
1!
10
17
0\
1[
0l
1m
0;
0>
0?
1@
0n
1A
1K
1O
#1000000
0!
00
07
#1010000
1!
10
17
0[
0X
0W
1V
1_
1P
0f
0q
0e
1h
1i
1l
19
0@
0A
1B
0K
1L
0N
1r
1n
16
1A
0B
1K
0L
15
1"
#1020000
0!
00
07
#1030000
1!
10
17
1\
0m
09
1;
#1040000
0!
1&
0$
00
11
02
0I
1:
07
0w
1u
0\
0V
0_
0P
1f
1q
1e
1m
19
0;
0A
0K
1N
0r
06
0O
05
0"
#1050000
1!
10
17
#1060000
0!
0&
1%
00
01
13
1J
0:
07
1w
0v
#1070000
1!
10
17
1\
0m
09
1;
#1080000
0!
00
07
#1090000
1!
10
17
0\
1[
0l
1m
19
#1100000
0!
00
07
#1110000
1!
10
17
1\
0m
09
0;
1<
#1120000
0!
00
07
#1130000
1!
10
17
0\
0[
1Z
0k
1l
1m
19
#1140000
0!
00
07
#1150000
1!
10
17
1\
0m
09
1;
#1160000
0!
00
07
#1170000
1!
10
17
0\
1[
0l
1m
19
#1180000
0!
00
07
#1190000
1!
10
17
1\
0m
09
0;
0<
1=
#1200000
0!
00
07
#1210000
1!
10
17
0\
0[
0Z
1Y
0j
1k
1l
1m
19
#1220000
0!
00
07
#1230000
1!
10
17
1\
0m
09
1;
#1240000
0!
00
07
#1250000
1!
10
17
0\
1[
0l
1m
19
#1260000
0!
00
07
#1270000
1!
10
17
1\
0m
09
0;
1<
#1280000
0!
00
07
#1290000
1!
10
17
0\
0[
1Z
0k
1l
1m
19
#1300000
0!
00
07
#1310000
1!
10
17
1\
0m
09
1;
#1320000
0!
00
07
#1330000
1!
10
17
0\
1[
0l
1m
19
#1340000
0!
00
07
#1350000
1!
10
17
1\
0m
09
0;
0<
0=
1>
#1360000
0!
00
07
#1370000
1!
10
17
0\
0[
0Z
0Y
1X
0i
1j
1k
1l
1m
19
#1380000
0!
00
07
#1390000
1!
10
17
1\
0m
09
1;
#1400000
0!
00
07
#1410000
1!
10
17
0\
1[
0l
1m
19
#1420000
0!
00
07
#1430000
1!
10
17
1\
0m
09
0;
1<
#1440000
0!
00
07
#1450000
1!
10
17
0\
0[
1Z
0k
1l
1m
19
#1460000
0!
00
07
#1470000
1!
10
17
1\
0m
09
1;
#1480000
0!
00
07
#1490000
1!
10
17
0\
1[
0l
1m
19
#1500000
0!
00
07
#1510000
1!
10
17
1\
0m
09
0;
0<
1=
#1520000
0!
00
07
#1530000
1!
10
17
0\
0[
0Z
1Y
0j
1k
1l
1m
19
#1540000
0!
00
07
#1550000
1!
10
17
1\
0m
09
1;
#1560000
0!
00
07
#1570000
1!
10
17
0\
1[
0l
1m
19
#1580000
0!
00
07
#1590000
1!
10
17
1\
0m
09
0;
1<
#1600000
0!
00
07
#1610000
1!
10
17
0\
0[
1Z
0k
1l
1m
19
#1620000
0!
00
07
#1630000
1!
10
17
1\
0m
09
1;
#1640000
0!
00
07
#1650000
1!
10
17
0\
1[
0l
1m
19
#1660000
0!
00
07
#1670000
1!
10
17
1\
0m
09
0;
0<
0=
0>
1?
#1680000
0!
00
07
#1690000
1!
10
17
0\
0[
0Z
0Y
0X
1W
0h
1i
1j
1k
1l
1m
19
#1700000
0!
00
07
#1710000
1!
10
17
1\
0m
09
1;
#1720000
0!
00
07
#1730000
1!
10
17
0\
1[
0l
1m
19
#1740000
0!
00
07
#1750000
1!
10
17
1\
0m
09
0;
1<
#1760000
0!
00
07
#1770000
1!
10
17
0\
0[
1Z
0k
1l
1m
19
#1780000
0!
00
07
#1790000
1!
10
17
1\
0m
09
1;
#1800000
0!
00
07
#1810000
1!
10
17
0\
1[
0l
1m
19
#1820000
0!
00
07
#1830000
1!
10
17
1\
0m
09
0;
0<
1=
#1840000
0!
00
07
#1850000
1!
10
17
0\
0[
0Z
1Y
0j
1k
1l
1m
19
#1860000
0!
00
07
#1870000
1!
10
17
1\
0m
09
1;
#1880000
0!
00
07
#1890000
1!
10
17
0\
1[
0l
1m
19
#1900000
0!
00
07
#1910000
1!
10
17
1\
0m
09
0;
1<
#1920000
0!
00
07
#1930000
1!
10
17
0\
0[
1Z
0k
1l
1m
19
#1940000
0!
00
07
#1950000
1!
10
17
1\
0m
09
1;
#1960000
0!
00
07
#1970000
1!
10
17
0\
1[
0l
1m
19
#1980000
0!
00
07
#1990000
1!
10
17
1\
0m
09
0;
0<
0=
1>
#2000000
0!
00
07
#2010000
1!
10
17
0\
0[
0Z
0Y
1X
0i
1j
1k
1l
1m
19
#2020000
0!
00
07
#2030000
1!
10
17
1\
0m
09
1;
#2040000
0!
00
07
#2050000
1!
10
17
0\
1[
0l
1m
0;
0>
0?
1@
0n
1A
1K
#2060000
0!
00
07
#2070000
1!
10
17
0[
0X
0W
1V
1_
0q
0e
1h
1i
1l
19
0@
0A
1B
0K
1L
1n
1A
0B
1K
0L
#2080000
0!
00
07
#2090000
1!
10
17
1\
0m
09
1;
#2100000
0!
00
07
#2110000
1!
10
17
0\
1[
0l
1m
19
#2120000
0!
00
07
#2130000
1!
10
17
1\
0m
09
0;
1<
#2140000
0!
00
07
#2150000
1!
10
17
0\
0[
1Z
0k
1l
1m
19
#2160000
0!
00
07
#2170000
1!
10
17
1\
0m
09
1;
#2180000
0!
00
07
#2190000
1!
10
17
0\
1[
0l
1m
19
#2200000
0!
00
07
#2210000
1!
10
17
1\
0m
09
0;
0<
1=
#2220000
0!
00
07
#2230000
1!
10
17
0\
0[
0Z
1Y
0j
1k
1l
1m
19
#2240000
0!
00
07
#2250000
1!
10
17
1\
0m
09
1;
#2260000
0!
00
07
#2270000
1!
10
17
0\
1[
0l
1m
19
#2280000
0!
00
07
#2290000
1!
10
17
1\
0m
09
0;
1<
#2300000
0!
00
07
#2310000
1!
10
17
0\
0[
1Z
0k
1l
1m
19
#2320000
0!
00
07
#2330000
1!
10
17
1\
0m
09
1;
#2340000
0!
00
07
#2350000
1!
10
17
0\
1[
0l
1m
19
#2360000
0!
00
07
#2370000
1!
10
17
1\
0m
09
0;
0<
0=
1>
#2380000
0!
00
07
#2390000
1!
10
17
0\
0[
0Z
0Y
1X
0i
1j
1k
1l
1m
19
#2400000
0!
00
07
#2410000
1!
10
17
1\
0m
09
1;
#2420000
0!
00
07
#2430000
1!
10
17
0\
1[
0l
1m
19
#2440000
0!
00
07
#2450000
1!
10
17
1\
0m
09
0;
1<
#2460000
0!
00
07
#2470000
1!
10
17
0\
0[
1Z
0k
1l
1m
19
#2480000
0!
00
07
#2490000
1!
10
17
1\
0m
09
1;
#2500000
0!
00
07
#2510000
1!
10
17
0\
1[
0l
1m
19
#2520000
0!
00
07
#2530000
1!
10
17
1\
0m
09
0;
0<
1=
#2540000
0!
00
07
#2550000
1!
10
17
0\
0[
0Z
1Y
0j
1k
1l
1m
19
#2560000
0!
00
07
#2570000
1!
10
17
1\
0m
09
1;
#2580000
0!
00
07
#2590000
1!
10
17
0\
1[
0l
1m
19
#2600000
0!
00
07
#2610000
1!
10
17
1\
0m
09
0;
1<
#2620000
0!
00
07
#2630000
1!
10
17
0\
0[
1Z
0k
1l
1m
19
#2640000
0!
00
07
#2650000
1!
10
17
1\
0m
09
1;
#2660000
0!
00
07
#2670000
1!
10
17
0\
1[
0l
1m
19
#2680000
0!
00
07
#2690000
1!
10
17
1\
0m
09
0;
0<
0=
0>
1?
#2700000
0!
00
07
#2710000
1!
10
17
0\
0[
0Z
0Y
0X
1W
0h
1i
1j
1k
1l
1m
19
#2720000
0!
00
07
#2730000
1!
10
17
1\
0m
09
1;
#2740000
0!
00
07
#2750000
1!
10
17
0\
1[
0l
1m
19
#2760000
0!
00
07
#2770000
1!
10
17
1\
0m
09
0;
1<
#2780000
0!
00
07
#2790000
1!
10
17
0\
0[
1Z
0k
1l
1m
19
#2800000
0!
00
07
#2810000
1!
10
17
1\
0m
09
1;
#2820000
0!
00
07
#2830000
1!
10
17
0\
1[
0l
1m
19
#2840000
0!
00
07
#2850000
1!
10
17
1\
0m
09
0;
0<
1=
#2860000
0!
00
07
#2870000
1!
10
17
0\
0[
0Z
1Y
0j
1k
1l
1m
19
#2880000
0!
00
07
#2890000
1!
10
17
1\
0m
09
1;
#2900000
0!
00
07
#2910000
1!
10
17
0\
1[
0l
1m
19
#2920000
0!
00
07
#2930000
1!
10
17
1\
0m
09
0;
1<
#2940000
0!
00
07
#2950000
1!
10
17
0\
0[
1Z
0k
1l
1m
19
#2960000
0!
00
07
#2970000
1!
10
17
1\
0m
09
1;
#2980000
0!
00
07
#2990000
1!
10
17
0\
1[
0l
1m
19
#3000000
0!
00
07
#3010000
1!
10
17
1\
0m
09
0;
0<
0=
1>
#3020000
0!
00
07
#3030000
1!
10
17
0\
0[
0Z
0Y
1X
0i
1j
1k
1l
1m
19
#3040000
0!
00
07
#3050000
1!
10
17
1\
0m
09
1;
#3060000
0!
00
07
#3070000
1!
10
17
0\
1[
0l
1m
0;
0>
0?
1@
0n
0A
1B
0K
1L
#3080000
0!
00
07
#3090000
1!
10
17
0[
0X
0W
0V
1U
0_
1^
0p
1q
0d
1e
1h
1i
1l
19
0@
1A
1K
1n
0A
0K
#3100000
0!
00
07
#3110000
1!
10
17
1\
0m
09
1;
#3120000
0!
00
07
#3130000
1!
10
17
0\
1[
0l
1m
19
#3140000
0!
00
07
#3150000
1!
10
17
1\
0m
09
0;
1<
#3160000
0!
00
07
#3170000
1!
10
17
0\
0[
1Z
0k
1l
1m
19
#3180000
0!
00
07
#3190000
1!
10
17
1\
0m
09
1;
#3200000
0!
00
07
#3210000
1!
10
17
0\
1[
0l
1m
19
#3220000
0!
00
07
#3230000
1!
10
17
1\
0m
09
0;
0<
1=
#3240000
0!
00
07
#3250000
1!
10
17
0\
0[
0Z
1Y
0j
1k
1l
1m
19
#3260000
0!
00
07
#3270000
1!
10
17
1\
0m
09
1;
#3280000
0!
00
07
#3290000
1!
10
17
0\
1[
0l
1m
19
#3300000
0!
00
07
#3310000
1!
10
17
1\
0m
09
0;
1<
#3320000
0!
00
07
#3330000
1!
10
17
0\
0[
1Z
0k
1l
1m
19
#3340000
0!
00
07
#3350000
1!
10
17
1\
0m
09
1;
#3360000
0!
00
07
#3370000
1!
10
17
0\
1[
0l
1m
19
#3380000
0!
00
07
#3390000
1!
10
17
1\
0m
09
0;
0<
0=
1>
#3400000
0!
00
07
#3410000
1!
10
17
0\
0[
0Z
0Y
1X
0i
1j
1k
1l
1m
19
#3420000
0!
00
07
#3430000
1!
10
17
1\
0m
09
1;
#3440000
0!
00
07
#3450000
1!
10
17
0\
1[
0l
1m
19
#3460000
0!
00
07
#3470000
1!
10
17
1\
0m
09
0;
1<
#3480000
0!
00
07
#3490000
1!
10
17
0\
0[
1Z
0k
1l
1m
19
#3500000
0!
00
07
#3510000
1!
10
17
1\
0m
09
1;
#3520000
0!
00
07
#3530000
1!
10
17
0\
1[
0l
1m
19
#3540000
0!
00
07
#3550000
1!
10
17
1\
0m
09
0;
0<
1=
#3560000
0!
00
07
#3570000
1!
10
17
0\
0[
0Z
1Y
0j
1k
1l
1m
19
#3580000
0!
00
07
#3590000
1!
10
17
1\
0m
09
1;
#3600000
0!
00
07
#3610000
1!
10
17
0\
1[
0l
1m
19
#3620000
0!
00
07
#3630000
1!
10
17
1\
0m
09
0;
1<
#3640000
0!
00
07
#3650000
1!
10
17
0\
0[
1Z
0k
1l
1m
19
#3660000
0!
00
07
#3670000
1!
10
17
1\
0m
09
1;
#3680000
0!
00
07
#3690000
1!
10
17
0\
1[
0l
1m
19
#3700000
0!
00
07
#3710000
1!
10
17
1\
0m
09
0;
0<
0=
0>
1?
#3720000
0!
00
07
#3730000
1!
10
17
0\
0[
0Z
0Y
0X
1W
0h
1i
1j
1k
1l
1m
19
#3740000
0!
00
07
#3750000
1!
10
17
1\
0m
09
1;
#3760000
0!
00
07
#3770000
1!
10
17
0\
1[
0l
1m
19
#3780000
0!
00
07
#3790000
1!
10
17
1\
0m
09
0;
1<
#3800000
0!
00
07
#3810000
1!
10
17
0\
0[
1Z
0k
1l
1m
19
#3820000
0!
00
07
#3830000
1!
10
17
1\
0m
09
1;
#3840000
0!
00
07
#3850000
1!
10
17
0\
1[
0l
1m
19
#3860000
0!
00
07
#3870000
1!
10
17
1\
0m
09
0;
0<
1=
#3880000
0!
00
07
#3890000
1!
10
17
0\
0[
0Z
1Y
0j
1k
1l
1m
19
#3900000
0!
00
07
#3910000
1!
10
17
1\
0m
09
1;
#3920000
0!
00
07
#3930000
1!
10
17
0\
1[
0l
1m
19
#3940000
0!
00
07
#3950000
1!
10
17
1\
0m
09
0;
1<
#3960000
0!
00
07
#3970000
1!
10
17
0\
0[
1Z
0k
1l
1m
19
#3980000
0!
00
07
#3990000
1!
10
17
1\
0m
09
1;
#4000000
0!
00
07
#4010000
1!
10
17
0\
1[
0l
1m
19
#4020000
0!
00
07
#4030000
1!
10
17
1\
0m
09
0;
0<
0=
1>
#4040000
0!
00
07
#4050000
1!
10
17
0\
0[
0Z
0Y
1X
0i
1j
1k
1l
1m
19
#4060000
0!
00
07
#4070000
1!
10
17
1\
0m
09
1;
#4080000
0!
00
07
#4090000
1!
10
17
0\
1[
0l
1m
0;
0>
0?
1@
0n
1A
1K
#4100000
0!
00
07
#4110000
1!
10
17
0[
0X
0W
1V
1_
0q
0e
1h
1i
1l
19
0@
0A
0B
1C
0K
0L
1M
1n
1A
1B
0C
1K
1L
0M
#4120000
0!
00
07
#4130000
1!
10
17
1\
0m
09
1;
#4140000
0!
00
07
#4150000
1!
10
17
0\
1[
0l
1m
19
#4160000
0!
00
07
#4170000
1!
10
17
1\
0m
09
0;
1<
#4180000
0!
00
07
#4190000
1!
10
17
0\
0[
1Z
0k
1l
1m
19
#4200000
0!
00
07
#4210000
1!
10
17
1\
0m
09
1;
#4220000
0!
00
07
#4230000
1!
10
17
0\
1[
0l
1m
19
#4240000
0!
00
07
#4250000
1!
10
17
1\
0m
09
0;
0<
1=
#4260000
0!
00
07
#4270000
1!
10
17
0\
0[
0Z
1Y
0j
1k
1l
1m
19
#4280000
0!
00
07
#4290000
1!
10
17
1\
0m
09
1;
#4300000
0!
00
07
#4310000
1!
10
17
0\
1[
0l
1m
19
#4320000
0!
00
07
#4330000
1!
10
17
1\
0m
09
0;
1<
#4340000
0!
00
07
#4350000
1!
10
17
0\
0[
1Z
0k
1l
1m
19
#4360000
0!
00
07
#4370000
1!
10
17
1\
0m
09
1;
#4380000
0!
00
07
#4390000
1!
10
17
0\
1[
0l
1m
19
#4400000
0!
00
07
#4410000
1!
10
17
1\
0m
09
0;
0<
0=
1>
#4420000
0!
00
07
#4430000
1!
10
17
0\
0[
0Z
0Y
1X
0i
1j
1k
1l
1m
19
#4440000
0!
00
07
#4450000
1!
10
17
1\
0m
09
1;
#4460000
0!
00
07
#4470000
1!
10
17
0\
1[
0l
1m
19
#4480000
0!
00
07
#4490000
1!
10
17
1\
0m
09
0;
1<
#4500000
0!
00
07
#4510000
1!
10
17
0\
0[
1Z
0k
1l
1m
19
#4520000
0!
00
07
#4530000
1!
10
17
1\
0m
09
1;
#4540000
0!
00
07
#4550000
1!
10
17
0\
1[
0l
1m
19
#4560000
0!
00
07
#4570000
1!
10
17
1\
0m
09
0;
0<
1=
#4580000
0!
00
07
#4590000
1!
10
17
0\
0[
0Z
1Y
0j
1k
1l
1m
19
#4600000
0!
00
07
#4610000
1!
10
17
1\
0m
09
1;
#4620000
0!
00
07
#4630000
1!
10
17
0\
1[
0l
1m
19
#4640000
0!
00
07
#4650000
1!
10
17
1\
0m
09
0;
1<
#4660000
0!
00
07
#4670000
1!
10
17
0\
0[
1Z
0k
1l
1m
19
#4680000
0!
00
07
#4690000
1!
10
17
1\
0m
09
1;
#4700000
0!
00
07
#4710000
1!
10
17
0\
1[
0l
1m
19
#4720000
0!
00
07
#4730000
1!
10
17
1\
0m
09
0;
0<
0=
0>
1?
#4740000
0!
00
07
#4750000
1!
10
17
0\
0[
0Z
0Y
0X
1W
0h
1i
1j
1k
1l
1m
19
#4760000
0!
00
07
#4770000
1!
10
17
1\
0m
09
1;
#4780000
0!
00
07
#4790000
1!
10
17
0\
1[
0l
1m
19
#4800000
0!
00
07
#4810000
1!
10
17
1\
0m
09
0;
1<
#4820000
0!
00
07
#4830000
1!
10
17
0\
0[
1Z
0k
1l
1m
19
#4840000
0!
00
07
#4850000
1!
10
17
1\
0m
09
1;
#4860000
0!
00
07
#4870000
1!
10
17
0\
1[
0l
1m
19
#4880000
0!
00
07
#4890000
1!
10
17
1\
0m
09
0;
0<
1=
#4900000
0!
00
07
#4910000
1!
10
17
0\
0[
0Z
1Y
0j
1k
1l
1m
19
#4920000
0!
00
07
#4930000
1!
10
17
1\
0m
09
1;
#4940000
0!
00
07
#4950000
1!
10
17
0\
1[
0l
1m
19
#4960000
0!
00
07
#4970000
1!
10
17
1\
0m
09
0;
1<
#4980000
0!
00
07
#4990000
1!
10
17
0\
0[
1Z
0k
1l
1m
19
#5000000
0!
00
07
#5010000
1!
10
17
1\
0m
09
1;
#5020000
0!
00
07
#5030000
1!
10
17
0\
1[
0l
1m
19
#5040000
0!
00
07
#5050000
1!
10
17
1\
0m
09
0;
0<
0=
1>
#5060000
0!
00
07
#5070000
1!
10
17
0\
0[
0Z
0Y
1X
0i
1j
1k
1l
1m
19
#5080000
0!
00
07
#5090000
1!
10
17
1\
0m
09
1;
#5100000
0!
00
07
#5110000
1!
10
17
0\
1[
0l
1m
0;
0>
0?
1@
0n
0A
0B
1C
0K
0L
1M
#5120000
0!
00
07
#5130000
1!
10
17
0[
0X
0W
0V
0U
1T
0_
0^
1]
0o
1p
1q
0c
1d
1e
1h
1i
1l
19
0@
1A
1K
1n
0A
0K
#5140000
0!
00
07
#5150000
1!
10
17
1\
0m
09
1;
#5160000
0!
00
07
#5170000
1!
10
17
0\
1[
0l
1m
19
#5180000
0!
00
07
#5190000
1!
10
17
1\
0m
09
0;
1<
#5200000
0!
00
07
#5210000
1!
10
17
0\
0[
1Z
0k
1l
1m
19
#5220000
0!
00
07
#5230000
1!
10
17
1\
0m
09
1;
#5240000
0!
00
07
#5250000
1!
10
17
0\
1[
0l
1m
19
#5260000
0!
00
07
#5270000
1!
10
17
1\
0m
09
0;
0<
1=
#5280000
0!
00
07
#5290000
1!
10
17
0\
0[
0Z
1Y
0j
1k
1l
1m
19
#5300000
0!
00
07
#5310000
1!
10
17
1\
0m
09
1;
#5320000
0!
00
07
#5330000
1!
10
17
0\
1[
0l
1m
19
#5340000
0!
00
07
#5350000
1!
10
17
1\
0m
09
0;
1<
#5360000
0!
00
07
#5370000
1!
10
17
0\
0[
1Z
0k
1l
1m
19
#5380000
0!
00
07
#5390000
1!
10
17
1\
0m
09
1;
#5400000
0!
00
07
#5410000
1!
10
17
0\
1[
0l
1m
19
#5420000
0!
00
07
#5430000
1!
10
17
1\
0m
09
0;
0<
0=
1>
#5440000
0!
00
07
#5450000
1!
10
17
0\
0[
0Z
0Y
1X
0i
1j
1k
1l
1m
19
#5460000
0!
00
07
#5470000
1!
10
17
1\
0m
09
1;
#5480000
0!
00
07
#5490000
1!
10
17
0\
1[
0l
1m
19
#5500000
0!
00
07
#5510000
1!
10
17
1\
0m
09
0;
1<
#5520000
0!
00
07
#5530000
1!
10
17
0\
0[
1Z
0k
1l
1m
19
#5540000
0!
00
07
#5550000
1!
10
17
1\
0m
09
1;
#5560000
0!
00
07
#5570000
1!
10
17
0\
1[
0l
1m
19
#5580000
0!
00
07
#5590000
1!
10
17
1\
0m
09
0;
0<
1=
#5600000
0!
00
07
#5610000
1!
10
17
0\
0[
0Z
1Y
0j
1k
1l
1m
19
#5620000
0!
00
07
#5630000
1!
10
17
1\
0m
09
1;
#5640000
0!
00
07
#5650000
1!
10
17
0\
1[
0l
1m
19
#5660000
0!
00
07
#5670000
1!
10
17
1\
0m
09
0;
1<
#5680000
0!
00
07
#5690000
1!
10
17
0\
0[
1Z
0k
1l
1m
19
#5700000
0!
00
07
#5710000
1!
10
17
1\
0m
09
1;
#5720000
0!
00
07
#5730000
1!
10
17
0\
1[
0l
1m
19
#5740000
0!
00
07
#5750000
1!
10
17
1\
0m
09
0;
0<
0=
0>
1?
#5760000
0!
00
07
#5770000
1!
10
17
0\
0[
0Z
0Y
0X
1W
0h
1i
1j
1k
1l
1m
19
#5780000
0!
00
07
#5790000
1!
10
17
1\
0m
09
1;
#5800000
0!
00
07
#5810000
1!
10
17
0\
1[
0l
1m
19
#5820000
0!
00
07
#5830000
1!
10
17
1\
0m
09
0;
1<
#5840000
0!
00
07
#5850000
1!
10
17
0\
0[
1Z
0k
1l
1m
19
#5860000
0!
00
07
#5870000
1!
10
17
1\
0m
09
1;
#5880000
0!
00
07
#5890000
1!
10
17
0\
1[
0l
1m
19
#5900000
0!
00
07
#5910000
1!
10
17
1\
0m
09
0;
0<
1=
#5920000
0!
00
07
#5930000
1!
10
17
0\
0[
0Z
1Y
0j
1k
1l
1m
19
#5940000
0!
00
07
#5950000
1!
10
17
1\
0m
09
1;
#5960000
0!
00
07
#5970000
1!
10
17
0\
1[
0l
1m
19
#5980000
0!
00
07
#5990000
1!
10
17
1\
0m
09
0;
1<
#6000000
0!
00
07
#6010000
1!
10
17
0\
0[
1Z
0k
1l
1m
19
#6020000
0!
00
07
